%!PS-Adobe-2.0 EPSF-2.0
%%Title: /home/denivyruck/UDESC/TCC/Imagens/caso1.dia
%%Creator: Dia v0.97.3
%%CreationDate: Mon Oct 24 21:50:02 2016
%%For: denivyruck
%%Orientation: Portrait
%%Magnification: 1.0000
%%BoundingBox: 0 0 1013 469
%%BeginSetup
%%EndSetup
%%EndComments
%%BeginProlog
[ /.notdef /.notdef /.notdef /.notdef /.notdef /.notdef /.notdef /.notdef /.notdef /.notdef
/.notdef /.notdef /.notdef /.notdef /.notdef /.notdef /.notdef /.notdef /.notdef /.notdef
/.notdef /.notdef /.notdef /.notdef /.notdef /.notdef /.notdef /.notdef /.notdef /.notdef
/.notdef /.notdef /space /exclam /quotedbl /numbersign /dollar /percent /ampersand /quoteright
/parenleft /parenright /asterisk /plus /comma /hyphen /period /slash /zero /one
/two /three /four /five /six /seven /eight /nine /colon /semicolon
/less /equal /greater /question /at /A /B /C /D /E
/F /G /H /I /J /K /L /M /N /O
/P /Q /R /S /T /U /V /W /X /Y
/Z /bracketleft /backslash /bracketright /asciicircum /underscore /quoteleft /a /b /c
/d /e /f /g /h /i /j /k /l /m
/n /o /p /q /r /s /t /u /v /w
/x /y /z /braceleft /bar /braceright /asciitilde /.notdef /.notdef /.notdef
/.notdef /.notdef /.notdef /.notdef /.notdef /.notdef /.notdef /.notdef /.notdef /.notdef
/.notdef /.notdef /.notdef /.notdef /.notdef /.notdef /.notdef /.notdef /.notdef /.notdef
/.notdef /.notdef /.notdef /.notdef /.notdef /.notdef /.notdef /.notdef /.notdef /.notdef
/space /exclamdown /cent /sterling /currency /yen /brokenbar /section /dieresis /copyright
/ordfeminine /guillemotleft /logicalnot /hyphen /registered /macron /degree /plusminus /twosuperior /threesuperior
/acute /mu /paragraph /periodcentered /cedilla /onesuperior /ordmasculine /guillemotright /onequarter /onehalf
/threequarters /questiondown /Agrave /Aacute /Acircumflex /Atilde /Adieresis /Aring /AE /Ccedilla
/Egrave /Eacute /Ecircumflex /Edieresis /Igrave /Iacute /Icircumflex /Idieresis /Eth /Ntilde
/Ograve /Oacute /Ocircumflex /Otilde /Odieresis /multiply /Oslash /Ugrave /Uacute /Ucircumflex
/Udieresis /Yacute /Thorn /germandbls /agrave /aacute /acircumflex /atilde /adieresis /aring
/ae /ccedilla /egrave /eacute /ecircumflex /edieresis /igrave /iacute /icircumflex /idieresis
/eth /ntilde /ograve /oacute /ocircumflex /otilde /odieresis /divide /oslash /ugrave
/uacute /ucircumflex /udieresis /yacute /thorn /ydieresis] /isolatin1encoding exch def
/cp {closepath} bind def
/c {curveto} bind def
/f {fill} bind def
/a {arc} bind def
/ef {eofill} bind def
/ex {exch} bind def
/gr {grestore} bind def
/gs {gsave} bind def
/sa {save} bind def
/rs {restore} bind def
/l {lineto} bind def
/m {moveto} bind def
/rm {rmoveto} bind def
/n {newpath} bind def
/s {stroke} bind def
/sh {show} bind def
/slc {setlinecap} bind def
/slj {setlinejoin} bind def
/slw {setlinewidth} bind def
/srgb {setrgbcolor} bind def
/rot {rotate} bind def
/sc {scale} bind def
/sd {setdash} bind def
/ff {findfont} bind def
/sf {setfont} bind def
/scf {scalefont} bind def
/sw {stringwidth pop} bind def
/tr {translate} bind def

/ellipsedict 8 dict def
ellipsedict /mtrx matrix put
/ellipse
{ ellipsedict begin
   /endangle exch def
   /startangle exch def
   /yrad exch def
   /xrad exch def
   /y exch def
   /x exch def   /savematrix mtrx currentmatrix def
   x y tr xrad yrad sc
   0 0 1 startangle endangle arc
   savematrix setmatrix
   end
} def

/mergeprocs {
dup length
3 -1 roll
dup
length
dup
5 1 roll
3 -1 roll
add
array cvx
dup
3 -1 roll
0 exch
putinterval
dup
4 2 roll
putinterval
} bind def
/dpi_x 300 def
/dpi_y 300 def
/conicto {
    /to_y exch def
    /to_x exch def
    /conic_cntrl_y exch def
    /conic_cntrl_x exch def
    currentpoint
    /p0_y exch def
    /p0_x exch def
    /p1_x p0_x conic_cntrl_x p0_x sub 2 3 div mul add def
    /p1_y p0_y conic_cntrl_y p0_y sub 2 3 div mul add def
    /p2_x p1_x to_x p0_x sub 1 3 div mul add def
    /p2_y p1_y to_y p0_y sub 1 3 div mul add def
    p1_x p1_y p2_x p2_y to_x to_y curveto
} bind def
/start_ol { gsave 1.1 dpi_x div dup scale} bind def
/end_ol { closepath fill grestore } bind def
28.346000 -28.346000 scale
-13.652892 -28.845609 translate
%%EndProlog


0.100000 slw
[] 0 sd
[] 0 sd
0 slj
0.000000 0.000000 0.000000 srgb
n 19.458216 12.366119 m 19.458216 28.795609 l 49.324569 28.795609 l 49.324569 12.366119 l cp s
1.000000 1.000000 1.000000 srgb
n 21.944883 14.611660 1.537707 1.436467 0 360 ellipse f
0.100000 slw
[1.000000 0.400000 0.200000 0.400000] 0 sd
[1.000000 0.400000 0.200000 0.400000] 0 sd
0 slj
0.000000 0.000000 1.000000 srgb
n 21.944883 14.611660 1.537707 1.436467 0 360 ellipse cp s
0.000000 0.000000 0.000000 srgb
gsave 21.741133 14.806660 translate 0.035278 -0.035278 scale
start_ol
603 384 moveto
1387 384 lineto
1387 3136 lineto
534 2944 lineto
534 3328 lineto
1382 3520 lineto
1862 3520 lineto
1862 384 lineto
2646 384 lineto
2646 0 lineto
603 0 lineto
603 384 lineto
end_ol grestore 
1.000000 1.000000 1.000000 srgb
n 26.916009 14.587350 1.537707 1.436467 0 360 ellipse f
0.100000 slw
[1.000000 0.400000 0.200000 0.400000] 0 sd
[1.000000 0.400000 0.200000 0.400000] 0 sd
0 slj
0.000000 0.000000 1.000000 srgb
n 26.916009 14.587350 1.537707 1.436467 0 360 ellipse cp s
0.000000 0.000000 0.000000 srgb
gsave 26.712259 14.782350 translate 0.035278 -0.035278 scale
start_ol
933 384 moveto
2608 384 lineto
2608 0 lineto
356 0 lineto
356 384 lineto
629 668 1100 1146 conicto
1572 1625 1694 1763 conicto
1924 2023 2015 2203 conicto
2107 2384 2107 2558 conicto
2107 2842 1908 3021 conicto
1710 3200 1392 3200 conicto
1166 3200 915 3104 conicto
665 3009 380 2816 conicto
380 3328 lineto
670 3455 921 3519 conicto
1173 3584 1382 3584 conicto
1933 3584 2261 3309 conicto
2589 3034 2589 2574 conicto
2589 2356 2507 2160 conicto
2425 1965 2209 1700 conicto
2149 1631 1831 1302 conicto
1513 974 933 384 conicto
end_ol grestore 
1.000000 1.000000 1.000000 srgb
n 31.950697 14.550269 1.537707 1.436467 0 360 ellipse f
0.100000 slw
[1.000000 0.400000 0.200000 0.400000] 0 sd
[1.000000 0.400000 0.200000 0.400000] 0 sd
0 slj
0.000000 0.000000 1.000000 srgb
n 31.950697 14.550269 1.537707 1.436467 0 360 ellipse cp s
0.000000 0.000000 0.000000 srgb
gsave 31.746947 14.745269 translate 0.035278 -0.035278 scale
start_ol
1974 1936 moveto
2318 1862 2511 1627 conicto
2705 1392 2705 1046 conicto
2705 516 2344 226 conicto
1983 -64 1318 -64 conicto
1095 -64 859 -16 conicto
623 32 371 128 conicto
371 576 lineto
570 449 807 384 conicto
1045 320 1304 320 conicto
1755 320 1991 504 conicto
2228 688 2228 1039 conicto
2228 1363 2008 1545 conicto
1789 1728 1397 1728 conicto
983 1728 lineto
983 2112 lineto
1416 2112 lineto
1770 2112 1957 2250 conicto
2145 2388 2145 2648 conicto
2145 2915 1951 3057 conicto
1758 3200 1397 3200 conicto
1200 3200 974 3153 conicto
748 3107 477 3008 conicto
477 3456 lineto
750 3520 989 3552 conicto
1228 3584 1439 3584 conicto
1985 3584 2303 3343 conicto
2622 3102 2622 2692 conicto
2622 2406 2453 2209 conicto
2285 2012 1974 1936 conicto
end_ol grestore 
1.000000 1.000000 1.000000 srgb
n 36.945721 14.635024 1.537707 1.436467 0 360 ellipse f
0.100000 slw
[] 0 sd
[] 0 sd
0 slj
1.000000 0.000000 0.000000 srgb
n 36.945721 14.635024 1.537707 1.436467 0 360 ellipse cp s
0.000000 0.000000 0.000000 srgb
gsave 36.741971 14.830024 translate 0.035278 -0.035278 scale
start_ol
1838 3103 moveto
627 1216 lineto
1838 1216 lineto
1838 3103 lineto
1713 3520 moveto
2316 3520 lineto
2316 1216 lineto
2822 1216 lineto
2822 832 lineto
2316 832 lineto
2316 0 lineto
1838 0 lineto
1838 832 lineto
238 832 lineto
238 1291 lineto
1713 3520 lineto
end_ol grestore 
1.000000 1.000000 1.000000 srgb
n 41.961735 14.647377 1.537707 1.436467 0 360 ellipse f
0.100000 slw
[] 0 sd
[] 0 sd
0 slj
1.000000 0.000000 0.000000 srgb
n 41.961735 14.647377 1.537707 1.436467 0 360 ellipse cp s
0.000000 0.000000 0.000000 srgb
gsave 41.757985 14.842377 translate 0.035278 -0.035278 scale
start_ol
525 3520 moveto
2408 3520 lineto
2408 3136 lineto
964 3136 lineto
964 2300 lineto
1069 2334 1173 2351 conicto
1278 2368 1382 2368 conicto
1976 2368 2323 2040 conicto
2670 1712 2670 1152 conicto
2670 575 2313 255 conicto
1957 -64 1309 -64 conicto
1085 -64 853 -32 conicto
622 0 375 64 conicto
375 576 lineto
589 447 817 383 conicto
1045 320 1299 320 conicto
1710 320 1950 544 conicto
2190 768 2190 1152 conicto
2190 1536 1950 1760 conicto
1710 1984 1299 1984 conicto
1107 1984 916 1937 conicto
725 1891 525 1792 conicto
525 3520 lineto
end_ol grestore 
1.000000 1.000000 1.000000 srgb
n 46.849959 14.578804 1.537707 1.436467 0 360 ellipse f
0.100000 slw
[] 0 sd
[] 0 sd
0 slj
1.000000 0.000000 0.000000 srgb
n 46.849959 14.578804 1.537707 1.436467 0 360 ellipse cp s
0.000000 0.000000 0.000000 srgb
gsave 46.646209 14.773804 translate 0.035278 -0.035278 scale
start_ol
1605 1984 moveto
1283 1984 1094 1761 conicto
905 1539 905 1152 conicto
905 767 1094 543 conicto
1283 320 1605 320 conicto
1928 320 2117 543 conicto
2306 767 2306 1152 conicto
2306 1539 2117 1761 conicto
1928 1984 1605 1984 conicto
2558 3456 moveto
2558 3008 lineto
2377 3101 2193 3150 conicto
2009 3200 1829 3200 conicto
1354 3200 1103 2885 conicto
853 2571 817 1936 conicto
957 2145 1168 2256 conicto
1380 2368 1634 2368 conicto
2168 2368 2478 2041 conicto
2788 1715 2788 1152 conicto
2788 601 2465 268 conicto
2142 -64 1606 -64 conicto
991 -64 665 403 conicto
340 871 340 1759 conicto
340 2593 739 3088 conicto
1138 3584 1810 3584 conicto
1990 3584 2174 3552 conicto
2359 3520 2558 3456 conicto
end_ol grestore 
1.000000 1.000000 1.000000 srgb
n 22.027022 18.798685 1.537707 1.436467 0 360 ellipse f
0.100000 slw
[1.000000 0.400000 0.200000 0.400000] 0 sd
[1.000000 0.400000 0.200000 0.400000] 0 sd
0 slj
0.000000 0.000000 1.000000 srgb
n 22.027022 18.798685 1.537707 1.436467 0 360 ellipse cp s
0.000000 0.000000 0.000000 srgb
gsave 21.823272 18.993685 translate 0.035278 -0.035278 scale
start_ol
399 3520 moveto
2679 3520 lineto
2679 3317 lineto
1392 0 lineto
891 0 lineto
2102 3136 lineto
399 3136 lineto
399 3520 lineto
end_ol grestore 
1.000000 1.000000 1.000000 srgb
n 26.952298 18.820225 1.537707 1.436467 0 360 ellipse f
0.100000 slw
[1.000000 0.400000 0.200000 0.400000] 0 sd
[1.000000 0.400000 0.200000 0.400000] 0 sd
0 slj
0.000000 0.000000 1.000000 srgb
n 26.952298 18.820225 1.537707 1.436467 0 360 ellipse cp s
0.000000 0.000000 0.000000 srgb
gsave 26.748548 19.015225 translate 0.035278 -0.035278 scale
start_ol
1546 1664 moveto
1204 1664 1008 1485 conicto
812 1306 812 992 conicto
812 678 1008 499 conicto
1204 320 1546 320 conicto
1888 320 2085 500 conicto
2282 680 2282 992 conicto
2282 1306 2086 1485 conicto
1890 1664 1546 1664 conicto
1066 1872 moveto
757 1948 585 2158 conicto
413 2368 413 2670 conicto
413 3093 716 3338 conicto
1019 3584 1546 3584 conicto
2076 3584 2377 3338 conicto
2679 3093 2679 2670 conicto
2679 2368 2506 2158 conicto
2334 1948 2028 1872 conicto
2375 1792 2568 1559 conicto
2762 1327 2762 991 conicto
2762 481 2447 208 conicto
2133 -64 1546 -64 conicto
959 -64 644 208 conicto
330 481 330 991 conicto
330 1327 524 1559 conicto
719 1792 1066 1872 conicto
891 2624 moveto
891 2352 1063 2200 conicto
1235 2048 1546 2048 conicto
1855 2048 2029 2200 conicto
2204 2352 2204 2624 conicto
2204 2896 2029 3048 conicto
1855 3200 1546 3200 conicto
1235 3200 1063 3048 conicto
891 2896 891 2624 conicto
end_ol grestore 
1.000000 1.000000 1.000000 srgb
n 32.124536 18.645594 1.537707 1.436467 0 360 ellipse f
0.100000 slw
[1.000000 0.400000 0.200000 0.400000] 0 sd
[1.000000 0.400000 0.200000 0.400000] 0 sd
0 slj
0.000000 0.000000 1.000000 srgb
n 32.124536 18.645594 1.537707 1.436467 0 360 ellipse cp s
0.000000 0.000000 0.000000 srgb
gsave 31.920786 18.840594 translate 0.035278 -0.035278 scale
start_ol
534 64 moveto
534 512 lineto
715 419 900 369 conicto
1085 320 1263 320 conicto
1738 320 1988 648 conicto
2239 977 2275 1646 conicto
2137 1438 1925 1327 conicto
1714 1216 1458 1216 conicto
926 1216 616 1532 conicto
306 1849 306 2398 conicto
306 2935 629 3259 conicto
952 3584 1489 3584 conicto
2104 3584 2428 3116 conicto
2753 2649 2753 1759 conicto
2753 927 2355 431 conicto
1957 -64 1285 -64 conicto
1104 -64 919 -32 conicto
734 0 534 64 conicto
1489 1600 moveto
1812 1600 2001 1814 conicto
2190 2028 2190 2400 conicto
2190 2770 2001 2985 conicto
1812 3200 1489 3200 conicto
1167 3200 978 2985 conicto
789 2770 789 2400 conicto
789 2028 978 1814 conicto
1167 1600 1489 1600 conicto
end_ol grestore 
1.000000 1.000000 1.000000 srgb
n 37.027860 18.867899 1.537707 1.436467 0 360 ellipse f
0.100000 slw
[] 0 sd
[] 0 sd
0 slj
1.000000 0.000000 0.000000 srgb
n 37.027860 18.867899 1.537707 1.436467 0 360 ellipse cp s
0.000000 0.000000 0.000000 srgb
gsave 36.620360 19.062899 translate 0.035278 -0.035278 scale
start_ol
603 384 moveto
1387 384 lineto
1387 3136 lineto
534 2944 lineto
534 3328 lineto
1382 3520 lineto
1862 3520 lineto
1862 384 lineto
2646 384 lineto
2646 0 lineto
603 0 lineto
603 384 lineto
end_ol grestore 
gsave 37.027479 19.062899 translate 0.035278 -0.035278 scale
start_ol
1546 3200 moveto
1176 3200 989 2840 conicto
803 2481 803 1759 conicto
803 1039 989 679 conicto
1176 320 1546 320 conicto
1919 320 2105 679 conicto
2292 1039 2292 1759 conicto
2292 2481 2105 2840 conicto
1919 3200 1546 3200 conicto
1547 3584 moveto
2143 3584 2457 3116 conicto
2772 2649 2772 1759 conicto
2772 871 2457 403 conicto
2143 -64 1547 -64 conicto
950 -64 635 403 conicto
321 871 321 1759 conicto
321 2649 635 3116 conicto
950 3584 1547 3584 conicto
end_ol grestore 
1.000000 1.000000 1.000000 srgb
n 41.952174 18.880252 1.537707 1.436467 0 360 ellipse f
0.100000 slw
[] 0 sd
[] 0 sd
0 slj
1.000000 0.000000 0.000000 srgb
n 41.952174 18.880252 1.537707 1.436467 0 360 ellipse cp s
0.000000 0.000000 0.000000 srgb
gsave 41.544674 19.075252 translate 0.035278 -0.035278 scale
start_ol
603 384 moveto
1387 384 lineto
1387 3136 lineto
534 2944 lineto
534 3328 lineto
1382 3520 lineto
1862 3520 lineto
1862 384 lineto
2646 384 lineto
2646 0 lineto
603 0 lineto
603 384 lineto
end_ol grestore 
gsave 41.951793 19.075252 translate 0.035278 -0.035278 scale
start_ol
603 384 moveto
1387 384 lineto
1387 3136 lineto
534 2944 lineto
534 3328 lineto
1382 3520 lineto
1862 3520 lineto
1862 384 lineto
2646 384 lineto
2646 0 lineto
603 0 lineto
603 384 lineto
end_ol grestore 
1.000000 1.000000 1.000000 srgb
n 46.932097 18.903379 1.537707 1.436467 0 360 ellipse f
0.100000 slw
[] 0 sd
[] 0 sd
0 slj
1.000000 0.000000 0.000000 srgb
n 46.932097 18.903379 1.537707 1.436467 0 360 ellipse cp s
0.000000 0.000000 0.000000 srgb
gsave 46.524597 19.098379 translate 0.035278 -0.035278 scale
start_ol
603 384 moveto
1387 384 lineto
1387 3136 lineto
534 2944 lineto
534 3328 lineto
1382 3520 lineto
1862 3520 lineto
1862 384 lineto
2646 384 lineto
2646 0 lineto
603 0 lineto
603 384 lineto
end_ol grestore 
gsave 46.931716 19.098379 translate 0.035278 -0.035278 scale
start_ol
933 384 moveto
2608 384 lineto
2608 0 lineto
356 0 lineto
356 384 lineto
629 668 1100 1146 conicto
1572 1625 1694 1763 conicto
1924 2023 2015 2203 conicto
2107 2384 2107 2558 conicto
2107 2842 1908 3021 conicto
1710 3200 1392 3200 conicto
1166 3200 915 3104 conicto
665 3009 380 2816 conicto
380 3328 lineto
670 3455 921 3519 conicto
1173 3584 1382 3584 conicto
1933 3584 2261 3309 conicto
2589 3034 2589 2574 conicto
2589 2356 2507 2160 conicto
2425 1965 2209 1700 conicto
2149 1631 1831 1302 conicto
1513 974 933 384 conicto
end_ol grestore 
1.000000 1.000000 1.000000 srgb
n 22.027022 22.694836 1.537707 1.436467 0 360 ellipse f
0.100000 slw
[1.000000 0.400000 0.200000 0.400000] 0 sd
[1.000000 0.400000 0.200000 0.400000] 0 sd
0 slj
0.000000 0.000000 1.000000 srgb
n 22.027022 22.694836 1.537707 1.436467 0 360 ellipse cp s
0.000000 0.000000 0.000000 srgb
gsave 21.619522 22.889836 translate 0.035278 -0.035278 scale
start_ol
603 384 moveto
1387 384 lineto
1387 3136 lineto
534 2944 lineto
534 3328 lineto
1382 3520 lineto
1862 3520 lineto
1862 384 lineto
2646 384 lineto
2646 0 lineto
603 0 lineto
603 384 lineto
end_ol grestore 
gsave 22.026641 22.889836 translate 0.035278 -0.035278 scale
start_ol
1974 1936 moveto
2318 1862 2511 1627 conicto
2705 1392 2705 1046 conicto
2705 516 2344 226 conicto
1983 -64 1318 -64 conicto
1095 -64 859 -16 conicto
623 32 371 128 conicto
371 576 lineto
570 449 807 384 conicto
1045 320 1304 320 conicto
1755 320 1991 504 conicto
2228 688 2228 1039 conicto
2228 1363 2008 1545 conicto
1789 1728 1397 1728 conicto
983 1728 lineto
983 2112 lineto
1416 2112 lineto
1770 2112 1957 2250 conicto
2145 2388 2145 2648 conicto
2145 2915 1951 3057 conicto
1758 3200 1397 3200 conicto
1200 3200 974 3153 conicto
748 3107 477 3008 conicto
477 3456 lineto
750 3520 989 3552 conicto
1228 3584 1439 3584 conicto
1985 3584 2303 3343 conicto
2622 3102 2622 2692 conicto
2622 2406 2453 2209 conicto
2285 2012 1974 1936 conicto
end_ol grestore 
1.000000 1.000000 1.000000 srgb
n 26.952298 22.716376 1.537707 1.436467 0 360 ellipse f
0.100000 slw
[1.000000 0.400000 0.200000 0.400000] 0 sd
[1.000000 0.400000 0.200000 0.400000] 0 sd
0 slj
0.000000 0.000000 1.000000 srgb
n 26.952298 22.716376 1.537707 1.436467 0 360 ellipse cp s
0.000000 0.000000 0.000000 srgb
gsave 26.544798 22.911376 translate 0.035278 -0.035278 scale
start_ol
603 384 moveto
1387 384 lineto
1387 3136 lineto
534 2944 lineto
534 3328 lineto
1382 3520 lineto
1862 3520 lineto
1862 384 lineto
2646 384 lineto
2646 0 lineto
603 0 lineto
603 384 lineto
end_ol grestore 
gsave 26.951917 22.911376 translate 0.035278 -0.035278 scale
start_ol
1838 3103 moveto
627 1216 lineto
1838 1216 lineto
1838 3103 lineto
1713 3520 moveto
2316 3520 lineto
2316 1216 lineto
2822 1216 lineto
2822 832 lineto
2316 832 lineto
2316 0 lineto
1838 0 lineto
1838 832 lineto
238 832 lineto
238 1291 lineto
1713 3520 lineto
end_ol grestore 
1.000000 1.000000 1.000000 srgb
n 32.124536 22.587594 1.537707 1.436467 0 360 ellipse f
0.100000 slw
[1.000000 0.400000 0.200000 0.400000] 0 sd
[1.000000 0.400000 0.200000 0.400000] 0 sd
0 slj
0.000000 0.000000 1.000000 srgb
n 32.124536 22.587594 1.537707 1.436467 0 360 ellipse cp s
0.000000 0.000000 0.000000 srgb
gsave 31.717036 22.782594 translate 0.035278 -0.035278 scale
start_ol
603 384 moveto
1387 384 lineto
1387 3136 lineto
534 2944 lineto
534 3328 lineto
1382 3520 lineto
1862 3520 lineto
1862 384 lineto
2646 384 lineto
2646 0 lineto
603 0 lineto
603 384 lineto
end_ol grestore 
gsave 32.124155 22.782594 translate 0.035278 -0.035278 scale
start_ol
525 3520 moveto
2408 3520 lineto
2408 3136 lineto
964 3136 lineto
964 2300 lineto
1069 2334 1173 2351 conicto
1278 2368 1382 2368 conicto
1976 2368 2323 2040 conicto
2670 1712 2670 1152 conicto
2670 575 2313 255 conicto
1957 -64 1309 -64 conicto
1085 -64 853 -32 conicto
622 0 375 64 conicto
375 576 lineto
589 447 817 383 conicto
1045 320 1299 320 conicto
1710 320 1950 544 conicto
2190 768 2190 1152 conicto
2190 1536 1950 1760 conicto
1710 1984 1299 1984 conicto
1107 1984 916 1937 conicto
725 1891 525 1792 conicto
525 3520 lineto
end_ol grestore 
1.000000 1.000000 1.000000 srgb
n 37.027860 22.764050 1.537707 1.436467 0 360 ellipse f
0.100000 slw
[] 0 sd
[] 0 sd
0 slj
1.000000 0.000000 0.000000 srgb
n 37.027860 22.764050 1.537707 1.436467 0 360 ellipse cp s
0.000000 0.000000 0.000000 srgb
gsave 36.620360 22.959050 translate 0.035278 -0.035278 scale
start_ol
603 384 moveto
1387 384 lineto
1387 3136 lineto
534 2944 lineto
534 3328 lineto
1382 3520 lineto
1862 3520 lineto
1862 384 lineto
2646 384 lineto
2646 0 lineto
603 0 lineto
603 384 lineto
end_ol grestore 
gsave 37.027479 22.959050 translate 0.035278 -0.035278 scale
start_ol
1605 1984 moveto
1283 1984 1094 1761 conicto
905 1539 905 1152 conicto
905 767 1094 543 conicto
1283 320 1605 320 conicto
1928 320 2117 543 conicto
2306 767 2306 1152 conicto
2306 1539 2117 1761 conicto
1928 1984 1605 1984 conicto
2558 3456 moveto
2558 3008 lineto
2377 3101 2193 3150 conicto
2009 3200 1829 3200 conicto
1354 3200 1103 2885 conicto
853 2571 817 1936 conicto
957 2145 1168 2256 conicto
1380 2368 1634 2368 conicto
2168 2368 2478 2041 conicto
2788 1715 2788 1152 conicto
2788 601 2465 268 conicto
2142 -64 1606 -64 conicto
991 -64 665 403 conicto
340 871 340 1759 conicto
340 2593 739 3088 conicto
1138 3584 1810 3584 conicto
1990 3584 2174 3552 conicto
2359 3520 2558 3456 conicto
end_ol grestore 
1.000000 1.000000 1.000000 srgb
n 41.952174 22.684702 1.537707 1.436467 0 360 ellipse f
0.100000 slw
[] 0 sd
[] 0 sd
0 slj
1.000000 0.000000 0.000000 srgb
n 41.952174 22.684702 1.537707 1.436467 0 360 ellipse cp s
0.000000 0.000000 0.000000 srgb
gsave 41.544674 22.879702 translate 0.035278 -0.035278 scale
start_ol
603 384 moveto
1387 384 lineto
1387 3136 lineto
534 2944 lineto
534 3328 lineto
1382 3520 lineto
1862 3520 lineto
1862 384 lineto
2646 384 lineto
2646 0 lineto
603 0 lineto
603 384 lineto
end_ol grestore 
gsave 41.951793 22.879702 translate 0.035278 -0.035278 scale
start_ol
399 3520 moveto
2679 3520 lineto
2679 3317 lineto
1392 0 lineto
891 0 lineto
2102 3136 lineto
399 3136 lineto
399 3520 lineto
end_ol grestore 
1.000000 1.000000 1.000000 srgb
n 46.932097 22.707830 1.537707 1.436467 0 360 ellipse f
0.100000 slw
[] 0 sd
[] 0 sd
0 slj
1.000000 0.000000 0.000000 srgb
n 46.932097 22.707830 1.537707 1.436467 0 360 ellipse cp s
0.000000 0.000000 0.000000 srgb
gsave 46.524597 22.902830 translate 0.035278 -0.035278 scale
start_ol
603 384 moveto
1387 384 lineto
1387 3136 lineto
534 2944 lineto
534 3328 lineto
1382 3520 lineto
1862 3520 lineto
1862 384 lineto
2646 384 lineto
2646 0 lineto
603 0 lineto
603 384 lineto
end_ol grestore 
gsave 46.931716 22.902830 translate 0.035278 -0.035278 scale
start_ol
1546 1664 moveto
1204 1664 1008 1485 conicto
812 1306 812 992 conicto
812 678 1008 499 conicto
1204 320 1546 320 conicto
1888 320 2085 500 conicto
2282 680 2282 992 conicto
2282 1306 2086 1485 conicto
1890 1664 1546 1664 conicto
1066 1872 moveto
757 1948 585 2158 conicto
413 2368 413 2670 conicto
413 3093 716 3338 conicto
1019 3584 1546 3584 conicto
2076 3584 2377 3338 conicto
2679 3093 2679 2670 conicto
2679 2368 2506 2158 conicto
2334 1948 2028 1872 conicto
2375 1792 2568 1559 conicto
2762 1327 2762 991 conicto
2762 481 2447 208 conicto
2133 -64 1546 -64 conicto
959 -64 644 208 conicto
330 481 330 991 conicto
330 1327 524 1559 conicto
719 1792 1066 1872 conicto
891 2624 moveto
891 2352 1063 2200 conicto
1235 2048 1546 2048 conicto
1855 2048 2029 2200 conicto
2204 2352 2204 2624 conicto
2204 2896 2029 3048 conicto
1855 3200 1546 3200 conicto
1235 3200 1063 3048 conicto
891 2896 891 2624 conicto
end_ol grestore 
1.000000 1.000000 1.000000 srgb
n 22.239153 26.590986 1.537707 1.436467 0 360 ellipse f
0.100000 slw
[1.000000 0.400000 0.200000 0.400000] 0 sd
[1.000000 0.400000 0.200000 0.400000] 0 sd
0 slj
0.000000 0.000000 1.000000 srgb
n 22.239153 26.590986 1.537707 1.436467 0 360 ellipse cp s
0.000000 0.000000 0.000000 srgb
gsave 21.831653 26.785986 translate 0.035278 -0.035278 scale
start_ol
603 384 moveto
1387 384 lineto
1387 3136 lineto
534 2944 lineto
534 3328 lineto
1382 3520 lineto
1862 3520 lineto
1862 384 lineto
2646 384 lineto
2646 0 lineto
603 0 lineto
603 384 lineto
end_ol grestore 
gsave 22.238773 26.785986 translate 0.035278 -0.035278 scale
start_ol
534 64 moveto
534 512 lineto
715 419 900 369 conicto
1085 320 1263 320 conicto
1738 320 1988 648 conicto
2239 977 2275 1646 conicto
2137 1438 1925 1327 conicto
1714 1216 1458 1216 conicto
926 1216 616 1532 conicto
306 1849 306 2398 conicto
306 2935 629 3259 conicto
952 3584 1489 3584 conicto
2104 3584 2428 3116 conicto
2753 2649 2753 1759 conicto
2753 927 2355 431 conicto
1957 -64 1285 -64 conicto
1104 -64 919 -32 conicto
734 0 534 64 conicto
1489 1600 moveto
1812 1600 2001 1814 conicto
2190 2028 2190 2400 conicto
2190 2770 2001 2985 conicto
1812 3200 1489 3200 conicto
1167 3200 978 2985 conicto
789 2770 789 2400 conicto
789 2028 978 1814 conicto
1167 1600 1489 1600 conicto
end_ol grestore 
1.000000 1.000000 1.000000 srgb
n 27.118579 26.520826 1.537707 1.436467 0 360 ellipse f
0.100000 slw
[1.000000 0.400000 0.200000 0.400000] 0 sd
[1.000000 0.400000 0.200000 0.400000] 0 sd
0 slj
0.000000 0.000000 1.000000 srgb
n 27.118579 26.520826 1.537707 1.436467 0 360 ellipse cp s
0.000000 0.000000 0.000000 srgb
gsave 26.711079 26.715826 translate 0.035278 -0.035278 scale
start_ol
933 384 moveto
2608 384 lineto
2608 0 lineto
356 0 lineto
356 384 lineto
629 668 1100 1146 conicto
1572 1625 1694 1763 conicto
1924 2023 2015 2203 conicto
2107 2384 2107 2558 conicto
2107 2842 1908 3021 conicto
1710 3200 1392 3200 conicto
1166 3200 915 3104 conicto
665 3009 380 2816 conicto
380 3328 lineto
670 3455 921 3519 conicto
1173 3584 1382 3584 conicto
1933 3584 2261 3309 conicto
2589 3034 2589 2574 conicto
2589 2356 2507 2160 conicto
2425 1965 2209 1700 conicto
2149 1631 1831 1302 conicto
1513 974 933 384 conicto
end_ol grestore 
gsave 27.118198 26.715826 translate 0.035278 -0.035278 scale
start_ol
1546 3200 moveto
1176 3200 989 2840 conicto
803 2481 803 1759 conicto
803 1039 989 679 conicto
1176 320 1546 320 conicto
1919 320 2105 679 conicto
2292 1039 2292 1759 conicto
2292 2481 2105 2840 conicto
1919 3200 1546 3200 conicto
1547 3584 moveto
2143 3584 2457 3116 conicto
2772 2649 2772 1759 conicto
2772 871 2457 403 conicto
2143 -64 1547 -64 conicto
950 -64 635 403 conicto
321 871 321 1759 conicto
321 2649 635 3116 conicto
950 3584 1547 3584 conicto
end_ol grestore 
1.000000 1.000000 1.000000 srgb
n 32.153267 26.621295 1.537707 1.436467 0 360 ellipse f
0.100000 slw
[1.000000 0.400000 0.200000 0.400000] 0 sd
[1.000000 0.400000 0.200000 0.400000] 0 sd
0 slj
0.000000 0.000000 1.000000 srgb
n 32.153267 26.621295 1.537707 1.436467 0 360 ellipse cp s
0.000000 0.000000 0.000000 srgb
gsave 31.745767 26.816295 translate 0.035278 -0.035278 scale
start_ol
933 384 moveto
2608 384 lineto
2608 0 lineto
356 0 lineto
356 384 lineto
629 668 1100 1146 conicto
1572 1625 1694 1763 conicto
1924 2023 2015 2203 conicto
2107 2384 2107 2558 conicto
2107 2842 1908 3021 conicto
1710 3200 1392 3200 conicto
1166 3200 915 3104 conicto
665 3009 380 2816 conicto
380 3328 lineto
670 3455 921 3519 conicto
1173 3584 1382 3584 conicto
1933 3584 2261 3309 conicto
2589 3034 2589 2574 conicto
2589 2356 2507 2160 conicto
2425 1965 2209 1700 conicto
2149 1631 1831 1302 conicto
1513 974 933 384 conicto
end_ol grestore 
gsave 32.152886 26.816295 translate 0.035278 -0.035278 scale
start_ol
603 384 moveto
1387 384 lineto
1387 3136 lineto
534 2944 lineto
534 3328 lineto
1382 3520 lineto
1862 3520 lineto
1862 384 lineto
2646 384 lineto
2646 0 lineto
603 0 lineto
603 384 lineto
end_ol grestore 
1.000000 1.000000 1.000000 srgb
n 37.056591 26.568500 1.537707 1.436467 0 360 ellipse f
0.100000 slw
[] 0 sd
[] 0 sd
0 slj
1.000000 0.000000 0.000000 srgb
n 37.056591 26.568500 1.537707 1.436467 0 360 ellipse cp s
0.000000 0.000000 0.000000 srgb
gsave 36.649091 26.763500 translate 0.035278 -0.035278 scale
start_ol
933 384 moveto
2608 384 lineto
2608 0 lineto
356 0 lineto
356 384 lineto
629 668 1100 1146 conicto
1572 1625 1694 1763 conicto
1924 2023 2015 2203 conicto
2107 2384 2107 2558 conicto
2107 2842 1908 3021 conicto
1710 3200 1392 3200 conicto
1166 3200 915 3104 conicto
665 3009 380 2816 conicto
380 3328 lineto
670 3455 921 3519 conicto
1173 3584 1382 3584 conicto
1933 3584 2261 3309 conicto
2589 3034 2589 2574 conicto
2589 2356 2507 2160 conicto
2425 1965 2209 1700 conicto
2149 1631 1831 1302 conicto
1513 974 933 384 conicto
end_ol grestore 
gsave 37.056210 26.763500 translate 0.035278 -0.035278 scale
start_ol
933 384 moveto
2608 384 lineto
2608 0 lineto
356 0 lineto
356 384 lineto
629 668 1100 1146 conicto
1572 1625 1694 1763 conicto
1924 2023 2015 2203 conicto
2107 2384 2107 2558 conicto
2107 2842 1908 3021 conicto
1710 3200 1392 3200 conicto
1166 3200 915 3104 conicto
665 3009 380 2816 conicto
380 3328 lineto
670 3455 921 3519 conicto
1173 3584 1382 3584 conicto
1933 3584 2261 3309 conicto
2589 3034 2589 2574 conicto
2589 2356 2507 2160 conicto
2425 1965 2209 1700 conicto
2149 1631 1831 1302 conicto
1513 974 933 384 conicto
end_ol grestore 
1.000000 1.000000 1.000000 srgb
n 41.980905 26.489153 1.537707 1.436467 0 360 ellipse f
0.100000 slw
[] 0 sd
[] 0 sd
0 slj
1.000000 0.000000 0.000000 srgb
n 41.980905 26.489153 1.537707 1.436467 0 360 ellipse cp s
0.000000 0.000000 0.000000 srgb
gsave 41.573405 26.684153 translate 0.035278 -0.035278 scale
start_ol
933 384 moveto
2608 384 lineto
2608 0 lineto
356 0 lineto
356 384 lineto
629 668 1100 1146 conicto
1572 1625 1694 1763 conicto
1924 2023 2015 2203 conicto
2107 2384 2107 2558 conicto
2107 2842 1908 3021 conicto
1710 3200 1392 3200 conicto
1166 3200 915 3104 conicto
665 3009 380 2816 conicto
380 3328 lineto
670 3455 921 3519 conicto
1173 3584 1382 3584 conicto
1933 3584 2261 3309 conicto
2589 3034 2589 2574 conicto
2589 2356 2507 2160 conicto
2425 1965 2209 1700 conicto
2149 1631 1831 1302 conicto
1513 974 933 384 conicto
end_ol grestore 
gsave 41.980524 26.684153 translate 0.035278 -0.035278 scale
start_ol
1974 1936 moveto
2318 1862 2511 1627 conicto
2705 1392 2705 1046 conicto
2705 516 2344 226 conicto
1983 -64 1318 -64 conicto
1095 -64 859 -16 conicto
623 32 371 128 conicto
371 576 lineto
570 449 807 384 conicto
1045 320 1304 320 conicto
1755 320 1991 504 conicto
2228 688 2228 1039 conicto
2228 1363 2008 1545 conicto
1789 1728 1397 1728 conicto
983 1728 lineto
983 2112 lineto
1416 2112 lineto
1770 2112 1957 2250 conicto
2145 2388 2145 2648 conicto
2145 2915 1951 3057 conicto
1758 3200 1397 3200 conicto
1200 3200 974 3153 conicto
748 3107 477 3008 conicto
477 3456 lineto
750 3520 989 3552 conicto
1228 3584 1439 3584 conicto
1985 3584 2303 3343 conicto
2622 3102 2622 2692 conicto
2622 2406 2453 2209 conicto
2285 2012 1974 1936 conicto
end_ol grestore 
1.000000 1.000000 1.000000 srgb
n 46.960828 26.603981 1.537707 1.436467 0 360 ellipse f
0.100000 slw
[] 0 sd
[] 0 sd
0 slj
1.000000 0.000000 0.000000 srgb
n 46.960828 26.603981 1.537707 1.436467 0 360 ellipse cp s
0.000000 0.000000 0.000000 srgb
gsave 46.553328 26.798981 translate 0.035278 -0.035278 scale
start_ol
933 384 moveto
2608 384 lineto
2608 0 lineto
356 0 lineto
356 384 lineto
629 668 1100 1146 conicto
1572 1625 1694 1763 conicto
1924 2023 2015 2203 conicto
2107 2384 2107 2558 conicto
2107 2842 1908 3021 conicto
1710 3200 1392 3200 conicto
1166 3200 915 3104 conicto
665 3009 380 2816 conicto
380 3328 lineto
670 3455 921 3519 conicto
1173 3584 1382 3584 conicto
1933 3584 2261 3309 conicto
2589 3034 2589 2574 conicto
2589 2356 2507 2160 conicto
2425 1965 2209 1700 conicto
2149 1631 1831 1302 conicto
1513 974 933 384 conicto
end_ol grestore 
gsave 46.960448 26.798981 translate 0.035278 -0.035278 scale
start_ol
1838 3103 moveto
627 1216 lineto
1838 1216 lineto
1838 3103 lineto
1713 3520 moveto
2316 3520 lineto
2316 1216 lineto
2822 1216 lineto
2822 832 lineto
2316 832 lineto
2316 0 lineto
1838 0 lineto
1838 832 lineto
238 832 lineto
238 1291 lineto
1713 3520 lineto
end_ol grestore 
1.000000 1.000000 1.000000 srgb
n 16.396170 14.570421 1.537707 1.436467 0 360 ellipse f
0.100000 slw
[1.000000 0.400000 0.200000 0.400000] 0 sd
[1.000000 0.400000 0.200000 0.400000] 0 sd
0 slj
0.000000 0.000000 1.000000 srgb
n 16.396170 14.570421 1.537707 1.436467 0 360 ellipse cp s
0.000000 0.000000 0.000000 srgb
gsave 15.878670 14.765421 translate 0.035278 -0.035278 scale
start_ol
477 3520 moveto
957 3520 lineto
957 0 lineto
477 0 lineto
477 3520 lineto
end_ol grestore 
gsave 16.068492 14.765421 translate 0.035278 -0.035278 scale
start_ol
1392 0 moveto
38 3520 lineto
539 3520 lineto
1663 556 lineto
2788 3520 lineto
3287 3520 lineto
1936 0 lineto
1392 0 lineto
end_ol grestore 
gsave 16.505583 14.765421 translate 0.035278 -0.035278 scale
start_ol
603 384 moveto
1387 384 lineto
1387 3136 lineto
534 2944 lineto
534 3328 lineto
1382 3520 lineto
1862 3520 lineto
1862 384 lineto
2646 384 lineto
2646 0 lineto
603 0 lineto
603 384 lineto
end_ol grestore 
1.000000 1.000000 1.000000 srgb
n 16.364685 18.399282 1.537707 1.436467 0 360 ellipse f
0.100000 slw
[] 0 sd
[] 0 sd
0 slj
1.000000 0.000000 0.000000 srgb
n 16.364685 18.399282 1.537707 1.436467 0 360 ellipse cp s
0.000000 0.000000 0.000000 srgb
gsave 15.847185 18.594282 translate 0.035278 -0.035278 scale
start_ol
477 3520 moveto
957 3520 lineto
957 0 lineto
477 0 lineto
477 3520 lineto
end_ol grestore 
gsave 16.037007 18.594282 translate 0.035278 -0.035278 scale
start_ol
1392 0 moveto
38 3520 lineto
539 3520 lineto
1663 556 lineto
2788 3520 lineto
3287 3520 lineto
1936 0 lineto
1392 0 lineto
end_ol grestore 
gsave 16.474099 18.594282 translate 0.035278 -0.035278 scale
start_ol
933 384 moveto
2608 384 lineto
2608 0 lineto
356 0 lineto
356 384 lineto
629 668 1100 1146 conicto
1572 1625 1694 1763 conicto
1924 2023 2015 2203 conicto
2107 2384 2107 2558 conicto
2107 2842 1908 3021 conicto
1710 3200 1392 3200 conicto
1166 3200 915 3104 conicto
665 3009 380 2816 conicto
380 3328 lineto
670 3455 921 3519 conicto
1173 3584 1382 3584 conicto
1933 3584 2261 3309 conicto
2589 3034 2589 2574 conicto
2589 2356 2507 2160 conicto
2425 1965 2209 1700 conicto
2149 1631 1831 1302 conicto
1513 974 933 384 conicto
end_ol grestore 
0.100000 slw
[1.000000 0.400000 0.200000 0.400000] 0 sd
[1.000000 0.400000 0.200000 0.400000] 0 sd
0 slc
0.000000 0.000000 1.000000 srgb
n 14.960378 22.148814 m 17.824153 22.148814 l s
0.100000 slw
[] 0 sd
[] 0 sd
0 slc
1.000000 0.000000 0.000000 srgb
n 14.922549 25.215112 m 17.786323 25.215112 l s
0.000000 0.000000 0.000000 srgb
gsave 14.447207 20.876025 translate 0.035278 -0.035278 scale
start_ol
2603 3392 moveto
2603 2944 lineto
2330 3073 2087 3136 conicto
1845 3200 1620 3200 conicto
1228 3200 1015 3052 conicto
803 2904 803 2631 conicto
803 2402 944 2285 conicto
1086 2169 1480 2097 conicto
1769 2039 lineto
2306 1937 2561 1678 conicto
2817 1420 2817 986 conicto
2817 469 2471 202 conicto
2126 -64 1458 -64 conicto
1207 -64 923 0 conicto
639 65 335 192 conicto
335 704 lineto
627 513 907 416 conicto
1188 320 1459 320 conicto
1869 320 2092 485 conicto
2316 650 2316 955 conicto
2316 1221 2155 1371 conicto
1995 1522 1629 1597 conicto
1337 1652 lineto
801 1756 561 1978 conicto
321 2201 321 2597 conicto
321 3056 652 3320 conicto
984 3584 1565 3584 conicto
1815 3584 2073 3536 conicto
2332 3488 2603 3392 conicto
end_ol grestore 
gsave 14.854326 20.876025 translate 0.035278 -0.035278 scale
start_ol
2734 1480 moveto
2734 1280 lineto
724 1280 lineto
753 811 996 565 conicto
1240 320 1674 320 conicto
1926 320 2162 384 conicto
2399 448 2632 576 conicto
2632 192 lineto
2397 67 2150 1 conicto
1903 -64 1648 -64 conicto
1012 -64 640 309 conicto
268 683 268 1320 conicto
268 1979 621 2365 conicto
974 2752 1572 2752 conicto
2109 2752 2421 2410 conicto
2734 2068 2734 1480 conicto
2297 1600 moveto
2292 1950 2096 2159 conicto
1900 2368 1577 2368 conicto
1212 2368 992 2166 conicto
772 1964 739 1597 conicto
2297 1600 lineto
end_ol grestore 
gsave 15.248952 20.876025 translate 0.035278 -0.035278 scale
start_ol
2529 2204 moveto
2693 2485 2921 2618 conicto
3149 2752 3458 2752 conicto
3874 2752 4099 2464 conicto
4325 2177 4325 1646 conicto
4325 0 lineto
3886 0 lineto
3886 1632 lineto
3886 2006 3750 2187 conicto
3615 2368 3337 2368 conicto
2997 2368 2800 2146 conicto
2603 1925 2603 1542 conicto
2603 0 lineto
2164 0 lineto
2164 1632 lineto
2164 2008 2028 2188 conicto
1893 2368 1610 2368 conicto
1275 2368 1078 2145 conicto
881 1922 881 1542 conicto
881 0 lineto
442 0 lineto
442 2688 lineto
881 2688 lineto
881 2304 lineto
1031 2534 1240 2643 conicto
1449 2752 1736 2752 conicto
2026 2752 2229 2611 conicto
2432 2471 2529 2204 conicto
end_ol grestore 
gsave 15.870864 20.876025 translate 0.035278 -0.035278 scale
start_ol
end_ol grestore 
gsave 16.073171 20.876025 translate 0.035278 -0.035278 scale
start_ol
2000 2304 moveto
1926 2337 1839 2352 conicto
1753 2368 1648 2368 conicto
1278 2368 1079 2127 conicto
881 1887 881 1437 conicto
881 0 lineto
442 0 lineto
442 2688 lineto
881 2688 lineto
881 2304 lineto
1019 2531 1240 2641 conicto
1461 2752 1777 2752 conicto
1822 2752 1876 2752 conicto
1931 2752 1998 2752 conicto
2000 2304 lineto
end_ol grestore 
gsave 16.320432 20.876025 translate 0.035278 -0.035278 scale
start_ol
2734 1480 moveto
2734 1280 lineto
724 1280 lineto
753 811 996 565 conicto
1240 320 1674 320 conicto
1926 320 2162 384 conicto
2399 448 2632 576 conicto
2632 192 lineto
2397 67 2150 1 conicto
1903 -64 1648 -64 conicto
1012 -64 640 309 conicto
268 683 268 1320 conicto
268 1979 621 2365 conicto
974 2752 1572 2752 conicto
2109 2752 2421 2410 conicto
2734 2068 2734 1480 conicto
2297 1600 moveto
2292 1950 2096 2159 conicto
1900 2368 1577 2368 conicto
1212 2368 992 2166 conicto
772 1964 739 1597 conicto
2297 1600 lineto
end_ol grestore 
gsave 16.715058 20.876025 translate 0.035278 -0.035278 scale
start_ol
2373 2560 moveto
2373 2176 lineto
2188 2272 2001 2320 conicto
1815 2368 1625 2368 conicto
1199 2368 964 2099 conicto
729 1830 729 1344 conicto
729 858 964 589 conicto
1199 320 1625 320 conicto
1815 320 2001 368 conicto
2188 416 2373 512 conicto
2373 128 lineto
2190 32 1994 -16 conicto
1798 -64 1577 -64 conicto
976 -64 622 316 conicto
268 697 268 1344 conicto
268 2000 625 2376 conicto
983 2752 1606 2752 conicto
1808 2752 2000 2704 conicto
2192 2656 2373 2560 conicto
end_ol grestore 
gsave 17.067227 20.876025 translate 0.035278 -0.035278 scale
start_ol
413 1040 moveto
413 2688 lineto
850 2688 lineto
850 1057 lineto
850 689 997 504 conicto
1145 320 1439 320 conicto
1793 320 1998 541 conicto
2204 763 2204 1145 conicto
2204 2688 lineto
2641 2688 lineto
2641 0 lineto
2204 0 lineto
2204 384 lineto
2045 157 1834 46 conicto
1624 -64 1347 -64 conicto
888 -64 650 217 conicto
413 499 413 1040 conicto
1513 2752 moveto
1513 2752 lineto
end_ol grestore 
gsave 17.471841 20.876025 translate 0.035278 -0.035278 scale
start_ol
2000 2304 moveto
1926 2337 1839 2352 conicto
1753 2368 1648 2368 conicto
1278 2368 1079 2127 conicto
881 1887 881 1437 conicto
881 0 lineto
442 0 lineto
442 2688 lineto
881 2688 lineto
881 2304 lineto
1019 2531 1240 2641 conicto
1461 2752 1777 2752 conicto
1822 2752 1876 2752 conicto
1931 2752 1998 2752 conicto
2000 2304 lineto
end_ol grestore 
gsave 17.734092 20.876025 translate 0.035278 -0.035278 scale
start_ol
2154 2560 moveto
2154 2176 lineto
1969 2272 1769 2320 conicto
1570 2368 1356 2368 conicto
1030 2368 867 2269 conicto
705 2170 705 1972 conicto
705 1821 821 1735 conicto
938 1649 1290 1571 conicto
1439 1538 lineto
1905 1438 2101 1255 conicto
2297 1072 2297 744 conicto
2297 371 2003 153 conicto
1710 -64 1197 -64 conicto
984 -64 752 -16 conicto
521 32 264 128 conicto
264 576 lineto
506 448 741 384 conicto
976 320 1207 320 conicto
1516 320 1682 425 conicto
1848 531 1848 722 conicto
1848 900 1728 994 conicto
1608 1089 1202 1177 conicto
1050 1212 lineto
644 1298 463 1476 conicto
283 1654 283 1964 conicto
283 2341 549 2546 conicto
815 2752 1304 2752 conicto
1546 2752 1760 2704 conicto
1974 2656 2154 2560 conicto
end_ol grestore 
gsave 18.066277 20.876025 translate 0.035278 -0.035278 scale
start_ol
1489 2368 moveto
1138 2368 933 2094 conicto
729 1820 729 1344 conicto
729 868 932 594 conicto
1135 320 1489 320 conicto
1838 320 2042 595 conicto
2247 870 2247 1344 conicto
2247 1816 2042 2092 conicto
1838 2368 1489 2368 conicto
1489 2752 moveto
2059 2752 2384 2378 conicto
2710 2005 2710 1344 conicto
2710 685 2384 310 conicto
2059 -64 1489 -64 conicto
917 -64 592 310 conicto
268 685 268 1344 conicto
268 2005 592 2378 conicto
917 2752 1489 2752 conicto
end_ol grestore 
gsave 18.458406 20.876025 translate 0.035278 -0.035278 scale
start_ol
2154 2560 moveto
2154 2176 lineto
1969 2272 1769 2320 conicto
1570 2368 1356 2368 conicto
1030 2368 867 2269 conicto
705 2170 705 1972 conicto
705 1821 821 1735 conicto
938 1649 1290 1571 conicto
1439 1538 lineto
1905 1438 2101 1255 conicto
2297 1072 2297 744 conicto
2297 371 2003 153 conicto
1710 -64 1197 -64 conicto
984 -64 752 -16 conicto
521 32 264 128 conicto
264 576 lineto
506 448 741 384 conicto
976 320 1207 320 conicto
1516 320 1682 425 conicto
1848 531 1848 722 conicto
1848 900 1728 994 conicto
1608 1089 1202 1177 conicto
1050 1212 lineto
644 1298 463 1476 conicto
283 1654 283 1964 conicto
283 2341 549 2546 conicto
815 2752 1304 2752 conicto
1546 2752 1760 2704 conicto
1974 2656 2154 2560 conicto
end_ol grestore 
gsave 13.958457 21.676025 translate 0.035278 -0.035278 scale
start_ol
2000 2304 moveto
1926 2337 1839 2352 conicto
1753 2368 1648 2368 conicto
1278 2368 1079 2127 conicto
881 1887 881 1437 conicto
881 0 lineto
442 0 lineto
442 2688 lineto
881 2688 lineto
881 2304 lineto
1019 2531 1240 2641 conicto
1461 2752 1777 2752 conicto
1822 2752 1876 2752 conicto
1931 2752 1998 2752 conicto
2000 2304 lineto
end_ol grestore 
gsave 14.205718 21.676025 translate 0.035278 -0.035278 scale
start_ol
2734 1480 moveto
2734 1280 lineto
724 1280 lineto
753 811 996 565 conicto
1240 320 1674 320 conicto
1926 320 2162 384 conicto
2399 448 2632 576 conicto
2632 192 lineto
2397 67 2150 1 conicto
1903 -64 1648 -64 conicto
1012 -64 640 309 conicto
268 683 268 1320 conicto
268 1979 621 2365 conicto
974 2752 1572 2752 conicto
2109 2752 2421 2410 conicto
2734 2068 2734 1480 conicto
2297 1600 moveto
2292 1950 2096 2159 conicto
1900 2368 1577 2368 conicto
1212 2368 992 2166 conicto
772 1964 739 1597 conicto
2297 1600 lineto
end_ol grestore 
gsave 14.600344 21.676025 translate 0.035278 -0.035278 scale
start_ol
2154 2560 moveto
2154 2176 lineto
1969 2272 1769 2320 conicto
1570 2368 1356 2368 conicto
1030 2368 867 2269 conicto
705 2170 705 1972 conicto
705 1821 821 1735 conicto
938 1649 1290 1571 conicto
1439 1538 lineto
1905 1438 2101 1255 conicto
2297 1072 2297 744 conicto
2297 371 2003 153 conicto
1710 -64 1197 -64 conicto
984 -64 752 -16 conicto
521 32 264 128 conicto
264 576 lineto
506 448 741 384 conicto
976 320 1207 320 conicto
1516 320 1682 425 conicto
1848 531 1848 722 conicto
1848 900 1728 994 conicto
1608 1089 1202 1177 conicto
1050 1212 lineto
644 1298 463 1476 conicto
283 1654 283 1964 conicto
283 2341 549 2546 conicto
815 2752 1304 2752 conicto
1546 2752 1760 2704 conicto
1974 2656 2154 2560 conicto
end_ol grestore 
gsave 14.932529 21.676025 translate 0.035278 -0.035278 scale
start_ol
891 3456 moveto
891 2688 lineto
1791 2688 lineto
1791 2368 lineto
891 2368 lineto
891 902 lineto
891 572 980 478 conicto
1069 384 1342 384 conicto
1791 384 lineto
1791 0 lineto
1342 0 lineto
836 0 643 194 conicto
451 389 451 902 conicto
451 2368 lineto
131 2368 lineto
131 2688 lineto
451 2688 lineto
451 3456 lineto
891 3456 lineto
end_ol grestore 
gsave 15.182295 21.676025 translate 0.035278 -0.035278 scale
start_ol
2000 2304 moveto
1926 2337 1839 2352 conicto
1753 2368 1648 2368 conicto
1278 2368 1079 2127 conicto
881 1887 881 1437 conicto
881 0 lineto
442 0 lineto
442 2688 lineto
881 2688 lineto
881 2304 lineto
1019 2531 1240 2641 conicto
1461 2752 1777 2752 conicto
1822 2752 1876 2752 conicto
1931 2752 1998 2752 conicto
2000 2304 lineto
end_ol grestore 
gsave 15.444547 21.676025 translate 0.035278 -0.035278 scale
start_ol
458 2688 moveto
895 2688 lineto
895 0 lineto
458 0 lineto
458 2688 lineto
458 3712 moveto
895 3712 lineto
895 3136 lineto
458 3136 lineto
458 3712 lineto
end_ol grestore 
gsave 15.621876 21.676025 translate 0.035278 -0.035278 scale
start_ol
891 3456 moveto
891 2688 lineto
1791 2688 lineto
1791 2368 lineto
891 2368 lineto
891 902 lineto
891 572 980 478 conicto
1069 384 1342 384 conicto
1791 384 lineto
1791 0 lineto
1342 0 lineto
836 0 643 194 conicto
451 389 451 902 conicto
451 2368 lineto
131 2368 lineto
131 2688 lineto
451 2688 lineto
451 3456 lineto
891 3456 lineto
end_ol grestore 
gsave 15.871642 21.676025 translate 0.035278 -0.035278 scale
start_ol
1489 2368 moveto
1138 2368 933 2094 conicto
729 1820 729 1344 conicto
729 868 932 594 conicto
1135 320 1489 320 conicto
1838 320 2042 595 conicto
2247 870 2247 1344 conicto
2247 1816 2042 2092 conicto
1838 2368 1489 2368 conicto
1489 2752 moveto
2059 2752 2384 2378 conicto
2710 2005 2710 1344 conicto
2710 685 2384 310 conicto
2059 -64 1489 -64 conicto
917 -64 592 310 conicto
268 685 268 1344 conicto
268 2005 592 2378 conicto
917 2752 1489 2752 conicto
end_ol grestore 
gsave 16.263771 21.676025 translate 0.035278 -0.035278 scale
start_ol
2154 2560 moveto
2154 2176 lineto
1969 2272 1769 2320 conicto
1570 2368 1356 2368 conicto
1030 2368 867 2269 conicto
705 2170 705 1972 conicto
705 1821 821 1735 conicto
938 1649 1290 1571 conicto
1439 1538 lineto
1905 1438 2101 1255 conicto
2297 1072 2297 744 conicto
2297 371 2003 153 conicto
1710 -64 1197 -64 conicto
984 -64 752 -16 conicto
521 32 264 128 conicto
264 576 lineto
506 448 741 384 conicto
976 320 1207 320 conicto
1516 320 1682 425 conicto
1848 531 1848 722 conicto
1848 900 1728 994 conicto
1608 1089 1202 1177 conicto
1050 1212 lineto
644 1298 463 1476 conicto
283 1654 283 1964 conicto
283 2341 549 2546 conicto
815 2752 1304 2752 conicto
1546 2752 1760 2704 conicto
1974 2656 2154 2560 conicto
end_ol grestore 
gsave 16.595956 21.676025 translate 0.035278 -0.035278 scale
start_ol
end_ol grestore 
gsave 16.798263 21.676025 translate 0.035278 -0.035278 scale
start_ol
881 384 moveto
881 -1024 lineto
442 -1024 lineto
442 2688 lineto
881 2688 lineto
881 2304 lineto
1019 2531 1229 2641 conicto
1439 2752 1732 2752 conicto
2216 2752 2519 2364 conicto
2822 1976 2822 1344 conicto
2822 712 2519 324 conicto
2216 -64 1732 -64 conicto
1439 -64 1229 46 conicto
1019 157 881 384 conicto
2368 1344 moveto
2368 1823 2169 2095 conicto
1971 2368 1624 2368 conicto
1278 2368 1079 2095 conicto
881 1823 881 1344 conicto
881 865 1079 592 conicto
1278 320 1624 320 conicto
1971 320 2169 592 conicto
2368 865 2368 1344 conicto
end_ol grestore 
gsave 17.205382 21.676025 translate 0.035278 -0.035278 scale
start_ol
1489 2368 moveto
1138 2368 933 2094 conicto
729 1820 729 1344 conicto
729 868 932 594 conicto
1135 320 1489 320 conicto
1838 320 2042 595 conicto
2247 870 2247 1344 conicto
2247 1816 2042 2092 conicto
1838 2368 1489 2368 conicto
1489 2752 moveto
2059 2752 2384 2378 conicto
2710 2005 2710 1344 conicto
2710 685 2384 310 conicto
2059 -64 1489 -64 conicto
917 -64 592 310 conicto
268 685 268 1344 conicto
268 2005 592 2378 conicto
917 2752 1489 2752 conicto
end_ol grestore 
gsave 17.597511 21.676025 translate 0.035278 -0.035278 scale
start_ol
2000 2304 moveto
1926 2337 1839 2352 conicto
1753 2368 1648 2368 conicto
1278 2368 1079 2127 conicto
881 1887 881 1437 conicto
881 0 lineto
442 0 lineto
442 2688 lineto
881 2688 lineto
881 2304 lineto
1019 2531 1240 2641 conicto
1461 2752 1777 2752 conicto
1822 2752 1876 2752 conicto
1931 2752 1998 2752 conicto
2000 2304 lineto
end_ol grestore 
gsave 17.859763 21.676025 translate 0.035278 -0.035278 scale
start_ol
end_ol grestore 
gsave 18.062070 21.676025 translate 0.035278 -0.035278 scale
start_ol
2603 3392 moveto
2603 2944 lineto
2330 3073 2087 3136 conicto
1845 3200 1620 3200 conicto
1228 3200 1015 3052 conicto
803 2904 803 2631 conicto
803 2402 944 2285 conicto
1086 2169 1480 2097 conicto
1769 2039 lineto
2306 1937 2561 1678 conicto
2817 1420 2817 986 conicto
2817 469 2471 202 conicto
2126 -64 1458 -64 conicto
1207 -64 923 0 conicto
639 65 335 192 conicto
335 704 lineto
627 513 907 416 conicto
1188 320 1459 320 conicto
1869 320 2092 485 conicto
2316 650 2316 955 conicto
2316 1221 2155 1371 conicto
1995 1522 1629 1597 conicto
1337 1652 lineto
801 1756 561 1978 conicto
321 2201 321 2597 conicto
321 3056 652 3320 conicto
984 3584 1565 3584 conicto
1815 3584 2073 3536 conicto
2332 3488 2603 3392 conicto
end_ol grestore 
gsave 18.469189 21.676025 translate 0.035278 -0.035278 scale
start_ol
477 3520 moveto
957 3520 lineto
957 384 lineto
2684 384 lineto
2684 0 lineto
477 0 lineto
477 3520 lineto
end_ol grestore 
gsave 18.841334 21.676025 translate 0.035278 -0.035278 scale
start_ol
1663 3047 moveto
1012 1280 lineto
2316 1280 lineto
1663 3047 lineto
1392 3520 moveto
1936 3520 lineto
3287 0 lineto
2788 0 lineto
2465 896 lineto
867 896 lineto
544 0 lineto
38 0 lineto
1392 3520 lineto
end_ol grestore 
gsave 14.122892 23.963029 translate 0.035278 -0.035278 scale
start_ol
3133 3264 moveto
3133 2752 lineto
2891 2977 2616 3088 conicto
2342 3200 2033 3200 conicto
1425 3200 1102 2829 conicto
779 2459 779 1759 conicto
779 1061 1102 690 conicto
1425 320 2033 320 conicto
2342 320 2616 431 conicto
2891 543 3133 768 conicto
3133 256 lineto
2881 96 2599 16 conicto
2318 -64 2005 -64 conicto
1199 -64 736 424 conicto
273 913 273 1759 conicto
273 2607 736 3095 conicto
1199 3584 2005 3584 conicto
2323 3584 2604 3504 conicto
2886 3424 3133 3264 conicto
end_ol grestore 
gsave 14.569971 23.963029 translate 0.035278 -0.035278 scale
start_ol
1489 2368 moveto
1138 2368 933 2094 conicto
729 1820 729 1344 conicto
729 868 932 594 conicto
1135 320 1489 320 conicto
1838 320 2042 595 conicto
2247 870 2247 1344 conicto
2247 1816 2042 2092 conicto
1838 2368 1489 2368 conicto
1489 2752 moveto
2059 2752 2384 2378 conicto
2710 2005 2710 1344 conicto
2710 685 2384 310 conicto
2059 -64 1489 -64 conicto
917 -64 592 310 conicto
268 685 268 1344 conicto
268 2005 592 2378 conicto
917 2752 1489 2752 conicto
end_ol grestore 
gsave 14.962100 23.963029 translate 0.035278 -0.035278 scale
start_ol
2529 2204 moveto
2693 2485 2921 2618 conicto
3149 2752 3458 2752 conicto
3874 2752 4099 2464 conicto
4325 2177 4325 1646 conicto
4325 0 lineto
3886 0 lineto
3886 1632 lineto
3886 2006 3750 2187 conicto
3615 2368 3337 2368 conicto
2997 2368 2800 2146 conicto
2603 1925 2603 1542 conicto
2603 0 lineto
2164 0 lineto
2164 1632 lineto
2164 2008 2028 2188 conicto
1893 2368 1610 2368 conicto
1275 2368 1078 2145 conicto
881 1922 881 1542 conicto
881 0 lineto
442 0 lineto
442 2688 lineto
881 2688 lineto
881 2304 lineto
1031 2534 1240 2643 conicto
1449 2752 1736 2752 conicto
2026 2752 2229 2611 conicto
2432 2471 2529 2204 conicto
end_ol grestore 
gsave 15.584012 23.963029 translate 0.035278 -0.035278 scale
start_ol
end_ol grestore 
gsave 15.786319 23.963029 translate 0.035278 -0.035278 scale
start_ol
2000 2304 moveto
1926 2337 1839 2352 conicto
1753 2368 1648 2368 conicto
1278 2368 1079 2127 conicto
881 1887 881 1437 conicto
881 0 lineto
442 0 lineto
442 2688 lineto
881 2688 lineto
881 2304 lineto
1019 2531 1240 2641 conicto
1461 2752 1777 2752 conicto
1822 2752 1876 2752 conicto
1931 2752 1998 2752 conicto
2000 2304 lineto
end_ol grestore 
gsave 16.033580 23.963029 translate 0.035278 -0.035278 scale
start_ol
2734 1480 moveto
2734 1280 lineto
724 1280 lineto
753 811 996 565 conicto
1240 320 1674 320 conicto
1926 320 2162 384 conicto
2399 448 2632 576 conicto
2632 192 lineto
2397 67 2150 1 conicto
1903 -64 1648 -64 conicto
1012 -64 640 309 conicto
268 683 268 1320 conicto
268 1979 621 2365 conicto
974 2752 1572 2752 conicto
2109 2752 2421 2410 conicto
2734 2068 2734 1480 conicto
2297 1600 moveto
2292 1950 2096 2159 conicto
1900 2368 1577 2368 conicto
1212 2368 992 2166 conicto
772 1964 739 1597 conicto
2297 1600 lineto
end_ol grestore 
gsave 16.428206 23.963029 translate 0.035278 -0.035278 scale
start_ol
2373 2560 moveto
2373 2176 lineto
2188 2272 2001 2320 conicto
1815 2368 1625 2368 conicto
1199 2368 964 2099 conicto
729 1830 729 1344 conicto
729 858 964 589 conicto
1199 320 1625 320 conicto
1815 320 2001 368 conicto
2188 416 2373 512 conicto
2373 128 lineto
2190 32 1994 -16 conicto
1798 -64 1577 -64 conicto
976 -64 622 316 conicto
268 697 268 1344 conicto
268 2000 625 2376 conicto
983 2752 1606 2752 conicto
1808 2752 2000 2704 conicto
2192 2656 2373 2560 conicto
end_ol grestore 
gsave 16.780375 23.963029 translate 0.035278 -0.035278 scale
start_ol
413 1040 moveto
413 2688 lineto
850 2688 lineto
850 1057 lineto
850 689 997 504 conicto
1145 320 1439 320 conicto
1793 320 1998 541 conicto
2204 763 2204 1145 conicto
2204 2688 lineto
2641 2688 lineto
2641 0 lineto
2204 0 lineto
2204 384 lineto
2045 157 1834 46 conicto
1624 -64 1347 -64 conicto
888 -64 650 217 conicto
413 499 413 1040 conicto
1513 2752 moveto
1513 2752 lineto
end_ol grestore 
gsave 17.184989 23.963029 translate 0.035278 -0.035278 scale
start_ol
2000 2304 moveto
1926 2337 1839 2352 conicto
1753 2368 1648 2368 conicto
1278 2368 1079 2127 conicto
881 1887 881 1437 conicto
881 0 lineto
442 0 lineto
442 2688 lineto
881 2688 lineto
881 2304 lineto
1019 2531 1240 2641 conicto
1461 2752 1777 2752 conicto
1822 2752 1876 2752 conicto
1931 2752 1998 2752 conicto
2000 2304 lineto
end_ol grestore 
gsave 17.447241 23.963029 translate 0.035278 -0.035278 scale
start_ol
2154 2560 moveto
2154 2176 lineto
1969 2272 1769 2320 conicto
1570 2368 1356 2368 conicto
1030 2368 867 2269 conicto
705 2170 705 1972 conicto
705 1821 821 1735 conicto
938 1649 1290 1571 conicto
1439 1538 lineto
1905 1438 2101 1255 conicto
2297 1072 2297 744 conicto
2297 371 2003 153 conicto
1710 -64 1197 -64 conicto
984 -64 752 -16 conicto
521 32 264 128 conicto
264 576 lineto
506 448 741 384 conicto
976 320 1207 320 conicto
1516 320 1682 425 conicto
1848 531 1848 722 conicto
1848 900 1728 994 conicto
1608 1089 1202 1177 conicto
1050 1212 lineto
644 1298 463 1476 conicto
283 1654 283 1964 conicto
283 2341 549 2546 conicto
815 2752 1304 2752 conicto
1546 2752 1760 2704 conicto
1974 2656 2154 2560 conicto
end_ol grestore 
gsave 17.779425 23.963029 translate 0.035278 -0.035278 scale
start_ol
1489 2368 moveto
1138 2368 933 2094 conicto
729 1820 729 1344 conicto
729 868 932 594 conicto
1135 320 1489 320 conicto
1838 320 2042 595 conicto
2247 870 2247 1344 conicto
2247 1816 2042 2092 conicto
1838 2368 1489 2368 conicto
1489 2752 moveto
2059 2752 2384 2378 conicto
2710 2005 2710 1344 conicto
2710 685 2384 310 conicto
2059 -64 1489 -64 conicto
917 -64 592 310 conicto
268 685 268 1344 conicto
268 2005 592 2378 conicto
917 2752 1489 2752 conicto
end_ol grestore 
gsave 18.171554 23.963029 translate 0.035278 -0.035278 scale
start_ol
2154 2560 moveto
2154 2176 lineto
1969 2272 1769 2320 conicto
1570 2368 1356 2368 conicto
1030 2368 867 2269 conicto
705 2170 705 1972 conicto
705 1821 821 1735 conicto
938 1649 1290 1571 conicto
1439 1538 lineto
1905 1438 2101 1255 conicto
2297 1072 2297 744 conicto
2297 371 2003 153 conicto
1710 -64 1197 -64 conicto
984 -64 752 -16 conicto
521 32 264 128 conicto
264 576 lineto
506 448 741 384 conicto
976 320 1207 320 conicto
1516 320 1682 425 conicto
1848 531 1848 722 conicto
1848 900 1728 994 conicto
1608 1089 1202 1177 conicto
1050 1212 lineto
644 1298 463 1476 conicto
283 1654 283 1964 conicto
283 2341 549 2546 conicto
815 2752 1304 2752 conicto
1546 2752 1760 2704 conicto
1974 2656 2154 2560 conicto
end_ol grestore 
gsave 13.652892 24.763029 translate 0.035278 -0.035278 scale
start_ol
2000 2304 moveto
1926 2337 1839 2352 conicto
1753 2368 1648 2368 conicto
1278 2368 1079 2127 conicto
881 1887 881 1437 conicto
881 0 lineto
442 0 lineto
442 2688 lineto
881 2688 lineto
881 2304 lineto
1019 2531 1240 2641 conicto
1461 2752 1777 2752 conicto
1822 2752 1876 2752 conicto
1931 2752 1998 2752 conicto
2000 2304 lineto
end_ol grestore 
gsave 13.900153 24.763029 translate 0.035278 -0.035278 scale
start_ol
2734 1480 moveto
2734 1280 lineto
724 1280 lineto
753 811 996 565 conicto
1240 320 1674 320 conicto
1926 320 2162 384 conicto
2399 448 2632 576 conicto
2632 192 lineto
2397 67 2150 1 conicto
1903 -64 1648 -64 conicto
1012 -64 640 309 conicto
268 683 268 1320 conicto
268 1979 621 2365 conicto
974 2752 1572 2752 conicto
2109 2752 2421 2410 conicto
2734 2068 2734 1480 conicto
2297 1600 moveto
2292 1950 2096 2159 conicto
1900 2368 1577 2368 conicto
1212 2368 992 2166 conicto
772 1964 739 1597 conicto
2297 1600 lineto
end_ol grestore 
gsave 14.294779 24.763029 translate 0.035278 -0.035278 scale
start_ol
2154 2560 moveto
2154 2176 lineto
1969 2272 1769 2320 conicto
1570 2368 1356 2368 conicto
1030 2368 867 2269 conicto
705 2170 705 1972 conicto
705 1821 821 1735 conicto
938 1649 1290 1571 conicto
1439 1538 lineto
1905 1438 2101 1255 conicto
2297 1072 2297 744 conicto
2297 371 2003 153 conicto
1710 -64 1197 -64 conicto
984 -64 752 -16 conicto
521 32 264 128 conicto
264 576 lineto
506 448 741 384 conicto
976 320 1207 320 conicto
1516 320 1682 425 conicto
1848 531 1848 722 conicto
1848 900 1728 994 conicto
1608 1089 1202 1177 conicto
1050 1212 lineto
644 1298 463 1476 conicto
283 1654 283 1964 conicto
283 2341 549 2546 conicto
815 2752 1304 2752 conicto
1546 2752 1760 2704 conicto
1974 2656 2154 2560 conicto
end_ol grestore 
gsave 14.626963 24.763029 translate 0.035278 -0.035278 scale
start_ol
891 3456 moveto
891 2688 lineto
1791 2688 lineto
1791 2368 lineto
891 2368 lineto
891 902 lineto
891 572 980 478 conicto
1069 384 1342 384 conicto
1791 384 lineto
1791 0 lineto
1342 0 lineto
836 0 643 194 conicto
451 389 451 902 conicto
451 2368 lineto
131 2368 lineto
131 2688 lineto
451 2688 lineto
451 3456 lineto
891 3456 lineto
end_ol grestore 
gsave 14.876730 24.763029 translate 0.035278 -0.035278 scale
start_ol
2000 2304 moveto
1926 2337 1839 2352 conicto
1753 2368 1648 2368 conicto
1278 2368 1079 2127 conicto
881 1887 881 1437 conicto
881 0 lineto
442 0 lineto
442 2688 lineto
881 2688 lineto
881 2304 lineto
1019 2531 1240 2641 conicto
1461 2752 1777 2752 conicto
1822 2752 1876 2752 conicto
1931 2752 1998 2752 conicto
2000 2304 lineto
end_ol grestore 
gsave 15.138982 24.763029 translate 0.035278 -0.035278 scale
start_ol
458 2688 moveto
895 2688 lineto
895 0 lineto
458 0 lineto
458 2688 lineto
458 3712 moveto
895 3712 lineto
895 3136 lineto
458 3136 lineto
458 3712 lineto
end_ol grestore 
gsave 15.316311 24.763029 translate 0.035278 -0.035278 scale
start_ol
891 3456 moveto
891 2688 lineto
1791 2688 lineto
1791 2368 lineto
891 2368 lineto
891 902 lineto
891 572 980 478 conicto
1069 384 1342 384 conicto
1791 384 lineto
1791 0 lineto
1342 0 lineto
836 0 643 194 conicto
451 389 451 902 conicto
451 2368 lineto
131 2368 lineto
131 2688 lineto
451 2688 lineto
451 3456 lineto
891 3456 lineto
end_ol grestore 
gsave 15.566077 24.763029 translate 0.035278 -0.035278 scale
start_ol
1489 2368 moveto
1138 2368 933 2094 conicto
729 1820 729 1344 conicto
729 868 932 594 conicto
1135 320 1489 320 conicto
1838 320 2042 595 conicto
2247 870 2247 1344 conicto
2247 1816 2042 2092 conicto
1838 2368 1489 2368 conicto
1489 2752 moveto
2059 2752 2384 2378 conicto
2710 2005 2710 1344 conicto
2710 685 2384 310 conicto
2059 -64 1489 -64 conicto
917 -64 592 310 conicto
268 685 268 1344 conicto
268 2005 592 2378 conicto
917 2752 1489 2752 conicto
end_ol grestore 
gsave 15.958206 24.763029 translate 0.035278 -0.035278 scale
start_ol
2154 2560 moveto
2154 2176 lineto
1969 2272 1769 2320 conicto
1570 2368 1356 2368 conicto
1030 2368 867 2269 conicto
705 2170 705 1972 conicto
705 1821 821 1735 conicto
938 1649 1290 1571 conicto
1439 1538 lineto
1905 1438 2101 1255 conicto
2297 1072 2297 744 conicto
2297 371 2003 153 conicto
1710 -64 1197 -64 conicto
984 -64 752 -16 conicto
521 32 264 128 conicto
264 576 lineto
506 448 741 384 conicto
976 320 1207 320 conicto
1516 320 1682 425 conicto
1848 531 1848 722 conicto
1848 900 1728 994 conicto
1608 1089 1202 1177 conicto
1050 1212 lineto
644 1298 463 1476 conicto
283 1654 283 1964 conicto
283 2341 549 2546 conicto
815 2752 1304 2752 conicto
1546 2752 1760 2704 conicto
1974 2656 2154 2560 conicto
end_ol grestore 
gsave 16.290391 24.763029 translate 0.035278 -0.035278 scale
start_ol
end_ol grestore 
gsave 16.492698 24.763029 translate 0.035278 -0.035278 scale
start_ol
881 384 moveto
881 -1024 lineto
442 -1024 lineto
442 2688 lineto
881 2688 lineto
881 2304 lineto
1019 2531 1229 2641 conicto
1439 2752 1732 2752 conicto
2216 2752 2519 2364 conicto
2822 1976 2822 1344 conicto
2822 712 2519 324 conicto
2216 -64 1732 -64 conicto
1439 -64 1229 46 conicto
1019 157 881 384 conicto
2368 1344 moveto
2368 1823 2169 2095 conicto
1971 2368 1624 2368 conicto
1278 2368 1079 2095 conicto
881 1823 881 1344 conicto
881 865 1079 592 conicto
1278 320 1624 320 conicto
1971 320 2169 592 conicto
2368 865 2368 1344 conicto
end_ol grestore 
gsave 16.899817 24.763029 translate 0.035278 -0.035278 scale
start_ol
1489 2368 moveto
1138 2368 933 2094 conicto
729 1820 729 1344 conicto
729 868 932 594 conicto
1135 320 1489 320 conicto
1838 320 2042 595 conicto
2247 870 2247 1344 conicto
2247 1816 2042 2092 conicto
1838 2368 1489 2368 conicto
1489 2752 moveto
2059 2752 2384 2378 conicto
2710 2005 2710 1344 conicto
2710 685 2384 310 conicto
2059 -64 1489 -64 conicto
917 -64 592 310 conicto
268 685 268 1344 conicto
268 2005 592 2378 conicto
917 2752 1489 2752 conicto
end_ol grestore 
gsave 17.291946 24.763029 translate 0.035278 -0.035278 scale
start_ol
2000 2304 moveto
1926 2337 1839 2352 conicto
1753 2368 1648 2368 conicto
1278 2368 1079 2127 conicto
881 1887 881 1437 conicto
881 0 lineto
442 0 lineto
442 2688 lineto
881 2688 lineto
881 2304 lineto
1019 2531 1240 2641 conicto
1461 2752 1777 2752 conicto
1822 2752 1876 2752 conicto
1931 2752 1998 2752 conicto
2000 2304 lineto
end_ol grestore 
gsave 17.554198 24.763029 translate 0.035278 -0.035278 scale
start_ol
end_ol grestore 
gsave 17.756505 24.763029 translate 0.035278 -0.035278 scale
start_ol
2603 3392 moveto
2603 2944 lineto
2330 3073 2087 3136 conicto
1845 3200 1620 3200 conicto
1228 3200 1015 3052 conicto
803 2904 803 2631 conicto
803 2402 944 2285 conicto
1086 2169 1480 2097 conicto
1769 2039 lineto
2306 1937 2561 1678 conicto
2817 1420 2817 986 conicto
2817 469 2471 202 conicto
2126 -64 1458 -64 conicto
1207 -64 923 0 conicto
639 65 335 192 conicto
335 704 lineto
627 513 907 416 conicto
1188 320 1459 320 conicto
1869 320 2092 485 conicto
2316 650 2316 955 conicto
2316 1221 2155 1371 conicto
1995 1522 1629 1597 conicto
1337 1652 lineto
801 1756 561 1978 conicto
321 2201 321 2597 conicto
321 3056 652 3320 conicto
984 3584 1565 3584 conicto
1815 3584 2073 3536 conicto
2332 3488 2603 3392 conicto
end_ol grestore 
gsave 18.163624 24.763029 translate 0.035278 -0.035278 scale
start_ol
477 3520 moveto
957 3520 lineto
957 384 lineto
2684 384 lineto
2684 0 lineto
477 0 lineto
477 3520 lineto
end_ol grestore 
gsave 18.535769 24.763029 translate 0.035278 -0.035278 scale
start_ol
1663 3047 moveto
1012 1280 lineto
2316 1280 lineto
1663 3047 lineto
1392 3520 moveto
1936 3520 lineto
3287 0 lineto
2788 0 lineto
2465 896 lineto
867 896 lineto
544 0 lineto
38 0 lineto
1392 3520 lineto
end_ol grestore 
showpage
