%!PS-Adobe-2.0 EPSF-2.0
%%Title: /home/denivyruck/UDESC/TCC/Imagens/realocacao.dia
%%Creator: Dia v0.97.3
%%CreationDate: Fri Nov 11 22:21:52 2016
%%For: denivyruck
%%Orientation: Portrait
%%Magnification: 1.0000
%%BoundingBox: 0 0 1114 600
%%BeginSetup
%%EndSetup
%%EndComments
%%BeginProlog
[ /.notdef /.notdef /.notdef /.notdef /.notdef /.notdef /.notdef /.notdef /.notdef /.notdef
/.notdef /.notdef /.notdef /.notdef /.notdef /.notdef /.notdef /.notdef /.notdef /.notdef
/.notdef /.notdef /.notdef /.notdef /.notdef /.notdef /.notdef /.notdef /.notdef /.notdef
/.notdef /.notdef /space /exclam /quotedbl /numbersign /dollar /percent /ampersand /quoteright
/parenleft /parenright /asterisk /plus /comma /hyphen /period /slash /zero /one
/two /three /four /five /six /seven /eight /nine /colon /semicolon
/less /equal /greater /question /at /A /B /C /D /E
/F /G /H /I /J /K /L /M /N /O
/P /Q /R /S /T /U /V /W /X /Y
/Z /bracketleft /backslash /bracketright /asciicircum /underscore /quoteleft /a /b /c
/d /e /f /g /h /i /j /k /l /m
/n /o /p /q /r /s /t /u /v /w
/x /y /z /braceleft /bar /braceright /asciitilde /.notdef /.notdef /.notdef
/.notdef /.notdef /.notdef /.notdef /.notdef /.notdef /.notdef /.notdef /.notdef /.notdef
/.notdef /.notdef /.notdef /.notdef /.notdef /.notdef /.notdef /.notdef /.notdef /.notdef
/.notdef /.notdef /.notdef /.notdef /.notdef /.notdef /.notdef /.notdef /.notdef /.notdef
/space /exclamdown /cent /sterling /currency /yen /brokenbar /section /dieresis /copyright
/ordfeminine /guillemotleft /logicalnot /hyphen /registered /macron /degree /plusminus /twosuperior /threesuperior
/acute /mu /paragraph /periodcentered /cedilla /onesuperior /ordmasculine /guillemotright /onequarter /onehalf
/threequarters /questiondown /Agrave /Aacute /Acircumflex /Atilde /Adieresis /Aring /AE /Ccedilla
/Egrave /Eacute /Ecircumflex /Edieresis /Igrave /Iacute /Icircumflex /Idieresis /Eth /Ntilde
/Ograve /Oacute /Ocircumflex /Otilde /Odieresis /multiply /Oslash /Ugrave /Uacute /Ucircumflex
/Udieresis /Yacute /Thorn /germandbls /agrave /aacute /acircumflex /atilde /adieresis /aring
/ae /ccedilla /egrave /eacute /ecircumflex /edieresis /igrave /iacute /icircumflex /idieresis
/eth /ntilde /ograve /oacute /ocircumflex /otilde /odieresis /divide /oslash /ugrave
/uacute /ucircumflex /udieresis /yacute /thorn /ydieresis] /isolatin1encoding exch def
/cp {closepath} bind def
/c {curveto} bind def
/f {fill} bind def
/a {arc} bind def
/ef {eofill} bind def
/ex {exch} bind def
/gr {grestore} bind def
/gs {gsave} bind def
/sa {save} bind def
/rs {restore} bind def
/l {lineto} bind def
/m {moveto} bind def
/rm {rmoveto} bind def
/n {newpath} bind def
/s {stroke} bind def
/sh {show} bind def
/slc {setlinecap} bind def
/slj {setlinejoin} bind def
/slw {setlinewidth} bind def
/srgb {setrgbcolor} bind def
/rot {rotate} bind def
/sc {scale} bind def
/sd {setdash} bind def
/ff {findfont} bind def
/sf {setfont} bind def
/scf {scalefont} bind def
/sw {stringwidth pop} bind def
/tr {translate} bind def

/ellipsedict 8 dict def
ellipsedict /mtrx matrix put
/ellipse
{ ellipsedict begin
   /endangle exch def
   /startangle exch def
   /yrad exch def
   /xrad exch def
   /y exch def
   /x exch def   /savematrix mtrx currentmatrix def
   x y tr xrad yrad sc
   0 0 1 startangle endangle arc
   savematrix setmatrix
   end
} def

/mergeprocs {
dup length
3 -1 roll
dup
length
dup
5 1 roll
3 -1 roll
add
array cvx
dup
3 -1 roll
0 exch
putinterval
dup
4 2 roll
putinterval
} bind def
/dpi_x 300 def
/dpi_y 300 def
/conicto {
    /to_y exch def
    /to_x exch def
    /conic_cntrl_y exch def
    /conic_cntrl_x exch def
    currentpoint
    /p0_y exch def
    /p0_x exch def
    /p1_x p0_x conic_cntrl_x p0_x sub 2 3 div mul add def
    /p1_y p0_y conic_cntrl_y p0_y sub 2 3 div mul add def
    /p2_x p1_x to_x p0_x sub 1 3 div mul add def
    /p2_y p1_y to_y p0_y sub 1 3 div mul add def
    p1_x p1_y p2_x p2_y to_x to_y curveto
} bind def
/start_ol { gsave 1.1 dpi_x div dup scale} bind def
/end_ol { closepath fill grestore } bind def
28.346000 -28.346000 scale
-2.288800 -25.374900 translate
%%EndProlog


1.000000 1.000000 1.000000 srgb
n 14.265292 5.626248 1.042792 1.071108 0 360 ellipse f
0.100000 slw
[] 0 sd
[] 0 sd
0 slj
0.000000 0.000000 0.000000 srgb
n 14.265292 5.626248 1.042792 1.071108 0 360 ellipse cp s
gsave 14.061542 5.821248 translate 0.035278 -0.035278 scale
start_ol
603 384 moveto
1387 384 lineto
1387 3136 lineto
534 2944 lineto
534 3328 lineto
1382 3520 lineto
1862 3520 lineto
1862 384 lineto
2646 384 lineto
2646 0 lineto
603 0 lineto
603 384 lineto
end_ol grestore 
1.000000 1.000000 1.000000 srgb
n 10.104082 10.972158 1.042792 1.071108 0 360 ellipse f
0.100000 slw
[] 0 sd
[] 0 sd
0 slj
0.000000 0.000000 0.000000 srgb
n 10.104082 10.972158 1.042792 1.071108 0 360 ellipse cp s
gsave 9.900332 11.167158 translate 0.035278 -0.035278 scale
start_ol
933 384 moveto
2608 384 lineto
2608 0 lineto
356 0 lineto
356 384 lineto
629 668 1100 1146 conicto
1572 1625 1694 1763 conicto
1924 2023 2015 2203 conicto
2107 2384 2107 2558 conicto
2107 2842 1908 3021 conicto
1710 3200 1392 3200 conicto
1166 3200 915 3104 conicto
665 3009 380 2816 conicto
380 3328 lineto
670 3455 921 3519 conicto
1173 3584 1382 3584 conicto
1933 3584 2261 3309 conicto
2589 3034 2589 2574 conicto
2589 2356 2507 2160 conicto
2425 1965 2209 1700 conicto
2149 1631 1831 1302 conicto
1513 974 933 384 conicto
end_ol grestore 
1.000000 1.000000 1.000000 srgb
n 7.554962 16.141108 1.042792 1.071108 0 360 ellipse f
0.100000 slw
[] 0 sd
[] 0 sd
0 slj
0.000000 0.000000 0.000000 srgb
n 7.554962 16.141108 1.042792 1.071108 0 360 ellipse cp s
gsave 7.351212 16.336108 translate 0.035278 -0.035278 scale
start_ol
1838 3103 moveto
627 1216 lineto
1838 1216 lineto
1838 3103 lineto
1713 3520 moveto
2316 3520 lineto
2316 1216 lineto
2822 1216 lineto
2822 832 lineto
2316 832 lineto
2316 0 lineto
1838 0 lineto
1838 832 lineto
238 832 lineto
238 1291 lineto
1713 3520 lineto
end_ol grestore 
1.000000 1.000000 1.000000 srgb
n 13.319992 16.179508 1.042792 1.071108 0 360 ellipse f
0.100000 slw
[] 0 sd
[] 0 sd
0 slj
0.000000 0.000000 0.000000 srgb
n 13.319992 16.179508 1.042792 1.071108 0 360 ellipse cp s
gsave 13.116242 16.374508 translate 0.035278 -0.035278 scale
start_ol
525 3520 moveto
2408 3520 lineto
2408 3136 lineto
964 3136 lineto
964 2300 lineto
1069 2334 1173 2351 conicto
1278 2368 1382 2368 conicto
1976 2368 2323 2040 conicto
2670 1712 2670 1152 conicto
2670 575 2313 255 conicto
1957 -64 1309 -64 conicto
1085 -64 853 -32 conicto
622 0 375 64 conicto
375 576 lineto
589 447 817 383 conicto
1045 320 1299 320 conicto
1710 320 1950 544 conicto
2190 768 2190 1152 conicto
2190 1536 1950 1760 conicto
1710 1984 1299 1984 conicto
1107 1984 916 1937 conicto
725 1891 525 1792 conicto
525 3520 lineto
end_ol grestore 
1.000000 1.000000 1.000000 srgb
n 3.890192 10.761998 1.042792 1.071108 0 360 ellipse f
0.130000 slw
[1.000000 0.200000 0.200000 0.200000 0.200000 0.200000] 0 sd
[1.000000 0.200000 0.200000 0.200000 0.200000 0.200000] 0 sd
0 slj
1.000000 0.000000 0.000000 srgb
n 3.890192 10.761998 1.042792 1.071108 0 360 ellipse cp s
0.000000 0.000000 0.000000 srgb
gsave 3.570192 10.882553 translate 0.035278 -0.035278 scale
start_ol
295 2176 moveto
592 2176 lineto
592 0 lineto
295 0 lineto
295 2176 lineto
end_ol grestore 
gsave 3.687576 10.882553 translate 0.035278 -0.035278 scale
start_ol
861 0 moveto
24 2176 lineto
333 2176 lineto
1028 344 lineto
1724 2176 lineto
2033 2176 lineto
1197 0 lineto
861 0 lineto
end_ol grestore 
gsave 3.957319 10.882553 translate 0.035278 -0.035278 scale
start_ol
577 256 moveto
1613 256 lineto
1613 0 lineto
220 0 lineto
220 256 lineto
389 430 680 723 conicto
972 1017 1047 1102 conicto
1190 1262 1246 1372 conicto
1303 1483 1303 1590 conicto
1303 1764 1180 1874 conicto
1058 1984 861 1984 conicto
721 1984 566 1936 conicto
411 1889 235 1792 conicto
235 2112 lineto
414 2175 570 2207 conicto
726 2240 855 2240 conicto
1196 2240 1398 2069 conicto
1601 1899 1601 1614 conicto
1601 1479 1550 1357 conicto
1500 1236 1366 1072 conicto
1329 1029 1132 825 conicto
935 622 577 256 conicto
end_ol grestore 
1.000000 1.000000 1.000000 srgb
n 3.912292 13.167008 1.042792 1.071108 0 360 ellipse f
0.130000 slw
[1.000000] 0 sd
[1.000000] 0 sd
0 slj
1.000000 0.647059 0.000000 srgb
n 3.912292 13.167008 1.042792 1.071108 0 360 ellipse cp s
0.000000 0.000000 0.000000 srgb
gsave 3.592292 13.287563 translate 0.035278 -0.035278 scale
start_ol
295 2176 moveto
592 2176 lineto
592 0 lineto
295 0 lineto
295 2176 lineto
end_ol grestore 
gsave 3.709676 13.287563 translate 0.035278 -0.035278 scale
start_ol
861 0 moveto
24 2176 lineto
333 2176 lineto
1028 344 lineto
1724 2176 lineto
2033 2176 lineto
1197 0 lineto
861 0 lineto
end_ol grestore 
gsave 3.979419 13.287563 translate 0.035278 -0.035278 scale
start_ol
1221 1163 moveto
1434 1117 1553 973 conicto
1673 829 1673 617 conicto
1673 292 1449 114 conicto
1226 -64 815 -64 conicto
677 -64 531 -32 conicto
385 0 229 64 conicto
229 320 lineto
352 257 499 224 conicto
646 192 806 192 conicto
1086 192 1232 300 conicto
1378 409 1378 617 conicto
1378 808 1242 916 conicto
1106 1024 864 1024 conicto
608 1024 lineto
608 1280 lineto
875 1280 lineto
1094 1280 1210 1369 conicto
1326 1459 1326 1627 conicto
1326 1799 1206 1891 conicto
1087 1984 864 1984 conicto
742 1984 602 1968 conicto
463 1953 295 1920 conicto
295 2176 lineto
464 2208 611 2224 conicto
759 2240 890 2240 conicto
1228 2240 1425 2082 conicto
1622 1925 1622 1657 conicto
1622 1470 1517 1341 conicto
1413 1213 1221 1163 conicto
end_ol grestore 
1.000000 1.000000 1.000000 srgb
n 22.041492 16.163408 1.042792 1.071108 0 360 ellipse f
0.130000 slw
[0.200000] 0 sd
[0.200000] 0 sd
0 slj
0.000000 0.000000 1.000000 srgb
n 22.041492 16.163408 1.042792 1.071108 0 360 ellipse cp s
0.000000 0.000000 0.000000 srgb
gsave 21.837742 16.358408 translate 0.035278 -0.035278 scale
start_ol
399 3520 moveto
2679 3520 lineto
2679 3317 lineto
1392 0 lineto
891 0 lineto
2102 3136 lineto
399 3136 lineto
399 3520 lineto
end_ol grestore 
1.000000 1.000000 1.000000 srgb
n 18.412592 11.042868 1.042792 1.071108 0 360 ellipse f
0.100000 slw
[] 0 sd
[] 0 sd
0 slj
0.000000 0.000000 0.000000 srgb
n 18.412592 11.042868 1.042792 1.071108 0 360 ellipse cp s
gsave 18.208842 11.237868 translate 0.035278 -0.035278 scale
start_ol
1974 1936 moveto
2318 1862 2511 1627 conicto
2705 1392 2705 1046 conicto
2705 516 2344 226 conicto
1983 -64 1318 -64 conicto
1095 -64 859 -16 conicto
623 32 371 128 conicto
371 576 lineto
570 449 807 384 conicto
1045 320 1304 320 conicto
1755 320 1991 504 conicto
2228 688 2228 1039 conicto
2228 1363 2008 1545 conicto
1789 1728 1397 1728 conicto
983 1728 lineto
983 2112 lineto
1416 2112 lineto
1770 2112 1957 2250 conicto
2145 2388 2145 2648 conicto
2145 2915 1951 3057 conicto
1758 3200 1397 3200 conicto
1200 3200 974 3153 conicto
748 3107 477 3008 conicto
477 3456 lineto
750 3520 989 3552 conicto
1228 3584 1439 3584 conicto
1985 3584 2303 3343 conicto
2622 3102 2622 2692 conicto
2622 2406 2453 2209 conicto
2285 2012 1974 1936 conicto
end_ol grestore 
1.000000 1.000000 1.000000 srgb
n 17.281192 16.141308 1.042792 1.071108 0 360 ellipse f
0.100000 slw
[] 0 sd
[] 0 sd
0 slj
0.000000 0.000000 0.000000 srgb
n 17.281192 16.141308 1.042792 1.071108 0 360 ellipse cp s
0.100000 slw
[] 0 sd
[] 0 sd
0 slc
n 18.170002 12.136057 m 17.523783 15.048118 l s
0.100000 slw
[] 0 sd
[] 0 sd
0 slc
n 13.583356 6.502332 m 10.786019 10.096073 l s
0.100000 slw
[] 0 sd
[] 0 sd
0 slc
n 14.940140 6.507639 m 17.737745 10.161477 l s
0.100000 slw
[] 0 sd
[] 0 sd
0 slc
n 9.610875 11.972254 m 8.048170 15.141012 l s
0.100000 slw
[] 0 sd
[] 0 sd
0 slc
n 10.688615 11.918660 m 12.735460 15.233006 l s
1.000000 1.000000 1.000000 srgb
n 3.845092 8.386978 1.042792 1.071108 0 360 ellipse f
0.130000 slw
[0.200000] 0 sd
[0.200000] 0 sd
0 slj
0.000000 0.000000 1.000000 srgb
n 3.845092 8.386978 1.042792 1.071108 0 360 ellipse cp s
0.000000 0.000000 0.000000 srgb
gsave 3.525092 8.507533 translate 0.035278 -0.035278 scale
start_ol
295 2176 moveto
592 2176 lineto
592 0 lineto
295 0 lineto
295 2176 lineto
end_ol grestore 
gsave 3.642476 8.507533 translate 0.035278 -0.035278 scale
start_ol
861 0 moveto
24 2176 lineto
333 2176 lineto
1028 344 lineto
1724 2176 lineto
2033 2176 lineto
1197 0 lineto
861 0 lineto
end_ol grestore 
gsave 3.912219 8.507533 translate 0.035278 -0.035278 scale
start_ol
373 256 moveto
858 256 lineto
858 1920 lineto
330 1792 lineto
330 2048 lineto
855 2176 lineto
1152 2176 lineto
1152 256 lineto
1636 256 lineto
1636 0 lineto
373 0 lineto
373 256 lineto
end_ol grestore 
1.000000 1.000000 1.000000 srgb
n 3.794689 6.038525 1.063789 1.092675 0 360 ellipse f
0.100000 slw
[] 0 sd
[] 0 sd
0 slj
0.000000 0.000000 0.000000 srgb
n 3.794689 6.038525 1.063789 1.092675 0 360 ellipse cp s
gsave 3.314689 6.159080 translate 0.035278 -0.035278 scale
start_ol
592 1024 moveto
592 256 lineto
1068 256 lineto
1307 256 1422 351 conicto
1538 446 1538 641 conicto
1538 837 1422 930 conicto
1307 1024 1068 1024 conicto
592 1024 lineto
592 1920 moveto
592 1280 lineto
1031 1280 lineto
1248 1280 1354 1359 conicto
1461 1438 1461 1600 conicto
1461 1761 1354 1840 conicto
1248 1920 1031 1920 conicto
592 1920 lineto
295 2176 moveto
1053 2176 lineto
1393 2176 1576 2035 conicto
1760 1895 1760 1635 conicto
1760 1435 1666 1316 conicto
1572 1197 1389 1168 conicto
1608 1122 1729 974 conicto
1851 827 1851 606 conicto
1851 316 1651 158 conicto
1451 0 1082 0 conicto
295 0 lineto
295 2176 lineto
end_ol grestore 
gsave 3.584432 6.159080 translate 0.035278 -0.035278 scale
start_ol
1031 768 moveto
704 768 577 701 conicto
451 634 451 472 conicto
451 343 545 267 conicto
640 192 804 192 conicto
1028 192 1164 335 conicto
1300 478 1300 715 conicto
1300 768 lineto
1031 768 lineto
1570 903 moveto
1570 0 lineto
1300 0 lineto
1300 256 lineto
1207 92 1069 14 conicto
931 -64 732 -64 conicto
479 -64 330 78 conicto
181 221 181 461 conicto
181 740 366 882 conicto
552 1024 921 1024 conicto
1300 1024 lineto
1300 1054 lineto
1300 1254 1177 1363 conicto
1055 1472 833 1472 conicto
692 1472 558 1440 conicto
424 1408 301 1344 conicto
301 1600 lineto
449 1664 588 1696 conicto
728 1728 861 1728 conicto
1218 1728 1394 1523 conicto
1570 1319 1570 903 conicto
end_ol grestore 
gsave 3.826699 6.159080 translate 0.035278 -0.035278 scale
start_ol
1332 1600 moveto
1332 1344 lineto
1217 1408 1094 1440 conicto
971 1472 838 1472 conicto
637 1472 536 1408 conicto
436 1344 436 1216 conicto
436 1119 508 1063 conicto
580 1007 798 957 conicto
890 936 lineto
1178 873 1299 759 conicto
1420 645 1420 440 conicto
1420 208 1238 72 conicto
1057 -64 740 -64 conicto
608 -64 465 -32 conicto
322 0 163 64 conicto
163 320 lineto
313 256 458 224 conicto
604 192 746 192 conicto
937 192 1040 255 conicto
1143 318 1143 432 conicto
1143 539 1068 595 conicto
994 652 743 704 conicto
649 727 lineto
398 783 286 898 conicto
175 1014 175 1216 conicto
175 1461 339 1594 conicto
504 1728 806 1728 conicto
956 1728 1088 1696 conicto
1220 1664 1332 1600 conicto
end_ol grestore 
gsave 4.031503 6.159080 translate 0.035278 -0.035278 scale
start_ol
1691 992 moveto
1691 832 lineto
448 832 lineto
466 519 616 355 conicto
767 192 1035 192 conicto
1191 192 1337 224 conicto
1483 256 1627 320 conicto
1627 64 lineto
1482 1 1329 -31 conicto
1176 -64 1019 -64 conicto
626 -64 396 173 conicto
166 411 166 817 conicto
166 1236 384 1482 conicto
602 1728 973 1728 conicto
1305 1728 1498 1530 conicto
1691 1332 1691 992 conicto
1420 1088 moveto
1417 1263 1296 1367 conicto
1175 1472 975 1472 conicto
749 1472 613 1371 conicto
478 1270 457 1087 conicto
1420 1088 lineto
end_ol grestore 
0.100000 slw
[] 0 sd
[] 0 sd
0 slc
n 19.055136 11.949526 m 21.390089 15.244248 l s
1.000000 1.000000 1.000000 srgb
n 16.205892 20.107208 1.042792 1.071108 0 360 ellipse f
0.130000 slw
[1.000000 0.200000 0.200000 0.200000 0.200000 0.200000] 0 sd
[1.000000 0.200000 0.200000 0.200000 0.200000 0.200000] 0 sd
0 slj
1.000000 0.000000 0.000000 srgb
n 16.205892 20.107208 1.042792 1.071108 0 360 ellipse cp s
0.000000 0.000000 0.000000 srgb
0.100000 slw
[] 0 sd
[] 0 sd
0 slc
n 16.988740 17.219924 m 16.502676 19.012616 l s
1.000000 1.000000 1.000000 srgb
n 16.680092 20.546108 1.042792 1.071108 0 360 ellipse f
0.130000 slw
[1.000000] 0 sd
[1.000000] 0 sd
0 slj
1.000000 0.647059 0.000000 srgb
n 16.680092 20.546108 1.042792 1.071108 0 360 ellipse cp s
0.000000 0.000000 0.000000 srgb
gsave 16.476342 20.741058 translate 0.035278 -0.035278 scale
start_ol
534 64 moveto
534 512 lineto
715 419 900 369 conicto
1085 320 1263 320 conicto
1738 320 1988 648 conicto
2239 977 2275 1646 conicto
2137 1438 1925 1327 conicto
1714 1216 1458 1216 conicto
926 1216 616 1532 conicto
306 1849 306 2398 conicto
306 2935 629 3259 conicto
952 3584 1489 3584 conicto
2104 3584 2428 3116 conicto
2753 2649 2753 1759 conicto
2753 927 2355 431 conicto
1957 -64 1285 -64 conicto
1104 -64 919 -32 conicto
734 0 534 64 conicto
1489 1600 moveto
1812 1600 2001 1814 conicto
2190 2028 2190 2400 conicto
2190 2770 2001 2985 conicto
1812 3200 1489 3200 conicto
1167 3200 978 2985 conicto
789 2770 789 2400 conicto
789 2028 978 1814 conicto
1167 1600 1489 1600 conicto
end_ol grestore 
0.100000 slw
[] 0 sd
[] 0 sd
0 slc
n 8.158349 17.074024 m 9.579973 19.272046 l s
1.000000 1.000000 1.000000 srgb
n 10.189792 20.214908 1.042792 1.071108 0 360 ellipse f
0.130000 slw
[1.000000] 0 sd
[1.000000] 0 sd
0 slj
1.000000 0.647059 0.000000 srgb
n 10.189792 20.214908 1.042792 1.071108 0 360 ellipse cp s
0.000000 0.000000 0.000000 srgb
gsave 9.986042 20.409858 translate 0.035278 -0.035278 scale
start_ol
1546 1664 moveto
1204 1664 1008 1485 conicto
812 1306 812 992 conicto
812 678 1008 499 conicto
1204 320 1546 320 conicto
1888 320 2085 500 conicto
2282 680 2282 992 conicto
2282 1306 2086 1485 conicto
1890 1664 1546 1664 conicto
1066 1872 moveto
757 1948 585 2158 conicto
413 2368 413 2670 conicto
413 3093 716 3338 conicto
1019 3584 1546 3584 conicto
2076 3584 2377 3338 conicto
2679 3093 2679 2670 conicto
2679 2368 2506 2158 conicto
2334 1948 2028 1872 conicto
2375 1792 2568 1559 conicto
2762 1327 2762 991 conicto
2762 481 2447 208 conicto
2133 -64 1546 -64 conicto
959 -64 644 208 conicto
330 481 330 991 conicto
330 1327 524 1559 conicto
719 1792 1066 1872 conicto
891 2624 moveto
891 2352 1063 2200 conicto
1235 2048 1546 2048 conicto
1855 2048 2029 2200 conicto
2204 2352 2204 2624 conicto
2204 2896 2029 3048 conicto
1855 3200 1546 3200 conicto
1235 3200 1063 3048 conicto
891 2896 891 2624 conicto
end_ol grestore 
1.000000 1.000000 1.000000 srgb
n 17.720492 16.474508 1.042792 1.071108 0 360 ellipse f
0.130000 slw
[1.000000 0.200000 0.200000 0.200000 0.200000 0.200000] 0 sd
[1.000000 0.200000 0.200000 0.200000 0.200000 0.200000] 0 sd
0 slj
1.000000 0.000000 0.000000 srgb
n 17.720492 16.474508 1.042792 1.071108 0 360 ellipse cp s
0.000000 0.000000 0.000000 srgb
gsave 17.516742 16.669458 translate 0.035278 -0.035278 scale
start_ol
1605 1984 moveto
1283 1984 1094 1761 conicto
905 1539 905 1152 conicto
905 767 1094 543 conicto
1283 320 1605 320 conicto
1928 320 2117 543 conicto
2306 767 2306 1152 conicto
2306 1539 2117 1761 conicto
1928 1984 1605 1984 conicto
2558 3456 moveto
2558 3008 lineto
2377 3101 2193 3150 conicto
2009 3200 1829 3200 conicto
1354 3200 1103 2885 conicto
853 2571 817 1936 conicto
957 2145 1168 2256 conicto
1380 2368 1634 2368 conicto
2168 2368 2478 2041 conicto
2788 1715 2788 1152 conicto
2788 601 2465 268 conicto
2142 -64 1606 -64 conicto
991 -64 665 403 conicto
340 871 340 1759 conicto
340 2593 739 3088 conicto
1138 3584 1810 3584 conicto
1990 3584 2174 3552 conicto
2359 3520 2558 3456 conicto
end_ol grestore 
1.000000 1.000000 1.000000 srgb
n 34.849092 6.047908 1.042792 1.071108 0 360 ellipse f
0.100000 slw
[] 0 sd
[] 0 sd
0 slj
0.000000 0.000000 0.000000 srgb
n 34.849092 6.047908 1.042792 1.071108 0 360 ellipse cp s
1.000000 1.000000 1.000000 srgb
n 30.687892 11.393808 1.042792 1.071108 0 360 ellipse f
0.100000 slw
[] 0 sd
[] 0 sd
0 slj
0.000000 0.000000 0.000000 srgb
n 30.687892 11.393808 1.042792 1.071108 0 360 ellipse cp s
gsave 30.484142 11.588808 translate 0.035278 -0.035278 scale
start_ol
933 384 moveto
2608 384 lineto
2608 0 lineto
356 0 lineto
356 384 lineto
629 668 1100 1146 conicto
1572 1625 1694 1763 conicto
1924 2023 2015 2203 conicto
2107 2384 2107 2558 conicto
2107 2842 1908 3021 conicto
1710 3200 1392 3200 conicto
1166 3200 915 3104 conicto
665 3009 380 2816 conicto
380 3328 lineto
670 3455 921 3519 conicto
1173 3584 1382 3584 conicto
1933 3584 2261 3309 conicto
2589 3034 2589 2574 conicto
2589 2356 2507 2160 conicto
2425 1965 2209 1700 conicto
2149 1631 1831 1302 conicto
1513 974 933 384 conicto
end_ol grestore 
1.000000 1.000000 1.000000 srgb
n 28.138792 16.562808 1.042792 1.071108 0 360 ellipse f
0.100000 slw
[] 0 sd
[] 0 sd
0 slj
0.000000 0.000000 0.000000 srgb
n 28.138792 16.562808 1.042792 1.071108 0 360 ellipse cp s
gsave 27.935042 16.757808 translate 0.035278 -0.035278 scale
start_ol
1838 3103 moveto
627 1216 lineto
1838 1216 lineto
1838 3103 lineto
1713 3520 moveto
2316 3520 lineto
2316 1216 lineto
2822 1216 lineto
2822 832 lineto
2316 832 lineto
2316 0 lineto
1838 0 lineto
1838 832 lineto
238 832 lineto
238 1291 lineto
1713 3520 lineto
end_ol grestore 
1.000000 1.000000 1.000000 srgb
n 33.903792 16.601208 1.042792 1.071108 0 360 ellipse f
0.100000 slw
[] 0 sd
[] 0 sd
0 slj
0.000000 0.000000 0.000000 srgb
n 33.903792 16.601208 1.042792 1.071108 0 360 ellipse cp s
gsave 33.700042 16.796208 translate 0.035278 -0.035278 scale
start_ol
525 3520 moveto
2408 3520 lineto
2408 3136 lineto
964 3136 lineto
964 2300 lineto
1069 2334 1173 2351 conicto
1278 2368 1382 2368 conicto
1976 2368 2323 2040 conicto
2670 1712 2670 1152 conicto
2670 575 2313 255 conicto
1957 -64 1309 -64 conicto
1085 -64 853 -32 conicto
622 0 375 64 conicto
375 576 lineto
589 447 817 383 conicto
1045 320 1299 320 conicto
1710 320 1950 544 conicto
2190 768 2190 1152 conicto
2190 1536 1950 1760 conicto
1710 1984 1299 1984 conicto
1107 1984 916 1937 conicto
725 1891 525 1792 conicto
525 3520 lineto
end_ol grestore 
1.000000 1.000000 1.000000 srgb
n 38.996392 11.464508 1.042792 1.071108 0 360 ellipse f
0.100000 slw
[] 0 sd
[] 0 sd
0 slj
0.000000 0.000000 0.000000 srgb
n 38.996392 11.464508 1.042792 1.071108 0 360 ellipse cp s
1.000000 1.000000 1.000000 srgb
n 37.864992 16.563008 1.042792 1.071108 0 360 ellipse f
0.100000 slw
[] 0 sd
[] 0 sd
0 slj
0.000000 0.000000 0.000000 srgb
n 37.864992 16.563008 1.042792 1.071108 0 360 ellipse cp s
0.100000 slw
[] 0 sd
[] 0 sd
0 slc
n 38.753802 12.557710 m 38.107583 15.469805 l s
0.100000 slw
[] 0 sd
[] 0 sd
0 slc
n 34.167157 6.923991 m 31.369827 10.517725 l s
0.100000 slw
[] 0 sd
[] 0 sd
0 slc
n 35.523940 6.929295 m 38.321545 10.583120 l s
0.100000 slw
[] 0 sd
[] 0 sd
0 slc
n 30.194689 12.393913 m 28.631996 15.562702 l s
0.100000 slw
[] 0 sd
[] 0 sd
0 slc
n 31.272423 12.340319 m 33.319262 15.654697 l s
0.100000 slw
[] 0 sd
[] 0 sd
0 slc
n 28.788004 17.464899 m 30.115857 19.309974 l s
1.000000 1.000000 1.000000 srgb
n 30.773592 20.223908 1.042792 1.071108 0 360 ellipse f
0.130000 slw
[] 0 sd
[] 0 sd
0 slj
0.000000 0.000000 0.000000 srgb
n 30.773592 20.223908 1.042792 1.071108 0 360 ellipse cp s
gsave 30.569842 20.418858 translate 0.035278 -0.035278 scale
start_ol
1546 1664 moveto
1204 1664 1008 1485 conicto
812 1306 812 992 conicto
812 678 1008 499 conicto
1204 320 1546 320 conicto
1888 320 2085 500 conicto
2282 680 2282 992 conicto
2282 1306 2086 1485 conicto
1890 1664 1546 1664 conicto
1066 1872 moveto
757 1948 585 2158 conicto
413 2368 413 2670 conicto
413 3093 716 3338 conicto
1019 3584 1546 3584 conicto
2076 3584 2377 3338 conicto
2679 3093 2679 2670 conicto
2679 2368 2506 2158 conicto
2334 1948 2028 1872 conicto
2375 1792 2568 1559 conicto
2762 1327 2762 991 conicto
2762 481 2447 208 conicto
2133 -64 1546 -64 conicto
959 -64 644 208 conicto
330 481 330 991 conicto
330 1327 524 1559 conicto
719 1792 1066 1872 conicto
891 2624 moveto
891 2352 1063 2200 conicto
1235 2048 1546 2048 conicto
1855 2048 2029 2200 conicto
2204 2352 2204 2624 conicto
2204 2896 2029 3048 conicto
1855 3200 1546 3200 conicto
1235 3200 1063 3048 conicto
891 2896 891 2624 conicto
end_ol grestore 
1.000000 1.000000 1.000000 srgb
n 38.304292 16.896208 1.042792 1.071108 0 360 ellipse f
0.130000 slw
[1.000000 0.200000 0.200000 0.200000 0.200000 0.200000] 0 sd
[1.000000 0.200000 0.200000 0.200000 0.200000 0.200000] 0 sd
0 slj
1.000000 0.000000 0.000000 srgb
n 38.304292 16.896208 1.042792 1.071108 0 360 ellipse cp s
0.000000 0.000000 0.000000 srgb
0.100000 slw
[0.200000] 0 sd
[0.200000] 0 sd
0 slc
n 13.648644 13.793152 8.721130 8.721130 283.633112 8.307980 ellipse s
[] 0 sd
0 slj
0 slc
n 15.338653 5.236606 m 15.875672 5.081331 l 15.707447 5.304547 l 15.785085 5.573057 l ef
n 15.338653 5.236606 m 15.875672 5.081331 l 15.707447 5.304547 l 15.785085 5.573057 l cp s
0.100000 slw
[0.200000] 0 sd
[0.200000] 0 sd
0 slc
n 2.787550 18.488400 m 5.837550 18.488400 l s
gsave 2.737550 17.838400 translate 0.035278 -0.035278 scale
start_ol
477 3520 moveto
1192 3520 lineto
2097 1148 lineto
3007 3520 lineto
3722 3520 lineto
3722 0 lineto
3254 0 lineto
3254 3095 lineto
2339 704 lineto
1857 704 lineto
943 3095 lineto
943 0 lineto
477 0 lineto
477 3520 lineto
end_ol grestore 
gsave 3.289529 17.838400 translate 0.035278 -0.035278 scale
start_ol
458 2688 moveto
895 2688 lineto
895 0 lineto
458 0 lineto
458 2688 lineto
458 3712 moveto
895 3712 lineto
895 3136 lineto
458 3136 lineto
458 3712 lineto
end_ol grestore 
gsave 3.466857 17.838400 translate 0.035278 -0.035278 scale
start_ol
2209 1375 moveto
2209 1848 2013 2108 conicto
1817 2368 1463 2368 conicto
1112 2368 916 2108 conicto
720 1848 720 1375 conicto
720 904 916 644 conicto
1112 384 1463 384 conicto
1817 384 2013 644 conicto
2209 904 2209 1375 conicto
2646 347 moveto
2646 -347 2344 -685 conicto
2043 -1024 1420 -1024 conicto
1190 -1024 985 -992 conicto
781 -961 589 -896 conicto
589 -448 lineto
781 -546 969 -593 conicto
1157 -640 1351 -640 conicto
1781 -640 1995 -415 conicto
2209 -190 2209 264 conicto
2209 448 lineto
2074 223 1862 111 conicto
1651 0 1356 0 conicto
867 0 567 376 conicto
268 753 268 1375 conicto
268 1999 567 2375 conicto
867 2752 1356 2752 conicto
1651 2752 1862 2640 conicto
2074 2529 2209 2304 conicto
2209 2688 lineto
2646 2688 lineto
2646 347 lineto
end_ol grestore 
gsave 3.873977 17.838400 translate 0.035278 -0.035278 scale
start_ol
2000 2304 moveto
1926 2337 1839 2352 conicto
1753 2368 1648 2368 conicto
1278 2368 1079 2127 conicto
881 1887 881 1437 conicto
881 0 lineto
442 0 lineto
442 2688 lineto
881 2688 lineto
881 2304 lineto
1019 2531 1240 2641 conicto
1461 2752 1777 2752 conicto
1822 2752 1876 2752 conicto
1931 2752 1998 2752 conicto
2000 2304 lineto
end_ol grestore 
gsave 4.136228 17.838400 translate 0.035278 -0.035278 scale
start_ol
1667 1344 moveto
1137 1344 933 1225 conicto
729 1106 729 818 conicto
729 589 882 454 conicto
1035 320 1299 320 conicto
1663 320 1882 572 conicto
2102 825 2102 1244 conicto
2102 1344 lineto
1667 1344 lineto
2539 1513 moveto
2539 0 lineto
2102 0 lineto
2102 384 lineto
1952 154 1729 45 conicto
1506 -64 1183 -64 conicto
774 -64 533 162 conicto
292 389 292 769 conicto
292 1213 592 1438 conicto
893 1664 1489 1664 conicto
2102 1664 lineto
2102 1712 lineto
2102 2025 1903 2196 conicto
1705 2368 1347 2368 conicto
1119 2368 903 2320 conicto
687 2272 487 2176 conicto
487 2560 lineto
727 2656 952 2704 conicto
1178 2752 1392 2752 conicto
1969 2752 2254 2444 conicto
2539 2137 2539 1513 conicto
end_ol grestore 
gsave 4.528357 17.838400 translate 0.035278 -0.035278 scale
start_ol
2373 2560 moveto
2373 2176 lineto
2188 2272 2001 2320 conicto
1815 2368 1625 2368 conicto
1199 2368 964 2099 conicto
729 1830 729 1344 conicto
729 858 964 589 conicto
1199 320 1625 320 conicto
1815 320 2001 368 conicto
2188 416 2373 512 conicto
2373 128 lineto
2190 32 1994 -16 conicto
1798 -64 1577 -64 conicto
976 -64 622 316 conicto
268 697 268 1344 conicto
268 2000 625 2376 conicto
983 2752 1606 2752 conicto
1808 2752 2000 2704 conicto
2192 2656 2373 2560 conicto
1736 0 moveto
1866 -151 1930 -278 conicto
1994 -406 1994 -523 conicto
1994 -739 1851 -849 conicto
1709 -960 1429 -960 conicto
1320 -960 1216 -944 conicto
1113 -929 1011 -898 conicto
1011 -576 lineto
1092 -610 1180 -625 conicto
1268 -640 1379 -640 conicto
1519 -640 1590 -583 conicto
1662 -527 1662 -419 conicto
1662 -348 1611 -246 conicto
1560 -144 1453 0 conicto
1736 0 lineto
end_ol grestore 
gsave 4.880526 17.838400 translate 0.035278 -0.035278 scale
start_ol
1667 1344 moveto
1137 1344 933 1225 conicto
729 1106 729 818 conicto
729 589 882 454 conicto
1035 320 1299 320 conicto
1663 320 1882 572 conicto
2102 825 2102 1244 conicto
2102 1344 lineto
1667 1344 lineto
2539 1513 moveto
2539 0 lineto
2102 0 lineto
2102 384 lineto
1952 154 1729 45 conicto
1506 -64 1183 -64 conicto
774 -64 533 162 conicto
292 389 292 769 conicto
292 1213 592 1438 conicto
893 1664 1489 1664 conicto
2102 1664 lineto
2102 1712 lineto
2102 2025 1903 2196 conicto
1705 2368 1347 2368 conicto
1119 2368 903 2320 conicto
687 2272 487 2176 conicto
487 2560 lineto
727 2656 952 2704 conicto
1178 2752 1392 2752 conicto
1969 2752 2254 2444 conicto
2539 2137 2539 1513 conicto
1399 3226 moveto
1263 3364 lineto
1211 3411 1171 3433 conicto
1132 3456 1102 3456 conicto
1011 3456 968 3365 conicto
926 3275 921 3072 conicto
624 3072 lineto
629 3409 750 3592 conicto
871 3776 1088 3776 conicto
1178 3776 1254 3740 conicto
1330 3705 1418 3622 conicto
1553 3484 lineto
1605 3437 1644 3414 conicto
1684 3392 1715 3392 conicto
1805 3392 1847 3482 conicto
1890 3573 1895 3776 conicto
2192 3776 lineto
2187 3439 2066 3255 conicto
1945 3072 1729 3072 conicto
1639 3072 1563 3107 conicto
1487 3143 1399 3226 conicto
end_ol grestore 
gsave 5.272655 17.838400 translate 0.035278 -0.035278 scale
start_ol
1489 2368 moveto
1138 2368 933 2094 conicto
729 1820 729 1344 conicto
729 868 932 594 conicto
1135 320 1489 320 conicto
1838 320 2042 595 conicto
2247 870 2247 1344 conicto
2247 1816 2042 2092 conicto
1838 2368 1489 2368 conicto
1489 2752 moveto
2059 2752 2384 2378 conicto
2710 2005 2710 1344 conicto
2710 685 2384 310 conicto
2059 -64 1489 -64 conicto
917 -64 592 310 conicto
268 685 268 1344 conicto
268 2005 592 2378 conicto
917 2752 1489 2752 conicto
end_ol grestore 
0.100000 slw
[1.000000 0.400000 0.200000 0.400000] 0 sd
[1.000000 0.400000 0.200000 0.400000] 0 sd
0 slc
1.000000 0.000000 0.000000 srgb
n 6.821652 19.504363 3.442279 3.442279 308.661195 352.911263 ellipse s
[] 0 sd
0 slj
0 slc
n 8.670750 16.598745 m 9.228373 16.638196 l 8.993489 16.789702 l 8.973764 17.068514 l ef
n 8.670750 16.598745 m 9.228373 16.638196 l 8.993489 16.789702 l 8.973764 17.068514 l cp s
0.100000 slw
[0.200000] 0 sd
[0.200000] 0 sd
0 slc
0.000000 0.000000 0.000000 srgb
n 17.212964 18.055996 2.148449 2.148449 126.245532 230.257581 ellipse s
[] 0 sd
0 slj
0 slc
n 16.138761 16.192015 m 15.806565 16.641621 l 15.804561 16.362120 l 15.579758 16.196022 l ef
n 16.138761 16.192015 m 15.806565 16.641621 l 15.804561 16.362120 l 15.579758 16.196022 l cp s
0.100000 slw
[0.200000] 0 sd
[0.200000] 0 sd
0 slc
n 13.692634 14.838294 5.837626 5.837626 336.038601 53.551059 ellipse s
[] 0 sd
0 slj
0 slc
n 18.865439 12.130441 m 19.324995 12.448732 l 19.045685 12.459282 l 18.886540 12.689060 l ef
n 18.865439 12.130441 m 19.324995 12.448732 l 19.045685 12.459282 l 18.886540 12.689060 l cp s
1.000000 1.000000 1.000000 srgb
n 38.861792 17.270908 1.042792 1.071108 0 360 ellipse f
0.130000 slw
[1.000000] 0 sd
[1.000000] 0 sd
0 slj
1.000000 0.647059 0.000000 srgb
n 38.861792 17.270908 1.042792 1.071108 0 360 ellipse cp s
0.000000 0.000000 0.000000 srgb
gsave 38.658042 17.465858 translate 0.035278 -0.035278 scale
start_ol
1605 1984 moveto
1283 1984 1094 1761 conicto
905 1539 905 1152 conicto
905 767 1094 543 conicto
1283 320 1605 320 conicto
1928 320 2117 543 conicto
2306 767 2306 1152 conicto
2306 1539 2117 1761 conicto
1928 1984 1605 1984 conicto
2558 3456 moveto
2558 3008 lineto
2377 3101 2193 3150 conicto
2009 3200 1829 3200 conicto
1354 3200 1103 2885 conicto
853 2571 817 1936 conicto
957 2145 1168 2256 conicto
1380 2368 1634 2368 conicto
2168 2368 2478 2041 conicto
2788 1715 2788 1152 conicto
2788 601 2465 268 conicto
2142 -64 1606 -64 conicto
991 -64 665 403 conicto
340 871 340 1759 conicto
340 2593 739 3088 conicto
1138 3584 1810 3584 conicto
1990 3584 2174 3552 conicto
2359 3520 2558 3456 conicto
end_ol grestore 
0.100000 slw
[1.000000 0.400000 0.200000 0.400000] 0 sd
[1.000000 0.400000 0.200000 0.400000] 0 sd
0 slc
1.000000 0.000000 0.000000 srgb
n 2.532550 20.843400 m 6.187550 20.738400 l s
0.000000 0.000000 0.000000 srgb
gsave 2.817550 19.493400 translate 0.035278 -0.035278 scale
start_ol
477 3520 moveto
1192 3520 lineto
2097 1148 lineto
3007 3520 lineto
3722 3520 lineto
3722 0 lineto
3254 0 lineto
3254 3095 lineto
2339 704 lineto
1857 704 lineto
943 3095 lineto
943 0 lineto
477 0 lineto
477 3520 lineto
end_ol grestore 
gsave 3.369529 19.493400 translate 0.035278 -0.035278 scale
start_ol
458 2688 moveto
895 2688 lineto
895 0 lineto
458 0 lineto
458 2688 lineto
458 3712 moveto
895 3712 lineto
895 3136 lineto
458 3136 lineto
458 3712 lineto
end_ol grestore 
gsave 3.546857 19.493400 translate 0.035278 -0.035278 scale
start_ol
2209 1375 moveto
2209 1848 2013 2108 conicto
1817 2368 1463 2368 conicto
1112 2368 916 2108 conicto
720 1848 720 1375 conicto
720 904 916 644 conicto
1112 384 1463 384 conicto
1817 384 2013 644 conicto
2209 904 2209 1375 conicto
2646 347 moveto
2646 -347 2344 -685 conicto
2043 -1024 1420 -1024 conicto
1190 -1024 985 -992 conicto
781 -961 589 -896 conicto
589 -448 lineto
781 -546 969 -593 conicto
1157 -640 1351 -640 conicto
1781 -640 1995 -415 conicto
2209 -190 2209 264 conicto
2209 448 lineto
2074 223 1862 111 conicto
1651 0 1356 0 conicto
867 0 567 376 conicto
268 753 268 1375 conicto
268 1999 567 2375 conicto
867 2752 1356 2752 conicto
1651 2752 1862 2640 conicto
2074 2529 2209 2304 conicto
2209 2688 lineto
2646 2688 lineto
2646 347 lineto
end_ol grestore 
gsave 3.953977 19.493400 translate 0.035278 -0.035278 scale
start_ol
2000 2304 moveto
1926 2337 1839 2352 conicto
1753 2368 1648 2368 conicto
1278 2368 1079 2127 conicto
881 1887 881 1437 conicto
881 0 lineto
442 0 lineto
442 2688 lineto
881 2688 lineto
881 2304 lineto
1019 2531 1240 2641 conicto
1461 2752 1777 2752 conicto
1822 2752 1876 2752 conicto
1931 2752 1998 2752 conicto
2000 2304 lineto
end_ol grestore 
gsave 4.216228 19.493400 translate 0.035278 -0.035278 scale
start_ol
1667 1344 moveto
1137 1344 933 1225 conicto
729 1106 729 818 conicto
729 589 882 454 conicto
1035 320 1299 320 conicto
1663 320 1882 572 conicto
2102 825 2102 1244 conicto
2102 1344 lineto
1667 1344 lineto
2539 1513 moveto
2539 0 lineto
2102 0 lineto
2102 384 lineto
1952 154 1729 45 conicto
1506 -64 1183 -64 conicto
774 -64 533 162 conicto
292 389 292 769 conicto
292 1213 592 1438 conicto
893 1664 1489 1664 conicto
2102 1664 lineto
2102 1712 lineto
2102 2025 1903 2196 conicto
1705 2368 1347 2368 conicto
1119 2368 903 2320 conicto
687 2272 487 2176 conicto
487 2560 lineto
727 2656 952 2704 conicto
1178 2752 1392 2752 conicto
1969 2752 2254 2444 conicto
2539 2137 2539 1513 conicto
end_ol grestore 
gsave 4.608357 19.493400 translate 0.035278 -0.035278 scale
start_ol
2373 2560 moveto
2373 2176 lineto
2188 2272 2001 2320 conicto
1815 2368 1625 2368 conicto
1199 2368 964 2099 conicto
729 1830 729 1344 conicto
729 858 964 589 conicto
1199 320 1625 320 conicto
1815 320 2001 368 conicto
2188 416 2373 512 conicto
2373 128 lineto
2190 32 1994 -16 conicto
1798 -64 1577 -64 conicto
976 -64 622 316 conicto
268 697 268 1344 conicto
268 2000 625 2376 conicto
983 2752 1606 2752 conicto
1808 2752 2000 2704 conicto
2192 2656 2373 2560 conicto
1736 0 moveto
1866 -151 1930 -278 conicto
1994 -406 1994 -523 conicto
1994 -739 1851 -849 conicto
1709 -960 1429 -960 conicto
1320 -960 1216 -944 conicto
1113 -929 1011 -898 conicto
1011 -576 lineto
1092 -610 1180 -625 conicto
1268 -640 1379 -640 conicto
1519 -640 1590 -583 conicto
1662 -527 1662 -419 conicto
1662 -348 1611 -246 conicto
1560 -144 1453 0 conicto
1736 0 lineto
end_ol grestore 
gsave 4.960526 19.493400 translate 0.035278 -0.035278 scale
start_ol
1667 1344 moveto
1137 1344 933 1225 conicto
729 1106 729 818 conicto
729 589 882 454 conicto
1035 320 1299 320 conicto
1663 320 1882 572 conicto
2102 825 2102 1244 conicto
2102 1344 lineto
1667 1344 lineto
2539 1513 moveto
2539 0 lineto
2102 0 lineto
2102 384 lineto
1952 154 1729 45 conicto
1506 -64 1183 -64 conicto
774 -64 533 162 conicto
292 389 292 769 conicto
292 1213 592 1438 conicto
893 1664 1489 1664 conicto
2102 1664 lineto
2102 1712 lineto
2102 2025 1903 2196 conicto
1705 2368 1347 2368 conicto
1119 2368 903 2320 conicto
687 2272 487 2176 conicto
487 2560 lineto
727 2656 952 2704 conicto
1178 2752 1392 2752 conicto
1969 2752 2254 2444 conicto
2539 2137 2539 1513 conicto
1399 3226 moveto
1263 3364 lineto
1211 3411 1171 3433 conicto
1132 3456 1102 3456 conicto
1011 3456 968 3365 conicto
926 3275 921 3072 conicto
624 3072 lineto
629 3409 750 3592 conicto
871 3776 1088 3776 conicto
1178 3776 1254 3740 conicto
1330 3705 1418 3622 conicto
1553 3484 lineto
1605 3437 1644 3414 conicto
1684 3392 1715 3392 conicto
1805 3392 1847 3482 conicto
1890 3573 1895 3776 conicto
2192 3776 lineto
2187 3439 2066 3255 conicto
1945 3072 1729 3072 conicto
1639 3072 1563 3107 conicto
1487 3143 1399 3226 conicto
end_ol grestore 
gsave 5.352655 19.493400 translate 0.035278 -0.035278 scale
start_ol
1489 2368 moveto
1138 2368 933 2094 conicto
729 1820 729 1344 conicto
729 868 932 594 conicto
1135 320 1489 320 conicto
1838 320 2042 595 conicto
2247 870 2247 1344 conicto
2247 1816 2042 2092 conicto
1838 2368 1489 2368 conicto
1489 2752 moveto
2059 2752 2384 2378 conicto
2710 2005 2710 1344 conicto
2710 685 2384 310 conicto
2059 -64 1489 -64 conicto
917 -64 592 310 conicto
268 685 268 1344 conicto
268 2005 592 2378 conicto
917 2752 1489 2752 conicto
end_ol grestore 
gsave 2.288800 20.293400 translate 0.035278 -0.035278 scale
start_ol
2670 1646 moveto
2670 0 lineto
2233 0 lineto
2233 1632 lineto
2233 2001 2085 2184 conicto
1938 2368 1644 2368 conicto
1290 2368 1085 2146 conicto
881 1925 881 1542 conicto
881 0 lineto
442 0 lineto
442 2688 lineto
881 2688 lineto
881 2304 lineto
1038 2529 1250 2640 conicto
1463 2752 1741 2752 conicto
2200 2752 2435 2471 conicto
2670 2191 2670 1646 conicto
end_ol grestore 
gsave 2.693414 20.293400 translate 0.035278 -0.035278 scale
start_ol
1667 1344 moveto
1137 1344 933 1225 conicto
729 1106 729 818 conicto
729 589 882 454 conicto
1035 320 1299 320 conicto
1663 320 1882 572 conicto
2102 825 2102 1244 conicto
2102 1344 lineto
1667 1344 lineto
2539 1513 moveto
2539 0 lineto
2102 0 lineto
2102 384 lineto
1952 154 1729 45 conicto
1506 -64 1183 -64 conicto
774 -64 533 162 conicto
292 389 292 769 conicto
292 1213 592 1438 conicto
893 1664 1489 1664 conicto
2102 1664 lineto
2102 1712 lineto
2102 2025 1903 2196 conicto
1705 2368 1347 2368 conicto
1119 2368 903 2320 conicto
687 2272 487 2176 conicto
487 2560 lineto
727 2656 952 2704 conicto
1178 2752 1392 2752 conicto
1969 2752 2254 2444 conicto
2539 2137 2539 1513 conicto
1399 3226 moveto
1263 3364 lineto
1211 3411 1171 3433 conicto
1132 3456 1102 3456 conicto
1011 3456 968 3365 conicto
926 3275 921 3072 conicto
624 3072 lineto
629 3409 750 3592 conicto
871 3776 1088 3776 conicto
1178 3776 1254 3740 conicto
1330 3705 1418 3622 conicto
1553 3484 lineto
1605 3437 1644 3414 conicto
1684 3392 1715 3392 conicto
1805 3392 1847 3482 conicto
1890 3573 1895 3776 conicto
2192 3776 lineto
2187 3439 2066 3255 conicto
1945 3072 1729 3072 conicto
1639 3072 1563 3107 conicto
1487 3143 1399 3226 conicto
end_ol grestore 
gsave 3.085543 20.293400 translate 0.035278 -0.035278 scale
start_ol
1489 2368 moveto
1138 2368 933 2094 conicto
729 1820 729 1344 conicto
729 868 932 594 conicto
1135 320 1489 320 conicto
1838 320 2042 595 conicto
2247 870 2247 1344 conicto
2247 1816 2042 2092 conicto
1838 2368 1489 2368 conicto
1489 2752 moveto
2059 2752 2384 2378 conicto
2710 2005 2710 1344 conicto
2710 685 2384 310 conicto
2059 -64 1489 -64 conicto
917 -64 592 310 conicto
268 685 268 1344 conicto
268 2005 592 2378 conicto
917 2752 1489 2752 conicto
end_ol grestore 
gsave 3.477672 20.293400 translate 0.035278 -0.035278 scale
start_ol
end_ol grestore 
gsave 3.679979 20.293400 translate 0.035278 -0.035278 scale
start_ol
881 384 moveto
881 -1024 lineto
442 -1024 lineto
442 2688 lineto
881 2688 lineto
881 2304 lineto
1019 2531 1229 2641 conicto
1439 2752 1732 2752 conicto
2216 2752 2519 2364 conicto
2822 1976 2822 1344 conicto
2822 712 2519 324 conicto
2216 -64 1732 -64 conicto
1439 -64 1229 46 conicto
1019 157 881 384 conicto
2368 1344 moveto
2368 1823 2169 2095 conicto
1971 2368 1624 2368 conicto
1278 2368 1079 2095 conicto
881 1823 881 1344 conicto
881 865 1079 592 conicto
1278 320 1624 320 conicto
1971 320 2169 592 conicto
2368 865 2368 1344 conicto
end_ol grestore 
gsave 4.087099 20.293400 translate 0.035278 -0.035278 scale
start_ol
1489 2368 moveto
1138 2368 933 2094 conicto
729 1820 729 1344 conicto
729 868 932 594 conicto
1135 320 1489 320 conicto
1838 320 2042 595 conicto
2247 870 2247 1344 conicto
2247 1816 2042 2092 conicto
1838 2368 1489 2368 conicto
1489 2752 moveto
2059 2752 2384 2378 conicto
2710 2005 2710 1344 conicto
2710 685 2384 310 conicto
2059 -64 1489 -64 conicto
917 -64 592 310 conicto
268 685 268 1344 conicto
268 2005 592 2378 conicto
917 2752 1489 2752 conicto
end_ol grestore 
gsave 4.479228 20.293400 translate 0.035278 -0.035278 scale
start_ol
2154 2560 moveto
2154 2176 lineto
1969 2272 1769 2320 conicto
1570 2368 1356 2368 conicto
1030 2368 867 2269 conicto
705 2170 705 1972 conicto
705 1821 821 1735 conicto
938 1649 1290 1571 conicto
1439 1538 lineto
1905 1438 2101 1255 conicto
2297 1072 2297 744 conicto
2297 371 2003 153 conicto
1710 -64 1197 -64 conicto
984 -64 752 -16 conicto
521 32 264 128 conicto
264 576 lineto
506 448 741 384 conicto
976 320 1207 320 conicto
1516 320 1682 425 conicto
1848 531 1848 722 conicto
1848 900 1728 994 conicto
1608 1089 1202 1177 conicto
1050 1212 lineto
644 1298 463 1476 conicto
283 1654 283 1964 conicto
283 2341 549 2546 conicto
815 2752 1304 2752 conicto
1546 2752 1760 2704 conicto
1974 2656 2154 2560 conicto
end_ol grestore 
gsave 4.811412 20.293400 translate 0.035278 -0.035278 scale
start_ol
2154 2560 moveto
2154 2176 lineto
1969 2272 1769 2320 conicto
1570 2368 1356 2368 conicto
1030 2368 867 2269 conicto
705 2170 705 1972 conicto
705 1821 821 1735 conicto
938 1649 1290 1571 conicto
1439 1538 lineto
1905 1438 2101 1255 conicto
2297 1072 2297 744 conicto
2297 371 2003 153 conicto
1710 -64 1197 -64 conicto
984 -64 752 -16 conicto
521 32 264 128 conicto
264 576 lineto
506 448 741 384 conicto
976 320 1207 320 conicto
1516 320 1682 425 conicto
1848 531 1848 722 conicto
1848 900 1728 994 conicto
1608 1089 1202 1177 conicto
1050 1212 lineto
644 1298 463 1476 conicto
283 1654 283 1964 conicto
283 2341 549 2546 conicto
815 2752 1304 2752 conicto
1546 2752 1760 2704 conicto
1974 2656 2154 2560 conicto
end_ol grestore 
gsave 5.143596 20.293400 translate 0.035278 -0.035278 scale
start_ol
1034 3904 moveto
1507 3904 lineto
732 3008 lineto
369 3008 lineto
1034 3904 lineto
458 2688 moveto
895 2688 lineto
895 0 lineto
458 0 lineto
458 2688 lineto
677 2752 moveto
677 2752 lineto
end_ol grestore 
gsave 5.320925 20.293400 translate 0.035278 -0.035278 scale
start_ol
145 2688 moveto
608 2688 lineto
1439 432 lineto
2271 2688 lineto
2734 2688 lineto
1736 0 lineto
1142 0 lineto
145 2688 lineto
end_ol grestore 
gsave 5.700569 20.293400 translate 0.035278 -0.035278 scale
start_ol
2734 1480 moveto
2734 1280 lineto
724 1280 lineto
753 811 996 565 conicto
1240 320 1674 320 conicto
1926 320 2162 384 conicto
2399 448 2632 576 conicto
2632 192 lineto
2397 67 2150 1 conicto
1903 -64 1648 -64 conicto
1012 -64 640 309 conicto
268 683 268 1320 conicto
268 1979 621 2365 conicto
974 2752 1572 2752 conicto
2109 2752 2421 2410 conicto
2734 2068 2734 1480 conicto
2297 1600 moveto
2292 1950 2096 2159 conicto
1900 2368 1577 2368 conicto
1212 2368 992 2166 conicto
772 1964 739 1597 conicto
2297 1600 lineto
end_ol grestore 
gsave 6.095195 20.293400 translate 0.035278 -0.035278 scale
start_ol
458 3712 moveto
895 3712 lineto
895 0 lineto
458 0 lineto
458 3712 lineto
end_ol grestore 
1.000000 1.000000 1.000000 srgb
n 10.602792 20.746108 1.042792 1.071108 0 360 ellipse f
0.130000 slw
[1.000000 0.400000 0.200000 0.400000] 0 sd
[1.000000 0.400000 0.200000 0.400000] 0 sd
0 slj
0.545098 0.411765 0.078431 srgb
n 10.602792 20.746108 1.042792 1.071108 0 360 ellipse cp s
0.000000 0.000000 0.000000 srgb
gsave 10.399042 20.941058 translate 0.035278 -0.035278 scale
start_ol
1546 1664 moveto
1204 1664 1008 1485 conicto
812 1306 812 992 conicto
812 678 1008 499 conicto
1204 320 1546 320 conicto
1888 320 2085 500 conicto
2282 680 2282 992 conicto
2282 1306 2086 1485 conicto
1890 1664 1546 1664 conicto
1066 1872 moveto
757 1948 585 2158 conicto
413 2368 413 2670 conicto
413 3093 716 3338 conicto
1019 3584 1546 3584 conicto
2076 3584 2377 3338 conicto
2679 3093 2679 2670 conicto
2679 2368 2506 2158 conicto
2334 1948 2028 1872 conicto
2375 1792 2568 1559 conicto
2762 1327 2762 991 conicto
2762 481 2447 208 conicto
2133 -64 1546 -64 conicto
959 -64 644 208 conicto
330 481 330 991 conicto
330 1327 524 1559 conicto
719 1792 1066 1872 conicto
891 2624 moveto
891 2352 1063 2200 conicto
1235 2048 1546 2048 conicto
1855 2048 2029 2200 conicto
2204 2352 2204 2624 conicto
2204 2896 2029 3048 conicto
1855 3200 1546 3200 conicto
1235 3200 1063 3048 conicto
891 2896 891 2624 conicto
end_ol grestore 
1.000000 1.000000 1.000000 srgb
n 4.070812 15.716508 1.042792 1.071108 0 360 ellipse f
0.130000 slw
[1.000000 0.400000 0.200000 0.400000] 0 sd
[1.000000 0.400000 0.200000 0.400000] 0 sd
0 slj
0.545098 0.411765 0.078431 srgb
n 4.070812 15.716508 1.042792 1.071108 0 360 ellipse cp s
0.000000 0.000000 0.000000 srgb
gsave 3.750812 15.837063 translate 0.035278 -0.035278 scale
start_ol
295 2176 moveto
592 2176 lineto
592 0 lineto
295 0 lineto
295 2176 lineto
end_ol grestore 
gsave 3.868196 15.837063 translate 0.035278 -0.035278 scale
start_ol
861 0 moveto
24 2176 lineto
333 2176 lineto
1028 344 lineto
1724 2176 lineto
2033 2176 lineto
1197 0 lineto
861 0 lineto
end_ol grestore 
gsave 4.137939 15.837063 translate 0.035278 -0.035278 scale
start_ol
1137 1921 moveto
388 768 lineto
1137 768 lineto
1137 1921 lineto
1059 2176 moveto
1432 2176 lineto
1432 768 lineto
1745 768 lineto
1745 512 lineto
1432 512 lineto
1432 0 lineto
1137 0 lineto
1137 512 lineto
147 512 lineto
147 796 lineto
1059 2176 lineto
end_ol grestore 
0.100000 slw
[] 0 sd
[] 0 sd
0 slc
n 23.416800 11.682600 m 28.386114 11.640886 l s
[] 0 sd
0 slj
0 slc
n 28.761101 11.637738 m 28.263217 11.891927 l 28.386114 11.640886 l 28.259020 11.391944 l ef
n 28.761101 11.637738 m 28.263217 11.891927 l 28.386114 11.640886 l 28.259020 11.391944 l cp s
1.000000 1.000000 1.000000 srgb
n 7.555424 24.152900 1.126414 1.157000 0 360 ellipse f
0.130000 slw
[1.000000 0.400000 0.200000 0.400000] 0 sd
[1.000000 0.400000 0.200000 0.400000] 0 sd
0 slj
0.545098 0.411765 0.078431 srgb
n 7.555424 24.152900 1.126414 1.157000 0 360 ellipse cp s
0.000000 0.000000 0.000000 srgb
gsave 7.147924 24.347850 translate 0.035278 -0.035278 scale
start_ol
603 384 moveto
1387 384 lineto
1387 3136 lineto
534 2944 lineto
534 3328 lineto
1382 3520 lineto
1862 3520 lineto
1862 384 lineto
2646 384 lineto
2646 0 lineto
603 0 lineto
603 384 lineto
end_ol grestore 
gsave 7.555043 24.347850 translate 0.035278 -0.035278 scale
start_ol
1546 3200 moveto
1176 3200 989 2840 conicto
803 2481 803 1759 conicto
803 1039 989 679 conicto
1176 320 1546 320 conicto
1919 320 2105 679 conicto
2292 1039 2292 1759 conicto
2292 2481 2105 2840 conicto
1919 3200 1546 3200 conicto
1547 3584 moveto
2143 3584 2457 3116 conicto
2772 2649 2772 1759 conicto
2772 871 2457 403 conicto
2143 -64 1547 -64 conicto
950 -64 635 403 conicto
321 871 321 1759 conicto
321 2649 635 3116 conicto
950 3584 1547 3584 conicto
end_ol grestore 
0.100000 slw
[] 0 sd
[] 0 sd
0 slc
n 9.563036 21.151815 m 8.229613 23.145087 l s
0.100000 slw
[] 0 sd
[] 0 sd
0 slc
n 14.623663 4.675359 7.750913 7.750913 66.815062 117.529107 ellipse s
1.000000 1.000000 1.000000 srgb
n 22.549592 16.395008 1.042792 1.071108 0 360 ellipse f
0.130000 slw
[1.000000] 0 sd
[1.000000] 0 sd
0 slj
1.000000 0.647059 0.000000 srgb
n 22.549592 16.395008 1.042792 1.071108 0 360 ellipse cp s
0.000000 0.000000 0.000000 srgb
gsave 22.345842 16.589958 translate 0.035278 -0.035278 scale
start_ol
399 3520 moveto
2679 3520 lineto
2679 3317 lineto
1392 0 lineto
891 0 lineto
2102 3136 lineto
399 3136 lineto
399 3520 lineto
end_ol grestore 
0.100000 slw
[] 0 sd
[] 0 sd
0 slc
n 12.580544 17.004162 m 10.588900 19.225300 l s
0.100000 slw
[] 0 sd
[] 0 sd
0 slc
n 34.911325 3.299923 9.129521 9.129521 70.308620 110.666458 ellipse s
0.100000 slw
[] 0 sd
[] 0 sd
0 slc
n 33.192848 17.452541 m 31.511000 19.466500 l s
gsave 24.350000 11.200000 translate 0.035278 -0.035278 scale
start_ol
2159 1632 moveto
2313 1581 2459 1413 conicto
2606 1245 2753 952 conicto
3240 0 lineto
2724 0 lineto
2271 893 lineto
2095 1243 1930 1357 conicto
1765 1472 1480 1472 conicto
957 1472 lineto
957 0 lineto
477 0 lineto
477 3520 lineto
1560 3520 lineto
2168 3520 2467 3265 conicto
2767 3010 2767 2496 conicto
2767 2161 2611 1939 conicto
2456 1718 2159 1632 conicto
957 3136 moveto
957 1856 lineto
1560 1856 lineto
1907 1856 2084 2019 conicto
2261 2182 2261 2498 conicto
2261 2815 2084 2975 conicto
1907 3136 1560 3136 conicto
957 3136 lineto
end_ol grestore 
gsave 24.767107 11.200000 translate 0.035278 -0.035278 scale
start_ol
2734 1480 moveto
2734 1280 lineto
724 1280 lineto
753 811 996 565 conicto
1240 320 1674 320 conicto
1926 320 2162 384 conicto
2399 448 2632 576 conicto
2632 192 lineto
2397 67 2150 1 conicto
1903 -64 1648 -64 conicto
1012 -64 640 309 conicto
268 683 268 1320 conicto
268 1979 621 2365 conicto
974 2752 1572 2752 conicto
2109 2752 2421 2410 conicto
2734 2068 2734 1480 conicto
2297 1600 moveto
2292 1950 2096 2159 conicto
1900 2368 1577 2368 conicto
1212 2368 992 2166 conicto
772 1964 739 1597 conicto
2297 1600 lineto
end_ol grestore 
gsave 25.161733 11.200000 translate 0.035278 -0.035278 scale
start_ol
1667 1344 moveto
1137 1344 933 1225 conicto
729 1106 729 818 conicto
729 589 882 454 conicto
1035 320 1299 320 conicto
1663 320 1882 572 conicto
2102 825 2102 1244 conicto
2102 1344 lineto
1667 1344 lineto
2539 1513 moveto
2539 0 lineto
2102 0 lineto
2102 384 lineto
1952 154 1729 45 conicto
1506 -64 1183 -64 conicto
774 -64 533 162 conicto
292 389 292 769 conicto
292 1213 592 1438 conicto
893 1664 1489 1664 conicto
2102 1664 lineto
2102 1712 lineto
2102 2025 1903 2196 conicto
1705 2368 1347 2368 conicto
1119 2368 903 2320 conicto
687 2272 487 2176 conicto
487 2560 lineto
727 2656 952 2704 conicto
1178 2752 1392 2752 conicto
1969 2752 2254 2444 conicto
2539 2137 2539 1513 conicto
end_ol grestore 
gsave 25.553862 11.200000 translate 0.035278 -0.035278 scale
start_ol
458 3712 moveto
895 3712 lineto
895 0 lineto
458 0 lineto
458 3712 lineto
end_ol grestore 
gsave 25.731191 11.200000 translate 0.035278 -0.035278 scale
start_ol
1489 2368 moveto
1138 2368 933 2094 conicto
729 1820 729 1344 conicto
729 868 932 594 conicto
1135 320 1489 320 conicto
1838 320 2042 595 conicto
2247 870 2247 1344 conicto
2247 1816 2042 2092 conicto
1838 2368 1489 2368 conicto
1489 2752 moveto
2059 2752 2384 2378 conicto
2710 2005 2710 1344 conicto
2710 685 2384 310 conicto
2059 -64 1489 -64 conicto
917 -64 592 310 conicto
268 685 268 1344 conicto
268 2005 592 2378 conicto
917 2752 1489 2752 conicto
end_ol grestore 
gsave 26.123320 11.200000 translate 0.035278 -0.035278 scale
start_ol
2373 2560 moveto
2373 2176 lineto
2188 2272 2001 2320 conicto
1815 2368 1625 2368 conicto
1199 2368 964 2099 conicto
729 1830 729 1344 conicto
729 858 964 589 conicto
1199 320 1625 320 conicto
1815 320 2001 368 conicto
2188 416 2373 512 conicto
2373 128 lineto
2190 32 1994 -16 conicto
1798 -64 1577 -64 conicto
976 -64 622 316 conicto
268 697 268 1344 conicto
268 2000 625 2376 conicto
983 2752 1606 2752 conicto
1808 2752 2000 2704 conicto
2192 2656 2373 2560 conicto
end_ol grestore 
gsave 26.475489 11.200000 translate 0.035278 -0.035278 scale
start_ol
1667 1344 moveto
1137 1344 933 1225 conicto
729 1106 729 818 conicto
729 589 882 454 conicto
1035 320 1299 320 conicto
1663 320 1882 572 conicto
2102 825 2102 1244 conicto
2102 1344 lineto
1667 1344 lineto
2539 1513 moveto
2539 0 lineto
2102 0 lineto
2102 384 lineto
1952 154 1729 45 conicto
1506 -64 1183 -64 conicto
774 -64 533 162 conicto
292 389 292 769 conicto
292 1213 592 1438 conicto
893 1664 1489 1664 conicto
2102 1664 lineto
2102 1712 lineto
2102 2025 1903 2196 conicto
1705 2368 1347 2368 conicto
1119 2368 903 2320 conicto
687 2272 487 2176 conicto
487 2560 lineto
727 2656 952 2704 conicto
1178 2752 1392 2752 conicto
1969 2752 2254 2444 conicto
2539 2137 2539 1513 conicto
end_ol grestore 
gsave 26.867618 11.200000 translate 0.035278 -0.035278 scale
start_ol
2373 2560 moveto
2373 2176 lineto
2188 2272 2001 2320 conicto
1815 2368 1625 2368 conicto
1199 2368 964 2099 conicto
729 1830 729 1344 conicto
729 858 964 589 conicto
1199 320 1625 320 conicto
1815 320 2001 368 conicto
2188 416 2373 512 conicto
2373 128 lineto
2190 32 1994 -16 conicto
1798 -64 1577 -64 conicto
976 -64 622 316 conicto
268 697 268 1344 conicto
268 2000 625 2376 conicto
983 2752 1606 2752 conicto
1808 2752 2000 2704 conicto
2192 2656 2373 2560 conicto
1736 0 moveto
1866 -151 1930 -278 conicto
1994 -406 1994 -523 conicto
1994 -739 1851 -849 conicto
1709 -960 1429 -960 conicto
1320 -960 1216 -944 conicto
1113 -929 1011 -898 conicto
1011 -576 lineto
1092 -610 1180 -625 conicto
1268 -640 1379 -640 conicto
1519 -640 1590 -583 conicto
1662 -527 1662 -419 conicto
1662 -348 1611 -246 conicto
1560 -144 1453 0 conicto
1736 0 lineto
end_ol grestore 
gsave 27.219787 11.200000 translate 0.035278 -0.035278 scale
start_ol
1667 1344 moveto
1137 1344 933 1225 conicto
729 1106 729 818 conicto
729 589 882 454 conicto
1035 320 1299 320 conicto
1663 320 1882 572 conicto
2102 825 2102 1244 conicto
2102 1344 lineto
1667 1344 lineto
2539 1513 moveto
2539 0 lineto
2102 0 lineto
2102 384 lineto
1952 154 1729 45 conicto
1506 -64 1183 -64 conicto
774 -64 533 162 conicto
292 389 292 769 conicto
292 1213 592 1438 conicto
893 1664 1489 1664 conicto
2102 1664 lineto
2102 1712 lineto
2102 2025 1903 2196 conicto
1705 2368 1347 2368 conicto
1119 2368 903 2320 conicto
687 2272 487 2176 conicto
487 2560 lineto
727 2656 952 2704 conicto
1178 2752 1392 2752 conicto
1969 2752 2254 2444 conicto
2539 2137 2539 1513 conicto
1399 3226 moveto
1263 3364 lineto
1211 3411 1171 3433 conicto
1132 3456 1102 3456 conicto
1011 3456 968 3365 conicto
926 3275 921 3072 conicto
624 3072 lineto
629 3409 750 3592 conicto
871 3776 1088 3776 conicto
1178 3776 1254 3740 conicto
1330 3705 1418 3622 conicto
1553 3484 lineto
1605 3437 1644 3414 conicto
1684 3392 1715 3392 conicto
1805 3392 1847 3482 conicto
1890 3573 1895 3776 conicto
2192 3776 lineto
2187 3439 2066 3255 conicto
1945 3072 1729 3072 conicto
1639 3072 1563 3107 conicto
1487 3143 1399 3226 conicto
end_ol grestore 
gsave 27.611916 11.200000 translate 0.035278 -0.035278 scale
start_ol
1489 2368 moveto
1138 2368 933 2094 conicto
729 1820 729 1344 conicto
729 868 932 594 conicto
1135 320 1489 320 conicto
1838 320 2042 595 conicto
2247 870 2247 1344 conicto
2247 1816 2042 2092 conicto
1838 2368 1489 2368 conicto
1489 2752 moveto
2059 2752 2384 2378 conicto
2710 2005 2710 1344 conicto
2710 685 2384 310 conicto
2059 -64 1489 -64 conicto
917 -64 592 310 conicto
268 685 268 1344 conicto
268 2005 592 2378 conicto
917 2752 1489 2752 conicto
end_ol grestore 
0.100000 slw
[0.200000] 0 sd
[0.200000] 0 sd
0 slc
n 6.975018 18.679128 6.134631 6.134631 350.287407 74.677649 ellipse s
[] 0 sd
0 slj
0 slc
n 12.948420 17.277463 m 13.313802 17.700543 l 13.040726 17.640926 l 12.829186 17.823617 l ef
n 12.948420 17.277463 m 13.313802 17.700543 l 13.040726 17.640926 l 12.829186 17.823617 l cp s
0.100000 slw
[0.200000] 0 sd
[0.200000] 0 sd
0 slc
n 19.292523 15.313391 4.273596 4.273596 278.682736 9.043055 ellipse s
[] 0 sd
0 slj
0 slc
n 19.567122 11.047161 m 20.076287 10.816399 l 19.941850 11.061453 l 20.057231 11.316036 l ef
n 19.567122 11.047161 m 20.076287 10.816399 l 19.941850 11.061453 l 20.057231 11.316036 l cp s
1.000000 1.000000 1.000000 srgb
n 9.682360 10.661354 1.018700 1.036834 0 360 ellipse f
0.130000 slw
[1.000000 0.200000 0.200000 0.200000 0.200000 0.200000] 0 sd
[1.000000 0.200000 0.200000 0.200000 0.200000 0.200000] 0 sd
0 slj
1.000000 0.000000 0.000000 srgb
n 9.682360 10.661354 1.018700 1.036834 0 360 ellipse cp s
0.000000 0.000000 0.000000 srgb
gsave 9.478610 10.856304 translate 0.035278 -0.035278 scale
start_ol
933 384 moveto
2608 384 lineto
2608 0 lineto
356 0 lineto
356 384 lineto
629 668 1100 1146 conicto
1572 1625 1694 1763 conicto
1924 2023 2015 2203 conicto
2107 2384 2107 2558 conicto
2107 2842 1908 3021 conicto
1710 3200 1392 3200 conicto
1166 3200 915 3104 conicto
665 3009 380 2816 conicto
380 3328 lineto
670 3455 921 3519 conicto
1173 3584 1382 3584 conicto
1933 3584 2261 3309 conicto
2589 3034 2589 2574 conicto
2589 2356 2507 2160 conicto
2425 1965 2209 1700 conicto
2149 1631 1831 1302 conicto
1513 974 933 384 conicto
end_ol grestore 
1.000000 1.000000 1.000000 srgb
n 13.848614 5.368813 1.002614 1.061333 0 360 ellipse f
0.130000 slw
[1.000000] 0 sd
[1.000000] 0 sd
0 slj
1.000000 0.647059 0.000000 srgb
n 13.848614 5.368813 1.002614 1.061333 0 360 ellipse cp s
0.000000 0.000000 0.000000 srgb
gsave 13.644864 5.563763 translate 0.035278 -0.035278 scale
start_ol
603 384 moveto
1387 384 lineto
1387 3136 lineto
534 2944 lineto
534 3328 lineto
1382 3520 lineto
1862 3520 lineto
1862 384 lineto
2646 384 lineto
2646 0 lineto
603 0 lineto
603 384 lineto
end_ol grestore 
1.000000 1.000000 1.000000 srgb
n 18.766173 10.616304 1.030973 1.033464 0 360 ellipse f
0.130000 slw
[0.200000] 0 sd
[0.200000] 0 sd
0 slj
0.000000 0.000000 1.000000 srgb
n 18.766173 10.616304 1.030973 1.033464 0 360 ellipse cp s
0.000000 0.000000 0.000000 srgb
gsave 18.562423 10.811304 translate 0.035278 -0.035278 scale
start_ol
1974 1936 moveto
2318 1862 2511 1627 conicto
2705 1392 2705 1046 conicto
2705 516 2344 226 conicto
1983 -64 1318 -64 conicto
1095 -64 859 -16 conicto
623 32 371 128 conicto
371 576 lineto
570 449 807 384 conicto
1045 320 1304 320 conicto
1755 320 1991 504 conicto
2228 688 2228 1039 conicto
2228 1363 2008 1545 conicto
1789 1728 1397 1728 conicto
983 1728 lineto
983 2112 lineto
1416 2112 lineto
1770 2112 1957 2250 conicto
2145 2388 2145 2648 conicto
2145 2915 1951 3057 conicto
1758 3200 1397 3200 conicto
1200 3200 974 3153 conicto
748 3107 477 3008 conicto
477 3456 lineto
750 3520 989 3552 conicto
1228 3584 1439 3584 conicto
1985 3584 2303 3343 conicto
2622 3102 2622 2692 conicto
2622 2406 2453 2209 conicto
2285 2012 1974 1936 conicto
end_ol grestore 
1.000000 1.000000 1.000000 srgb
n 34.518746 5.698901 0.962146 1.028151 0 360 ellipse f
0.130000 slw
[1.000000] 0 sd
[1.000000] 0 sd
0 slj
1.000000 0.647059 0.000000 srgb
n 34.518746 5.698901 0.962146 1.028151 0 360 ellipse cp s
0.000000 0.000000 0.000000 srgb
gsave 34.314996 5.893851 translate 0.035278 -0.035278 scale
start_ol
603 384 moveto
1387 384 lineto
1387 3136 lineto
534 2944 lineto
534 3328 lineto
1382 3520 lineto
1862 3520 lineto
1862 384 lineto
2646 384 lineto
2646 0 lineto
603 0 lineto
603 384 lineto
end_ol grestore 
1.000000 1.000000 1.000000 srgb
n 34.057732 5.346560 1.016432 1.019320 0 360 ellipse f
0.130000 slw
[0.200000] 0 sd
[0.200000] 0 sd
0 slj
0.000000 0.000000 1.000000 srgb
n 34.057732 5.346560 1.016432 1.019320 0 360 ellipse cp s
0.000000 0.000000 0.000000 srgb
gsave 33.853982 5.541560 translate 0.035278 -0.035278 scale
start_ol
603 384 moveto
1387 384 lineto
1387 3136 lineto
534 2944 lineto
534 3328 lineto
1382 3520 lineto
1862 3520 lineto
1862 384 lineto
2646 384 lineto
2646 0 lineto
603 0 lineto
603 384 lineto
end_ol grestore 
1.000000 1.000000 1.000000 srgb
n 30.255391 11.137091 0.978291 1.019591 0 360 ellipse f
0.130000 slw
[1.000000 0.200000 0.200000 0.200000 0.200000 0.200000] 0 sd
[1.000000 0.200000 0.200000 0.200000 0.200000 0.200000] 0 sd
0 slj
1.000000 0.000000 0.000000 srgb
n 30.255391 11.137091 0.978291 1.019591 0 360 ellipse cp s
0.000000 0.000000 0.000000 srgb
gsave 30.051641 11.332041 translate 0.035278 -0.035278 scale
start_ol
933 384 moveto
2608 384 lineto
2608 0 lineto
356 0 lineto
356 384 lineto
629 668 1100 1146 conicto
1572 1625 1694 1763 conicto
1924 2023 2015 2203 conicto
2107 2384 2107 2558 conicto
2107 2842 1908 3021 conicto
1710 3200 1392 3200 conicto
1166 3200 915 3104 conicto
665 3009 380 2816 conicto
380 3328 lineto
670 3455 921 3519 conicto
1173 3584 1382 3584 conicto
1933 3584 2261 3309 conicto
2589 3034 2589 2574 conicto
2589 2356 2507 2160 conicto
2425 1965 2209 1700 conicto
2149 1631 1831 1302 conicto
1513 974 933 384 conicto
end_ol grestore 
1.000000 1.000000 1.000000 srgb
n 7.142028 15.886308 1.007208 1.042008 0 360 ellipse f
0.130000 slw
[1.000000 0.400000 0.200000 0.400000] 0 sd
[1.000000 0.400000 0.200000 0.400000] 0 sd
0 slj
0.545098 0.411765 0.078431 srgb
n 7.142028 15.886308 1.007208 1.042008 0 360 ellipse cp s
0.000000 0.000000 0.000000 srgb
gsave 6.938278 16.081258 translate 0.035278 -0.035278 scale
start_ol
1838 3103 moveto
627 1216 lineto
1838 1216 lineto
1838 3103 lineto
1713 3520 moveto
2316 3520 lineto
2316 1216 lineto
2822 1216 lineto
2822 832 lineto
2316 832 lineto
2316 0 lineto
1838 0 lineto
1838 832 lineto
238 832 lineto
238 1291 lineto
1713 3520 lineto
end_ol grestore 
1.000000 1.000000 1.000000 srgb
n 31.097992 20.623108 1.042792 1.071108 0 360 ellipse f
0.130000 slw
[1.000000] 0 sd
[1.000000] 0 sd
0 slj
1.000000 0.647059 0.000000 srgb
n 31.097992 20.623108 1.042792 1.071108 0 360 ellipse cp s
0.000000 0.000000 0.000000 srgb
gsave 30.894242 20.818058 translate 0.035278 -0.035278 scale
start_ol
1546 1664 moveto
1204 1664 1008 1485 conicto
812 1306 812 992 conicto
812 678 1008 499 conicto
1204 320 1546 320 conicto
1888 320 2085 500 conicto
2282 680 2282 992 conicto
2282 1306 2086 1485 conicto
1890 1664 1546 1664 conicto
1066 1872 moveto
757 1948 585 2158 conicto
413 2368 413 2670 conicto
413 3093 716 3338 conicto
1019 3584 1546 3584 conicto
2076 3584 2377 3338 conicto
2679 3093 2679 2670 conicto
2679 2368 2506 2158 conicto
2334 1948 2028 1872 conicto
2375 1792 2568 1559 conicto
2762 1327 2762 991 conicto
2762 481 2447 208 conicto
2133 -64 1546 -64 conicto
959 -64 644 208 conicto
330 481 330 991 conicto
330 1327 524 1559 conicto
719 1792 1066 1872 conicto
891 2624 moveto
891 2352 1063 2200 conicto
1235 2048 1546 2048 conicto
1855 2048 2029 2200 conicto
2204 2352 2204 2624 conicto
2204 2896 2029 3048 conicto
1855 3200 1546 3200 conicto
1235 3200 1063 3048 conicto
891 2896 891 2624 conicto
end_ol grestore 
1.000000 1.000000 1.000000 srgb
n 31.486992 21.077008 1.042792 1.071108 0 360 ellipse f
0.130000 slw
[1.000000 0.400000 0.200000 0.400000] 0 sd
[1.000000 0.400000 0.200000 0.400000] 0 sd
0 slj
0.545098 0.411765 0.078431 srgb
n 31.486992 21.077008 1.042792 1.071108 0 360 ellipse cp s
0.000000 0.000000 0.000000 srgb
gsave 31.283242 21.271958 translate 0.035278 -0.035278 scale
start_ol
1546 1664 moveto
1204 1664 1008 1485 conicto
812 1306 812 992 conicto
812 678 1008 499 conicto
1204 320 1546 320 conicto
1888 320 2085 500 conicto
2282 680 2282 992 conicto
2282 1306 2086 1485 conicto
1890 1664 1546 1664 conicto
1066 1872 moveto
757 1948 585 2158 conicto
413 2368 413 2670 conicto
413 3093 716 3338 conicto
1019 3584 1546 3584 conicto
2076 3584 2377 3338 conicto
2679 3093 2679 2670 conicto
2679 2368 2506 2158 conicto
2334 1948 2028 1872 conicto
2375 1792 2568 1559 conicto
2762 1327 2762 991 conicto
2762 481 2447 208 conicto
2133 -64 1546 -64 conicto
959 -64 644 208 conicto
330 481 330 991 conicto
330 1327 524 1559 conicto
719 1792 1066 1872 conicto
891 2624 moveto
891 2352 1063 2200 conicto
1235 2048 1546 2048 conicto
1855 2048 2029 2200 conicto
2204 2352 2204 2624 conicto
2204 2896 2029 3048 conicto
1855 3200 1546 3200 conicto
1235 3200 1063 3048 conicto
891 2896 891 2624 conicto
end_ol grestore 
1.000000 1.000000 1.000000 srgb
n 13.641113 15.963440 0.996013 1.015240 0 360 ellipse f
0.130000 slw
[0.200000] 0 sd
[0.200000] 0 sd
0 slj
0.000000 0.000000 1.000000 srgb
n 13.641113 15.963440 0.996013 1.015240 0 360 ellipse cp s
0.000000 0.000000 0.000000 srgb
gsave 13.437363 16.158440 translate 0.035278 -0.035278 scale
start_ol
525 3520 moveto
2408 3520 lineto
2408 3136 lineto
964 3136 lineto
964 2300 lineto
1069 2334 1173 2351 conicto
1278 2368 1382 2368 conicto
1976 2368 2323 2040 conicto
2670 1712 2670 1152 conicto
2670 575 2313 255 conicto
1957 -64 1309 -64 conicto
1085 -64 853 -32 conicto
622 0 375 64 conicto
375 576 lineto
589 447 817 383 conicto
1045 320 1299 320 conicto
1710 320 1950 544 conicto
2190 768 2190 1152 conicto
2190 1536 1950 1760 conicto
1710 1984 1299 1984 conicto
1107 1984 916 1937 conicto
725 1891 525 1792 conicto
525 3520 lineto
end_ol grestore 
1.000000 1.000000 1.000000 srgb
n 27.756308 16.374308 1.007208 1.042008 0 360 ellipse f
0.130000 slw
[1.000000 0.400000 0.200000 0.400000] 0 sd
[1.000000 0.400000 0.200000 0.400000] 0 sd
0 slj
0.545098 0.411765 0.078431 srgb
n 27.756308 16.374308 1.007208 1.042008 0 360 ellipse cp s
0.000000 0.000000 0.000000 srgb
gsave 27.552558 16.569258 translate 0.035278 -0.035278 scale
start_ol
1838 3103 moveto
627 1216 lineto
1838 1216 lineto
1838 3103 lineto
1713 3520 moveto
2316 3520 lineto
2316 1216 lineto
2822 1216 lineto
2822 832 lineto
2316 832 lineto
2316 0 lineto
1838 0 lineto
1838 832 lineto
238 832 lineto
238 1291 lineto
1713 3520 lineto
end_ol grestore 
1.000000 1.000000 1.000000 srgb
n 34.330869 16.415922 1.064869 1.030922 0 360 ellipse f
0.130000 slw
[0.200000] 0 sd
[0.200000] 0 sd
0 slj
0.000000 0.000000 1.000000 srgb
n 34.330869 16.415922 1.064869 1.030922 0 360 ellipse cp s
0.000000 0.000000 0.000000 srgb
gsave 34.127119 16.610922 translate 0.035278 -0.035278 scale
start_ol
525 3520 moveto
2408 3520 lineto
2408 3136 lineto
964 3136 lineto
964 2300 lineto
1069 2334 1173 2351 conicto
1278 2368 1382 2368 conicto
1976 2368 2323 2040 conicto
2670 1712 2670 1152 conicto
2670 575 2313 255 conicto
1957 -64 1309 -64 conicto
1085 -64 853 -32 conicto
622 0 375 64 conicto
375 576 lineto
589 447 817 383 conicto
1045 320 1299 320 conicto
1710 320 1950 544 conicto
2190 768 2190 1152 conicto
2190 1536 1950 1760 conicto
1710 1984 1299 1984 conicto
1107 1984 916 1937 conicto
725 1891 525 1792 conicto
525 3520 lineto
end_ol grestore 
1.000000 1.000000 1.000000 srgb
n 34.756622 16.246952 1.059622 0.988052 0 360 ellipse f
0.100000 slw
[1.000000 0.400000 0.200000 0.400000] 0 sd
[1.000000 0.400000 0.200000 0.400000] 0 sd
0 slj
0.545098 0.411765 0.078431 srgb
n 34.756622 16.246952 1.059622 0.988052 0 360 ellipse cp s
0.000000 0.000000 0.000000 srgb
gsave 34.552872 16.441902 translate 0.035278 -0.035278 scale
start_ol
525 3520 moveto
2408 3520 lineto
2408 3136 lineto
964 3136 lineto
964 2300 lineto
1069 2334 1173 2351 conicto
1278 2368 1382 2368 conicto
1976 2368 2323 2040 conicto
2670 1712 2670 1152 conicto
2670 575 2313 255 conicto
1957 -64 1309 -64 conicto
1085 -64 853 -32 conicto
622 0 375 64 conicto
375 576 lineto
589 447 817 383 conicto
1045 320 1299 320 conicto
1710 320 1950 544 conicto
2190 768 2190 1152 conicto
2190 1536 1950 1760 conicto
1710 1984 1299 1984 conicto
1107 1984 916 1937 conicto
725 1891 525 1792 conicto
525 3520 lineto
end_ol grestore 
1.000000 1.000000 1.000000 srgb
n 39.439341 11.220646 1.085941 1.049146 0 360 ellipse f
0.130000 slw
[0.200000] 0 sd
[0.200000] 0 sd
0 slj
0.000000 0.000000 1.000000 srgb
n 39.439341 11.220646 1.085941 1.049146 0 360 ellipse cp s
0.000000 0.000000 0.000000 srgb
gsave 39.235591 11.415646 translate 0.035278 -0.035278 scale
start_ol
1974 1936 moveto
2318 1862 2511 1627 conicto
2705 1392 2705 1046 conicto
2705 516 2344 226 conicto
1983 -64 1318 -64 conicto
1095 -64 859 -16 conicto
623 32 371 128 conicto
371 576 lineto
570 449 807 384 conicto
1045 320 1304 320 conicto
1755 320 1991 504 conicto
2228 688 2228 1039 conicto
2228 1363 2008 1545 conicto
1789 1728 1397 1728 conicto
983 1728 lineto
983 2112 lineto
1416 2112 lineto
1770 2112 1957 2250 conicto
2145 2388 2145 2648 conicto
2145 2915 1951 3057 conicto
1758 3200 1397 3200 conicto
1200 3200 974 3153 conicto
748 3107 477 3008 conicto
477 3456 lineto
750 3520 989 3552 conicto
1228 3584 1439 3584 conicto
1985 3584 2303 3343 conicto
2622 3102 2622 2692 conicto
2622 2406 2453 2209 conicto
2285 2012 1974 1936 conicto
end_ol grestore 
1.000000 1.000000 1.000000 srgb
n 39.876892 11.048598 1.042792 1.071108 0 360 ellipse f
0.130000 slw
[1.000000] 0 sd
[1.000000] 0 sd
0 slj
1.000000 0.647059 0.000000 srgb
n 39.876892 11.048598 1.042792 1.071108 0 360 ellipse cp s
0.000000 0.000000 0.000000 srgb
gsave 39.673142 11.243548 translate 0.035278 -0.035278 scale
start_ol
1974 1936 moveto
2318 1862 2511 1627 conicto
2705 1392 2705 1046 conicto
2705 516 2344 226 conicto
1983 -64 1318 -64 conicto
1095 -64 859 -16 conicto
623 32 371 128 conicto
371 576 lineto
570 449 807 384 conicto
1045 320 1304 320 conicto
1755 320 1991 504 conicto
2228 688 2228 1039 conicto
2228 1363 2008 1545 conicto
1789 1728 1397 1728 conicto
983 1728 lineto
983 2112 lineto
1416 2112 lineto
1770 2112 1957 2250 conicto
2145 2388 2145 2648 conicto
2145 2915 1951 3057 conicto
1758 3200 1397 3200 conicto
1200 3200 974 3153 conicto
748 3107 477 3008 conicto
477 3456 lineto
750 3520 989 3552 conicto
1228 3584 1439 3584 conicto
1985 3584 2303 3343 conicto
2622 3102 2622 2692 conicto
2622 2406 2453 2209 conicto
2285 2012 1974 1936 conicto
end_ol grestore 
1.000000 1.000000 1.000000 srgb
n 40.464692 10.884598 1.042792 1.071108 0 360 ellipse f
0.130000 slw
[1.000000 0.200000 0.200000 0.200000 0.200000 0.200000] 0 sd
[1.000000 0.200000 0.200000 0.200000 0.200000 0.200000] 0 sd
0 slj
1.000000 0.000000 0.000000 srgb
n 40.464692 10.884598 1.042792 1.071108 0 360 ellipse cp s
0.000000 0.000000 0.000000 srgb
gsave 40.260942 11.079548 translate 0.035278 -0.035278 scale
start_ol
1974 1936 moveto
2318 1862 2511 1627 conicto
2705 1392 2705 1046 conicto
2705 516 2344 226 conicto
1983 -64 1318 -64 conicto
1095 -64 859 -16 conicto
623 32 371 128 conicto
371 576 lineto
570 449 807 384 conicto
1045 320 1304 320 conicto
1755 320 1991 504 conicto
2228 688 2228 1039 conicto
2228 1363 2008 1545 conicto
1789 1728 1397 1728 conicto
983 1728 lineto
983 2112 lineto
1416 2112 lineto
1770 2112 1957 2250 conicto
2145 2388 2145 2648 conicto
2145 2915 1951 3057 conicto
1758 3200 1397 3200 conicto
1200 3200 974 3153 conicto
748 3107 477 3008 conicto
477 3456 lineto
750 3520 989 3552 conicto
1228 3584 1439 3584 conicto
1985 3584 2303 3343 conicto
2622 3102 2622 2692 conicto
2622 2406 2453 2209 conicto
2285 2012 1974 1936 conicto
end_ol grestore 
showpage
