%!PS-Adobe-2.0 EPSF-2.0
%%Title: /home/denivyruck/UDESC/TCC/Imagens/scenario.dia
%%Creator: Dia v0.97.3
%%CreationDate: Sun Oct 23 21:39:46 2016
%%For: denivyruck
%%Orientation: Portrait
%%Magnification: 1.0000
%%BoundingBox: 0 0 1276 241
%%BeginSetup
%%EndSetup
%%EndComments
%%BeginProlog
[ /.notdef /.notdef /.notdef /.notdef /.notdef /.notdef /.notdef /.notdef /.notdef /.notdef
/.notdef /.notdef /.notdef /.notdef /.notdef /.notdef /.notdef /.notdef /.notdef /.notdef
/.notdef /.notdef /.notdef /.notdef /.notdef /.notdef /.notdef /.notdef /.notdef /.notdef
/.notdef /.notdef /space /exclam /quotedbl /numbersign /dollar /percent /ampersand /quoteright
/parenleft /parenright /asterisk /plus /comma /hyphen /period /slash /zero /one
/two /three /four /five /six /seven /eight /nine /colon /semicolon
/less /equal /greater /question /at /A /B /C /D /E
/F /G /H /I /J /K /L /M /N /O
/P /Q /R /S /T /U /V /W /X /Y
/Z /bracketleft /backslash /bracketright /asciicircum /underscore /quoteleft /a /b /c
/d /e /f /g /h /i /j /k /l /m
/n /o /p /q /r /s /t /u /v /w
/x /y /z /braceleft /bar /braceright /asciitilde /.notdef /.notdef /.notdef
/.notdef /.notdef /.notdef /.notdef /.notdef /.notdef /.notdef /.notdef /.notdef /.notdef
/.notdef /.notdef /.notdef /.notdef /.notdef /.notdef /.notdef /.notdef /.notdef /.notdef
/.notdef /.notdef /.notdef /.notdef /.notdef /.notdef /.notdef /.notdef /.notdef /.notdef
/space /exclamdown /cent /sterling /currency /yen /brokenbar /section /dieresis /copyright
/ordfeminine /guillemotleft /logicalnot /hyphen /registered /macron /degree /plusminus /twosuperior /threesuperior
/acute /mu /paragraph /periodcentered /cedilla /onesuperior /ordmasculine /guillemotright /onequarter /onehalf
/threequarters /questiondown /Agrave /Aacute /Acircumflex /Atilde /Adieresis /Aring /AE /Ccedilla
/Egrave /Eacute /Ecircumflex /Edieresis /Igrave /Iacute /Icircumflex /Idieresis /Eth /Ntilde
/Ograve /Oacute /Ocircumflex /Otilde /Odieresis /multiply /Oslash /Ugrave /Uacute /Ucircumflex
/Udieresis /Yacute /Thorn /germandbls /agrave /aacute /acircumflex /atilde /adieresis /aring
/ae /ccedilla /egrave /eacute /ecircumflex /edieresis /igrave /iacute /icircumflex /idieresis
/eth /ntilde /ograve /oacute /ocircumflex /otilde /odieresis /divide /oslash /ugrave
/uacute /ucircumflex /udieresis /yacute /thorn /ydieresis] /isolatin1encoding exch def
/cp {closepath} bind def
/c {curveto} bind def
/f {fill} bind def
/a {arc} bind def
/ef {eofill} bind def
/ex {exch} bind def
/gr {grestore} bind def
/gs {gsave} bind def
/sa {save} bind def
/rs {restore} bind def
/l {lineto} bind def
/m {moveto} bind def
/rm {rmoveto} bind def
/n {newpath} bind def
/s {stroke} bind def
/sh {show} bind def
/slc {setlinecap} bind def
/slj {setlinejoin} bind def
/slw {setlinewidth} bind def
/srgb {setrgbcolor} bind def
/rot {rotate} bind def
/sc {scale} bind def
/sd {setdash} bind def
/ff {findfont} bind def
/sf {setfont} bind def
/scf {scalefont} bind def
/sw {stringwidth pop} bind def
/tr {translate} bind def

/ellipsedict 8 dict def
ellipsedict /mtrx matrix put
/ellipse
{ ellipsedict begin
   /endangle exch def
   /startangle exch def
   /yrad exch def
   /xrad exch def
   /y exch def
   /x exch def   /savematrix mtrx currentmatrix def
   x y tr xrad yrad sc
   0 0 1 startangle endangle arc
   savematrix setmatrix
   end
} def

/mergeprocs {
dup length
3 -1 roll
dup
length
dup
5 1 roll
3 -1 roll
add
array cvx
dup
3 -1 roll
0 exch
putinterval
dup
4 2 roll
putinterval
} bind def
/dpi_x 300 def
/dpi_y 300 def
/conicto {
    /to_y exch def
    /to_x exch def
    /conic_cntrl_y exch def
    /conic_cntrl_x exch def
    currentpoint
    /p0_y exch def
    /p0_x exch def
    /p1_x p0_x conic_cntrl_x p0_x sub 2 3 div mul add def
    /p1_y p0_y conic_cntrl_y p0_y sub 2 3 div mul add def
    /p2_x p1_x to_x p0_x sub 1 3 div mul add def
    /p2_y p1_y to_y p0_y sub 1 3 div mul add def
    p1_x p1_y p2_x p2_y to_x to_y curveto
} bind def
/start_ol { gsave 1.1 dpi_x div dup scale} bind def
/end_ol { closepath fill grestore } bind def
28.346000 -28.346000 scale
-6.896250 -21.091900 translate
%%EndProlog


[] 0 sd
0 slj
0.050000 slw
0.000000 0.000000 0.000000 srgb
n 8.100000 17.400000 m 8.100000 17.733333 l s
n 10.140000 17.400000 m 10.140000 17.733333 l s
n 12.180000 17.400000 m 12.180000 17.733333 l s
n 14.220000 17.400000 m 14.220000 17.733333 l s
n 16.260000 17.400000 m 16.260000 17.733333 l s
n 18.300000 17.400000 m 18.300000 17.733333 l s
n 20.340000 17.400000 m 20.340000 17.733333 l s
n 22.380000 17.400000 m 22.380000 17.733333 l s
n 24.420000 17.400000 m 24.420000 17.733333 l s
n 26.460000 17.400000 m 26.460000 17.733333 l s
n 28.500000 17.400000 m 28.500000 17.733333 l s
n 30.540000 17.400000 m 30.540000 17.733333 l s
n 32.580000 17.400000 m 32.580000 17.733333 l s
n 34.620000 17.400000 m 34.620000 17.733333 l s
n 36.660000 17.400000 m 36.660000 17.733333 l s
n 38.700000 17.400000 m 38.700000 17.733333 l s
n 40.740000 17.400000 m 40.740000 17.733333 l s
n 42.780000 17.400000 m 42.780000 17.733333 l s
n 44.820000 17.400000 m 44.820000 17.733333 l s
n 46.860000 17.400000 m 46.860000 17.733333 l s
n 48.900000 17.400000 m 48.900000 17.733333 l s
0.100000 slw
n 8.100000 17.400000 m 8.100000 18.400000 l s
gsave 7.845000 19.150000 translate 0.035278 -0.035278 scale
start_ol
1913 4096 moveto
1454 4096 1223 3632 conicto
993 3169 993 2238 conicto
993 1311 1223 847 conicto
1454 384 1913 384 conicto
2374 384 2604 847 conicto
2835 1311 2835 2238 conicto
2835 3169 2604 3632 conicto
2374 4096 1913 4096 conicto
1912 4544 moveto
2650 4544 3039 3953 conicto
3428 3363 3428 2239 conicto
3428 1117 3039 526 conicto
2650 -64 1912 -64 conicto
1175 -64 786 526 conicto
397 1117 397 2239 conicto
397 3363 786 3953 conicto
1175 4544 1912 4544 conicto
end_ol grestore 
n 18.300000 17.400000 m 18.300000 18.400000 l s
gsave 18.045000 19.150000 translate 0.035278 -0.035278 scale
start_ol
649 4416 moveto
2979 4416 lineto
2979 3968 lineto
1193 3968 lineto
1193 2801 lineto
1322 2840 1451 2860 conicto
1581 2880 1710 2880 conicto
2444 2880 2873 2483 conicto
3302 2086 3302 1408 conicto
3302 710 2861 323 conicto
2421 -64 1619 -64 conicto
1342 -64 1056 -16 conicto
770 32 464 128 conicto
464 704 lineto
728 542 1010 463 conicto
1292 384 1607 384 conicto
2115 384 2411 659 conicto
2708 935 2708 1408 conicto
2708 1881 2411 2156 conicto
2115 2432 1607 2432 conicto
1369 2432 1132 2385 conicto
896 2339 649 2240 conicto
649 4416 lineto
end_ol grestore 
n 28.500000 17.400000 m 28.500000 18.400000 l s
gsave 27.990000 19.150000 translate 0.035278 -0.035278 scale
start_ol
746 448 moveto
1716 448 lineto
1716 3968 lineto
661 3776 lineto
661 4224 lineto
1710 4416 lineto
2303 4416 lineto
2303 448 lineto
3272 448 lineto
3272 0 lineto
746 0 lineto
746 448 lineto
end_ol grestore 
gsave 28.499521 19.150000 translate 0.035278 -0.035278 scale
start_ol
1913 4096 moveto
1454 4096 1223 3632 conicto
993 3169 993 2238 conicto
993 1311 1223 847 conicto
1454 384 1913 384 conicto
2374 384 2604 847 conicto
2835 1311 2835 2238 conicto
2835 3169 2604 3632 conicto
2374 4096 1913 4096 conicto
1912 4544 moveto
2650 4544 3039 3953 conicto
3428 3363 3428 2239 conicto
3428 1117 3039 526 conicto
2650 -64 1912 -64 conicto
1175 -64 786 526 conicto
397 1117 397 2239 conicto
397 3363 786 3953 conicto
1175 4544 1912 4544 conicto
end_ol grestore 
n 38.700000 17.400000 m 38.700000 18.400000 l s
gsave 38.190000 19.150000 translate 0.035278 -0.035278 scale
start_ol
746 448 moveto
1716 448 lineto
1716 3968 lineto
661 3776 lineto
661 4224 lineto
1710 4416 lineto
2303 4416 lineto
2303 448 lineto
3272 448 lineto
3272 0 lineto
746 0 lineto
746 448 lineto
end_ol grestore 
gsave 38.699521 19.150000 translate 0.035278 -0.035278 scale
start_ol
649 4416 moveto
2979 4416 lineto
2979 3968 lineto
1193 3968 lineto
1193 2801 lineto
1322 2840 1451 2860 conicto
1581 2880 1710 2880 conicto
2444 2880 2873 2483 conicto
3302 2086 3302 1408 conicto
3302 710 2861 323 conicto
2421 -64 1619 -64 conicto
1342 -64 1056 -16 conicto
770 32 464 128 conicto
464 704 lineto
728 542 1010 463 conicto
1292 384 1607 384 conicto
2115 384 2411 659 conicto
2708 935 2708 1408 conicto
2708 1881 2411 2156 conicto
2115 2432 1607 2432 conicto
1369 2432 1132 2385 conicto
896 2339 649 2240 conicto
649 4416 lineto
end_ol grestore 
n 48.900000 17.400000 m 48.900000 18.400000 l s
gsave 48.390000 19.150000 translate 0.035278 -0.035278 scale
start_ol
1154 448 moveto
3225 448 lineto
3225 0 lineto
441 0 lineto
441 448 lineto
779 816 1362 1436 conicto
1945 2056 2095 2235 conicto
2380 2572 2493 2805 conicto
2606 3039 2606 3264 conicto
2606 3632 2360 3864 conicto
2115 4096 1722 4096 conicto
1443 4096 1133 3969 conicto
823 3842 470 3584 conicto
470 4224 lineto
828 4382 1139 4463 conicto
1451 4544 1710 4544 conicto
2391 4544 2796 4192 conicto
3202 3840 3202 3251 conicto
3202 2972 3100 2722 conicto
2999 2472 2732 2132 conicto
2658 2044 2264 1623 conicto
1871 1203 1154 448 conicto
end_ol grestore 
gsave 48.899521 19.150000 translate 0.035278 -0.035278 scale
start_ol
1913 4096 moveto
1454 4096 1223 3632 conicto
993 3169 993 2238 conicto
993 1311 1223 847 conicto
1454 384 1913 384 conicto
2374 384 2604 847 conicto
2835 1311 2835 2238 conicto
2835 3169 2604 3632 conicto
2374 4096 1913 4096 conicto
1912 4544 moveto
2650 4544 3039 3953 conicto
3428 3363 3428 2239 conicto
3428 1117 3039 526 conicto
2650 -64 1912 -64 conicto
1175 -64 786 526 conicto
397 1117 397 2239 conicto
397 3363 786 3953 conicto
1175 4544 1912 4544 conicto
end_ol grestore 
n 8.100000 17.400000 m 48.900000 17.400000 l s
0.100000 slw
[] 0 sd
[] 0 sd
0 slc
0 slj
0.100000 slw
0 slc
0 slj
[] 0 sd
0.000000 0.000000 1.000000 srgb
n 7.600000 15.425000 m 7.600000 16.400000 l 8.575000 16.400000 l 8.575000 15.425000 l f
0.000000 0.000000 0.000000 srgb
n 7.600000 15.425000 m 7.600000 16.400000 l 8.575000 16.400000 l 8.575000 15.425000 l cp s
0 slc
0 slj
[] 0 sd
n 8.087500 15.571250 m 8.087500 16.253750 l s
0 slc
0 slj
[] 0 sd
n 7.746250 15.912500 m 8.428750 15.912500 l s
0.100000 slw
[] 0 sd
[] 0 sd
0 slc
0 slj
0.100000 slw
0 slc
0 slj
[] 0 sd
1.000000 0.000000 0.000000 srgb
n 15.815000 15.480000 m 15.815000 16.389375 l 16.724375 16.389375 l 16.724375 15.480000 l f
0.000000 0.000000 0.000000 srgb
n 15.815000 15.480000 m 15.815000 16.389375 l 16.724375 16.389375 l 16.724375 15.480000 l cp s
0 slc
0 slj
[] 0 sd
n 15.951406 15.934687 m 16.587969 15.934687 l s
0.100000 slw
[] 0 sd
[] 0 sd
0 slc
0 slj
0.100000 slw
0 slc
0 slj
[] 0 sd
1.000000 0.000000 0.000000 srgb
n 9.705000 15.460000 m 9.705000 16.369375 l 10.614375 16.369375 l 10.614375 15.460000 l f
0.000000 0.000000 0.000000 srgb
n 9.705000 15.460000 m 9.705000 16.369375 l 10.614375 16.369375 l 10.614375 15.460000 l cp s
0 slc
0 slj
[] 0 sd
n 9.841406 15.914687 m 10.477969 15.914687 l s
0.100000 slw
[] 0 sd
[] 0 sd
0 slc
0 slj
0.100000 slw
0 slc
0 slj
[] 0 sd
1.000000 0.000000 0.000000 srgb
n 11.665000 15.430000 m 11.665000 16.339375 l 12.574375 16.339375 l 12.574375 15.430000 l f
0.000000 0.000000 0.000000 srgb
n 11.665000 15.430000 m 11.665000 16.339375 l 12.574375 16.339375 l 12.574375 15.430000 l cp s
0 slc
0 slj
[] 0 sd
n 11.801406 15.884687 m 12.437969 15.884687 l s
0.100000 slw
[] 0 sd
[] 0 sd
0 slc
0 slj
0.100000 slw
0 slc
0 slj
[] 0 sd
1.000000 0.000000 0.000000 srgb
n 13.770000 15.440000 m 13.770000 16.349375 l 14.679375 16.349375 l 14.679375 15.440000 l f
0.000000 0.000000 0.000000 srgb
n 13.770000 15.440000 m 13.770000 16.349375 l 14.679375 16.349375 l 14.679375 15.440000 l cp s
0 slc
0 slj
[] 0 sd
n 13.906406 15.894687 m 14.542969 15.894687 l s
0.100000 slw
[] 0 sd
[] 0 sd
0 slc
0 slj
0.100000 slw
0 slc
0 slj
[] 0 sd
0.000000 0.000000 1.000000 srgb
n 17.755000 15.510000 m 17.755000 16.485000 l 18.730000 16.485000 l 18.730000 15.510000 l f
0.000000 0.000000 0.000000 srgb
n 17.755000 15.510000 m 17.755000 16.485000 l 18.730000 16.485000 l 18.730000 15.510000 l cp s
0 slc
0 slj
[] 0 sd
n 18.242500 15.656250 m 18.242500 16.338750 l s
0 slc
0 slj
[] 0 sd
n 17.901250 15.997500 m 18.583750 15.997500 l s
0.100000 slw
[] 0 sd
[] 0 sd
0 slc
0 slj
0.100000 slw
0 slc
0 slj
[] 0 sd
1.000000 0.000000 0.000000 srgb
n 25.970000 15.565000 m 25.970000 16.474375 l 26.879375 16.474375 l 26.879375 15.565000 l f
0.000000 0.000000 0.000000 srgb
n 25.970000 15.565000 m 25.970000 16.474375 l 26.879375 16.474375 l 26.879375 15.565000 l cp s
0 slc
0 slj
[] 0 sd
n 26.106406 16.019687 m 26.742969 16.019687 l s
0.100000 slw
[] 0 sd
[] 0 sd
0 slc
0 slj
0.100000 slw
0 slc
0 slj
[] 0 sd
1.000000 0.000000 0.000000 srgb
n 19.860000 15.545000 m 19.860000 16.454375 l 20.769375 16.454375 l 20.769375 15.545000 l f
0.000000 0.000000 0.000000 srgb
n 19.860000 15.545000 m 19.860000 16.454375 l 20.769375 16.454375 l 20.769375 15.545000 l cp s
0 slc
0 slj
[] 0 sd
n 19.996406 15.999688 m 20.632969 15.999688 l s
0.100000 slw
[] 0 sd
[] 0 sd
0 slc
0 slj
0.100000 slw
0 slc
0 slj
[] 0 sd
1.000000 0.000000 0.000000 srgb
n 21.820000 15.515000 m 21.820000 16.424375 l 22.729375 16.424375 l 22.729375 15.515000 l f
0.000000 0.000000 0.000000 srgb
n 21.820000 15.515000 m 21.820000 16.424375 l 22.729375 16.424375 l 22.729375 15.515000 l cp s
0 slc
0 slj
[] 0 sd
n 21.956406 15.969687 m 22.592969 15.969687 l s
0.100000 slw
[] 0 sd
[] 0 sd
0 slc
0 slj
0.100000 slw
0 slc
0 slj
[] 0 sd
1.000000 0.000000 0.000000 srgb
n 23.925000 15.525000 m 23.925000 16.434375 l 24.834375 16.434375 l 24.834375 15.525000 l f
0.000000 0.000000 0.000000 srgb
n 23.925000 15.525000 m 23.925000 16.434375 l 24.834375 16.434375 l 24.834375 15.525000 l cp s
0 slc
0 slj
[] 0 sd
n 24.061406 15.979688 m 24.697969 15.979688 l s
0.100000 slw
[] 0 sd
[] 0 sd
0 slc
0 slj
0.100000 slw
0 slc
0 slj
[] 0 sd
0.000000 0.000000 1.000000 srgb
n 28.010000 15.520000 m 28.010000 16.495000 l 28.985000 16.495000 l 28.985000 15.520000 l f
0.000000 0.000000 0.000000 srgb
n 28.010000 15.520000 m 28.010000 16.495000 l 28.985000 16.495000 l 28.985000 15.520000 l cp s
0 slc
0 slj
[] 0 sd
n 28.497500 15.666250 m 28.497500 16.348750 l s
0 slc
0 slj
[] 0 sd
n 28.156250 16.007500 m 28.838750 16.007500 l s
0.100000 slw
[] 0 sd
[] 0 sd
0 slc
0 slj
0.100000 slw
0 slc
0 slj
[] 0 sd
1.000000 0.000000 0.000000 srgb
n 36.225000 15.575000 m 36.225000 16.484375 l 37.134375 16.484375 l 37.134375 15.575000 l f
0.000000 0.000000 0.000000 srgb
n 36.225000 15.575000 m 36.225000 16.484375 l 37.134375 16.484375 l 37.134375 15.575000 l cp s
0 slc
0 slj
[] 0 sd
n 36.361406 16.029687 m 36.997969 16.029687 l s
0.100000 slw
[] 0 sd
[] 0 sd
0 slc
0 slj
0.100000 slw
0 slc
0 slj
[] 0 sd
1.000000 0.000000 0.000000 srgb
n 30.115000 15.555000 m 30.115000 16.464375 l 31.024375 16.464375 l 31.024375 15.555000 l f
0.000000 0.000000 0.000000 srgb
n 30.115000 15.555000 m 30.115000 16.464375 l 31.024375 16.464375 l 31.024375 15.555000 l cp s
0 slc
0 slj
[] 0 sd
n 30.251406 16.009687 m 30.887969 16.009687 l s
0.100000 slw
[] 0 sd
[] 0 sd
0 slc
0 slj
0.100000 slw
0 slc
0 slj
[] 0 sd
1.000000 0.000000 0.000000 srgb
n 32.075000 15.525000 m 32.075000 16.434375 l 32.984375 16.434375 l 32.984375 15.525000 l f
0.000000 0.000000 0.000000 srgb
n 32.075000 15.525000 m 32.075000 16.434375 l 32.984375 16.434375 l 32.984375 15.525000 l cp s
0 slc
0 slj
[] 0 sd
n 32.211406 15.979688 m 32.847969 15.979688 l s
0.100000 slw
[] 0 sd
[] 0 sd
0 slc
0 slj
0.100000 slw
0 slc
0 slj
[] 0 sd
1.000000 0.000000 0.000000 srgb
n 34.180000 15.535000 m 34.180000 16.444375 l 35.089375 16.444375 l 35.089375 15.535000 l f
0.000000 0.000000 0.000000 srgb
n 34.180000 15.535000 m 34.180000 16.444375 l 35.089375 16.444375 l 35.089375 15.535000 l cp s
0 slc
0 slj
[] 0 sd
n 34.316406 15.989687 m 34.952969 15.989687 l s
0.100000 slw
[] 0 sd
[] 0 sd
0 slc
0 slj
0.100000 slw
0 slc
0 slj
[] 0 sd
0.000000 0.000000 1.000000 srgb
n 38.215000 15.580000 m 38.215000 16.555000 l 39.190000 16.555000 l 39.190000 15.580000 l f
0.000000 0.000000 0.000000 srgb
n 38.215000 15.580000 m 38.215000 16.555000 l 39.190000 16.555000 l 39.190000 15.580000 l cp s
0 slc
0 slj
[] 0 sd
n 38.702500 15.726250 m 38.702500 16.408750 l s
0 slc
0 slj
[] 0 sd
n 38.361250 16.067500 m 39.043750 16.067500 l s
0.100000 slw
[] 0 sd
[] 0 sd
0 slc
0 slj
0.100000 slw
0 slc
0 slj
[] 0 sd
1.000000 0.000000 0.000000 srgb
n 46.430000 15.635000 m 46.430000 16.544375 l 47.339375 16.544375 l 47.339375 15.635000 l f
0.000000 0.000000 0.000000 srgb
n 46.430000 15.635000 m 46.430000 16.544375 l 47.339375 16.544375 l 47.339375 15.635000 l cp s
0 slc
0 slj
[] 0 sd
n 46.566406 16.089688 m 47.202969 16.089688 l s
0.100000 slw
[] 0 sd
[] 0 sd
0 slc
0 slj
0.100000 slw
0 slc
0 slj
[] 0 sd
1.000000 0.000000 0.000000 srgb
n 40.320000 15.615000 m 40.320000 16.524375 l 41.229375 16.524375 l 41.229375 15.615000 l f
0.000000 0.000000 0.000000 srgb
n 40.320000 15.615000 m 40.320000 16.524375 l 41.229375 16.524375 l 41.229375 15.615000 l cp s
0 slc
0 slj
[] 0 sd
n 40.456406 16.069688 m 41.092969 16.069688 l s
0.100000 slw
[] 0 sd
[] 0 sd
0 slc
0 slj
0.100000 slw
0 slc
0 slj
[] 0 sd
1.000000 0.000000 0.000000 srgb
n 42.280000 15.585000 m 42.280000 16.494375 l 43.189375 16.494375 l 43.189375 15.585000 l f
0.000000 0.000000 0.000000 srgb
n 42.280000 15.585000 m 42.280000 16.494375 l 43.189375 16.494375 l 43.189375 15.585000 l cp s
0 slc
0 slj
[] 0 sd
n 42.416406 16.039687 m 43.052969 16.039687 l s
0.100000 slw
[] 0 sd
[] 0 sd
0 slc
0 slj
0.100000 slw
0 slc
0 slj
[] 0 sd
1.000000 0.000000 0.000000 srgb
n 44.385000 15.595000 m 44.385000 16.504375 l 45.294375 16.504375 l 45.294375 15.595000 l f
0.000000 0.000000 0.000000 srgb
n 44.385000 15.595000 m 44.385000 16.504375 l 45.294375 16.504375 l 45.294375 15.595000 l cp s
0 slc
0 slj
[] 0 sd
n 44.521406 16.049688 m 45.157969 16.049688 l s
0.100000 slw
[] 0 sd
[] 0 sd
0 slc
0 slj
0.100000 slw
0 slc
0 slj
[] 0 sd
0.000000 0.000000 1.000000 srgb
n 48.255000 15.610000 m 48.255000 16.585000 l 49.230000 16.585000 l 49.230000 15.610000 l f
0.000000 0.000000 0.000000 srgb
n 48.255000 15.610000 m 48.255000 16.585000 l 49.230000 16.585000 l 49.230000 15.610000 l cp s
0 slc
0 slj
[] 0 sd
n 48.742500 15.756250 m 48.742500 16.438750 l s
0 slc
0 slj
[] 0 sd
n 48.401250 16.097500 m 49.083750 16.097500 l s
gsave 23.895400 20.854400 translate 0.035278 -0.035278 scale
start_ol
747 5568 moveto
1499 5568 lineto
1499 0 lineto
747 0 lineto
747 5568 lineto
end_ol grestore 
gsave 24.192618 20.854400 translate 0.035278 -0.035278 scale
start_ol
4180 2515 moveto
4180 0 lineto
3496 0 lineto
3496 2493 lineto
3496 3104 3265 3408 conicto
3035 3712 2574 3712 conicto
2020 3712 1700 3348 conicto
1380 2984 1380 2355 conicto
1380 0 lineto
692 0 lineto
692 4160 lineto
1380 4160 lineto
1380 3520 lineto
1625 3906 1958 4097 conicto
2291 4288 2726 4288 conicto
3444 4288 3812 3838 conicto
4180 3388 4180 2515 conicto
end_ol grestore 
gsave 24.829520 20.854400 translate 0.035278 -0.035278 scale
start_ol
3373 4032 moveto
3373 3392 lineto
3083 3552 2770 3632 conicto
2458 3712 2123 3712 conicto
1614 3712 1359 3552 conicto
1104 3392 1104 3072 conicto
1104 2828 1286 2689 conicto
1469 2550 2019 2424 conicto
2254 2371 lineto
2983 2214 3289 1929 conicto
3596 1644 3596 1133 conicto
3596 551 3137 211 conicto
2678 -128 1874 -128 conicto
1540 -128 1177 -64 conicto
815 0 413 128 conicto
413 832 lineto
792 640 1160 544 conicto
1528 448 1889 448 conicto
2372 448 2632 613 conicto
2893 779 2893 1080 conicto
2893 1358 2705 1507 conicto
2518 1656 1882 1793 conicto
1644 1849 lineto
1008 1985 725 2267 conicto
443 2549 443 3040 conicto
443 3638 859 3963 conicto
1276 4288 2042 4288 conicto
2421 4288 2755 4224 conicto
3090 4160 3373 4032 conicto
end_ol grestore 
gsave 25.354023 20.854400 translate 0.035278 -0.035278 scale
start_ol
1395 5312 moveto
1395 4160 lineto
2804 4160 lineto
2804 3648 lineto
1395 3648 lineto
1395 1379 lineto
1395 867 1534 721 conicto
1674 576 2101 576 conicto
2804 576 lineto
2804 0 lineto
2101 0 lineto
1309 0 1008 297 conicto
707 594 707 1379 conicto
707 3648 lineto
205 3648 lineto
205 4160 lineto
707 4160 lineto
707 5312 lineto
1395 5312 lineto
end_ol grestore 
gsave 25.748649 20.854400 translate 0.035278 -0.035278 scale
start_ol
2611 2112 moveto
1782 2112 1462 1918 conicto
1142 1724 1142 1257 conicto
1142 885 1382 666 conicto
1622 448 2034 448 conicto
2603 448 2947 860 conicto
3291 1273 3291 1958 conicto
3291 2112 lineto
2611 2112 lineto
3975 2382 moveto
3975 0 lineto
3291 0 lineto
3291 640 lineto
3057 246 2707 59 conicto
2357 -128 1852 -128 conicto
1212 -128 834 233 conicto
457 594 457 1199 conicto
457 1906 927 2265 conicto
1398 2624 2332 2624 conicto
3291 2624 lineto
3291 2696 lineto
3291 3181 2980 3446 conicto
2670 3712 2108 3712 conicto
1751 3712 1412 3632 conicto
1074 3552 762 3392 conicto
762 4032 lineto
1138 4160 1491 4224 conicto
1844 4288 2179 4288 conicto
3083 4288 3529 3815 conicto
3975 3343 3975 2382 conicto
end_ol grestore 
gsave 26.365567 20.854400 translate 0.035278 -0.035278 scale
start_ol
4180 2515 moveto
4180 0 lineto
3496 0 lineto
3496 2493 lineto
3496 3104 3265 3408 conicto
3035 3712 2574 3712 conicto
2020 3712 1700 3348 conicto
1380 2984 1380 2355 conicto
1380 0 lineto
692 0 lineto
692 4160 lineto
1380 4160 lineto
1380 3520 lineto
1625 3906 1958 4097 conicto
2291 4288 2726 4288 conicto
3444 4288 3812 3838 conicto
4180 3388 4180 2515 conicto
end_ol grestore 
gsave 27.002468 20.854400 translate 0.035278 -0.035278 scale
start_ol
1395 5312 moveto
1395 4160 lineto
2804 4160 lineto
2804 3648 lineto
1395 3648 lineto
1395 1379 lineto
1395 867 1534 721 conicto
1674 576 2101 576 conicto
2804 576 lineto
2804 0 lineto
2101 0 lineto
1309 0 1008 297 conicto
707 594 707 1379 conicto
707 3648 lineto
205 3648 lineto
205 4160 lineto
707 4160 lineto
707 5312 lineto
1395 5312 lineto
end_ol grestore 
gsave 27.397094 20.854400 translate 0.035278 -0.035278 scale
start_ol
4280 2240 moveto
4280 1920 lineto
1134 1920 lineto
1179 1201 1560 824 conicto
1941 448 2621 448 conicto
3016 448 3386 544 conicto
3756 640 4120 832 conicto
4120 192 lineto
3752 36 3365 -46 conicto
2978 -128 2581 -128 conicto
1584 -128 1002 458 conicto
420 1044 420 2042 conicto
420 3075 972 3681 conicto
1524 4288 2462 4288 conicto
3302 4288 3791 3737 conicto
4280 3186 4280 2240 conicto
3596 2432 moveto
3589 3016 3282 3364 conicto
2975 3712 2469 3712 conicto
1897 3712 1553 3375 conicto
1209 3039 1157 2429 conicto
3596 2432 lineto
end_ol grestore 
gsave 28.016509 20.854400 translate 0.035278 -0.035278 scale
start_ol
3373 4032 moveto
3373 3392 lineto
3083 3552 2770 3632 conicto
2458 3712 2123 3712 conicto
1614 3712 1359 3552 conicto
1104 3392 1104 3072 conicto
1104 2828 1286 2689 conicto
1469 2550 2019 2424 conicto
2254 2371 lineto
2983 2214 3289 1929 conicto
3596 1644 3596 1133 conicto
3596 551 3137 211 conicto
2678 -128 1874 -128 conicto
1540 -128 1177 -64 conicto
815 0 413 128 conicto
413 832 lineto
792 640 1160 544 conicto
1528 448 1889 448 conicto
2372 448 2632 613 conicto
2893 779 2893 1080 conicto
2893 1358 2705 1507 conicto
2518 1656 1882 1793 conicto
1644 1849 lineto
1008 1985 725 2267 conicto
443 2549 443 3040 conicto
443 3638 859 3963 conicto
1276 4288 2042 4288 conicto
2421 4288 2755 4224 conicto
3090 4160 3373 4032 conicto
end_ol grestore 
gsave 28.541012 20.854400 translate 0.035278 -0.035278 scale
start_ol
end_ol grestore 
gsave 28.860711 20.854400 translate 0.035278 -0.035278 scale
start_ol
3458 3584 moveto
3458 5760 lineto
4143 5760 lineto
4143 0 lineto
3458 0 lineto
3458 576 lineto
3242 219 2913 45 conicto
2584 -128 2123 -128 conicto
1368 -128 894 480 conicto
420 1089 420 2080 conicto
420 3071 894 3679 conicto
1368 4288 2123 4288 conicto
2584 4288 2913 4114 conicto
3242 3941 3458 3584 conicto
1127 2080 moveto
1127 1317 1437 882 conicto
1748 448 2291 448 conicto
2833 448 3145 882 conicto
3458 1317 3458 2080 conicto
3458 2843 3145 3277 conicto
2833 3712 2291 3712 conicto
1748 3712 1437 3277 conicto
1127 2843 1127 2080 conicto
end_ol grestore 
gsave 29.500110 20.854400 translate 0.035278 -0.035278 scale
start_ol
4280 2240 moveto
4280 1920 lineto
1134 1920 lineto
1179 1201 1560 824 conicto
1941 448 2621 448 conicto
3016 448 3386 544 conicto
3756 640 4120 832 conicto
4120 192 lineto
3752 36 3365 -46 conicto
2978 -128 2581 -128 conicto
1584 -128 1002 458 conicto
420 1044 420 2042 conicto
420 3075 972 3681 conicto
1524 4288 2462 4288 conicto
3302 4288 3791 3737 conicto
4280 3186 4280 2240 conicto
3596 2432 moveto
3589 3016 3282 3364 conicto
2975 3712 2469 3712 conicto
1897 3712 1553 3375 conicto
1209 3039 1157 2429 conicto
3596 2432 lineto
end_ol grestore 
gsave 30.119524 20.854400 translate 0.035278 -0.035278 scale
start_ol
end_ol grestore 
gsave 30.439224 20.854400 translate 0.035278 -0.035278 scale
start_ol
-22 5568 moveto
4674 5568 lineto
4674 4928 lineto
2704 4928 lineto
2704 0 lineto
1949 0 lineto
1949 4928 lineto
-22 4928 lineto
-22 5568 lineto
end_ol grestore 
gsave 30.883807 20.854400 translate 0.035278 -0.035278 scale
start_ol
4280 2240 moveto
4280 1920 lineto
1134 1920 lineto
1179 1201 1560 824 conicto
1941 448 2621 448 conicto
3016 448 3386 544 conicto
3756 640 4120 832 conicto
4120 192 lineto
3752 36 3365 -46 conicto
2978 -128 2581 -128 conicto
1584 -128 1002 458 conicto
420 1044 420 2042 conicto
420 3075 972 3681 conicto
1524 4288 2462 4288 conicto
3302 4288 3791 3737 conicto
4280 3186 4280 2240 conicto
3596 2432 moveto
3589 3016 3282 3364 conicto
2975 3712 2469 3712 conicto
1897 3712 1553 3375 conicto
1209 3039 1157 2429 conicto
3596 2432 lineto
end_ol grestore 
gsave 31.503221 20.854400 translate 0.035278 -0.035278 scale
start_ol
3960 3367 moveto
4217 3839 4574 4063 conicto
4931 4288 5414 4288 conicto
6065 4288 6418 3827 conicto
6772 3366 6772 2515 conicto
6772 0 lineto
6084 0 lineto
6084 2493 lineto
6084 3112 5872 3412 conicto
5660 3712 5225 3712 conicto
4693 3712 4384 3348 conicto
4076 2984 4076 2355 conicto
4076 0 lineto
3388 0 lineto
3388 2493 lineto
3388 3116 3176 3414 conicto
2964 3712 2522 3712 conicto
1997 3712 1688 3346 conicto
1380 2980 1380 2355 conicto
1380 0 lineto
692 0 lineto
692 4160 lineto
1380 4160 lineto
1380 3520 lineto
1614 3914 1941 4101 conicto
2269 4288 2718 4288 conicto
3172 4288 3490 4052 conicto
3808 3816 3960 3367 conicto
end_ol grestore 
gsave 32.484800 20.854400 translate 0.035278 -0.035278 scale
start_ol
1380 576 moveto
1380 -1600 lineto
692 -1600 lineto
692 4160 lineto
1380 4160 lineto
1380 3584 lineto
1596 3941 1925 4114 conicto
2254 4288 2711 4288 conicto
3470 4288 3944 3679 conicto
4418 3071 4418 2080 conicto
4418 1089 3944 480 conicto
3470 -128 2711 -128 conicto
2254 -128 1925 45 conicto
1596 219 1380 576 conicto
3708 2080 moveto
3708 2843 3397 3277 conicto
3087 3712 2544 3712 conicto
2001 3712 1690 3277 conicto
1380 2843 1380 2080 conicto
1380 1317 1690 882 conicto
2001 448 2544 448 conicto
3087 448 3397 882 conicto
3708 1317 3708 2080 conicto
end_ol grestore 
gsave 33.124199 20.854400 translate 0.035278 -0.035278 scale
start_ol
2332 3712 moveto
1782 3712 1462 3275 conicto
1142 2839 1142 2080 conicto
1142 1321 1460 884 conicto
1778 448 2332 448 conicto
2878 448 3198 886 conicto
3518 1324 3518 2080 conicto
3518 2832 3198 3272 conicto
2878 3712 2332 3712 conicto
2332 4288 moveto
3224 4288 3733 3702 conicto
4243 3116 4243 2080 conicto
4243 1047 3733 459 conicto
3224 -128 2332 -128 conicto
1435 -128 927 459 conicto
420 1047 420 2080 conicto
420 3116 927 3702 conicto
1435 4288 2332 4288 conicto
end_ol grestore 
0.100000 slw
[] 0 sd
[] 0 sd
0 slc
0 slj
0.100000 slw
0 slc
0 slj
[] 0 sd
1.000000 0.000000 0.000000 srgb
n 9.723920 14.162900 m 9.723920 15.072275 l 10.633295 15.072275 l 10.633295 14.162900 l f
0.000000 0.000000 0.000000 srgb
n 9.723920 14.162900 m 9.723920 15.072275 l 10.633295 15.072275 l 10.633295 14.162900 l cp s
0 slc
0 slj
[] 0 sd
n 9.860326 14.617587 m 10.496889 14.617587 l s
0.100000 slw
[] 0 sd
[] 0 sd
0 slc
0 slj
0.100000 slw
0 slc
0 slj
[] 0 sd
1.000000 0.000000 0.000000 srgb
n 9.727140 12.655800 m 9.727140 13.565175 l 10.636515 13.565175 l 10.636515 12.655800 l f
0.000000 0.000000 0.000000 srgb
n 9.727140 12.655800 m 9.727140 13.565175 l 10.636515 13.565175 l 10.636515 12.655800 l cp s
0 slc
0 slj
[] 0 sd
n 9.863546 13.110487 m 10.500109 13.110487 l s
0.100000 slw
[] 0 sd
[] 0 sd
0 slc
0 slj
0.100000 slw
0 slc
0 slj
[] 0 sd
1.000000 0.000000 0.000000 srgb
n 13.756600 14.059400 m 13.756600 14.968775 l 14.665975 14.968775 l 14.665975 14.059400 l f
0.000000 0.000000 0.000000 srgb
n 13.756600 14.059400 m 13.756600 14.968775 l 14.665975 14.968775 l 14.665975 14.059400 l cp s
0 slc
0 slj
[] 0 sd
n 13.893006 14.514087 m 14.529569 14.514087 l s
0.100000 slw
[] 0 sd
[] 0 sd
0 slc
0 slj
0.100000 slw
0 slc
0 slj
[] 0 sd
1.000000 0.000000 0.000000 srgb
n 23.915800 14.109500 m 23.915800 15.018875 l 24.825175 15.018875 l 24.825175 14.109500 l f
0.000000 0.000000 0.000000 srgb
n 23.915800 14.109500 m 23.915800 15.018875 l 24.825175 15.018875 l 24.825175 14.109500 l cp s
0 slc
0 slj
[] 0 sd
n 24.052206 14.564187 m 24.688769 14.564187 l s
0.100000 slw
[] 0 sd
[] 0 sd
0 slc
0 slj
0.100000 slw
0 slc
0 slj
[] 0 sd
1.000000 0.000000 0.000000 srgb
n 32.062200 14.076300 m 32.062200 14.985675 l 32.971575 14.985675 l 32.971575 14.076300 l f
0.000000 0.000000 0.000000 srgb
n 32.062200 14.076300 m 32.062200 14.985675 l 32.971575 14.985675 l 32.971575 14.076300 l cp s
0 slc
0 slj
[] 0 sd
n 32.198606 14.530987 m 32.835169 14.530987 l s
0.100000 slw
[] 0 sd
[] 0 sd
0 slc
0 slj
0.100000 slw
0 slc
0 slj
[] 0 sd
1.000000 0.000000 0.000000 srgb
n 34.068600 14.069400 m 34.068600 14.978775 l 34.977975 14.978775 l 34.977975 14.069400 l f
0.000000 0.000000 0.000000 srgb
n 34.068600 14.069400 m 34.068600 14.978775 l 34.977975 14.978775 l 34.977975 14.069400 l cp s
0 slc
0 slj
[] 0 sd
n 34.205006 14.524088 m 34.841569 14.524088 l s
0.100000 slw
[] 0 sd
[] 0 sd
0 slc
n 8.100000 17.400000 m 50.313197 17.350570 l s
[] 0 sd
0 slj
0 slc
n 50.688197 17.350131 m 50.188490 17.600716 l 50.313197 17.350570 l 50.187904 17.100717 l ef
n 50.688197 17.350131 m 50.188490 17.600716 l 50.313197 17.350570 l 50.187904 17.100717 l cp s
gsave 51.500000 17.700000 translate 0.035278 -0.035278 scale
start_ol
1371 5248 moveto
1371 4096 lineto
2757 4096 lineto
2757 3584 lineto
1371 3584 lineto
1371 1362 lineto
1371 861 1508 718 conicto
1645 576 2066 576 conicto
2757 576 lineto
2757 0 lineto
2066 0 lineto
1287 0 991 293 conicto
695 587 695 1362 conicto
695 3584 lineto
201 3584 lineto
201 4096 lineto
695 4096 lineto
695 5248 lineto
1371 5248 lineto
end_ol grestore 
showpage
