%!PS-Adobe-2.0 EPSF-2.0
%%Title: /home/denivyruck/UDESC/TCC/Imagens/hypervisor.dia
%%Creator: Dia v0.97.3
%%CreationDate: Sun Oct 23 21:40:01 2016
%%For: denivyruck
%%Orientation: Portrait
%%Magnification: 1.0000
%%BoundingBox: 0 0 370 458
%%BeginSetup
%%EndSetup
%%EndComments
%%BeginProlog
[ /.notdef /.notdef /.notdef /.notdef /.notdef /.notdef /.notdef /.notdef /.notdef /.notdef
/.notdef /.notdef /.notdef /.notdef /.notdef /.notdef /.notdef /.notdef /.notdef /.notdef
/.notdef /.notdef /.notdef /.notdef /.notdef /.notdef /.notdef /.notdef /.notdef /.notdef
/.notdef /.notdef /space /exclam /quotedbl /numbersign /dollar /percent /ampersand /quoteright
/parenleft /parenright /asterisk /plus /comma /hyphen /period /slash /zero /one
/two /three /four /five /six /seven /eight /nine /colon /semicolon
/less /equal /greater /question /at /A /B /C /D /E
/F /G /H /I /J /K /L /M /N /O
/P /Q /R /S /T /U /V /W /X /Y
/Z /bracketleft /backslash /bracketright /asciicircum /underscore /quoteleft /a /b /c
/d /e /f /g /h /i /j /k /l /m
/n /o /p /q /r /s /t /u /v /w
/x /y /z /braceleft /bar /braceright /asciitilde /.notdef /.notdef /.notdef
/.notdef /.notdef /.notdef /.notdef /.notdef /.notdef /.notdef /.notdef /.notdef /.notdef
/.notdef /.notdef /.notdef /.notdef /.notdef /.notdef /.notdef /.notdef /.notdef /.notdef
/.notdef /.notdef /.notdef /.notdef /.notdef /.notdef /.notdef /.notdef /.notdef /.notdef
/space /exclamdown /cent /sterling /currency /yen /brokenbar /section /dieresis /copyright
/ordfeminine /guillemotleft /logicalnot /hyphen /registered /macron /degree /plusminus /twosuperior /threesuperior
/acute /mu /paragraph /periodcentered /cedilla /onesuperior /ordmasculine /guillemotright /onequarter /onehalf
/threequarters /questiondown /Agrave /Aacute /Acircumflex /Atilde /Adieresis /Aring /AE /Ccedilla
/Egrave /Eacute /Ecircumflex /Edieresis /Igrave /Iacute /Icircumflex /Idieresis /Eth /Ntilde
/Ograve /Oacute /Ocircumflex /Otilde /Odieresis /multiply /Oslash /Ugrave /Uacute /Ucircumflex
/Udieresis /Yacute /Thorn /germandbls /agrave /aacute /acircumflex /atilde /adieresis /aring
/ae /ccedilla /egrave /eacute /ecircumflex /edieresis /igrave /iacute /icircumflex /idieresis
/eth /ntilde /ograve /oacute /ocircumflex /otilde /odieresis /divide /oslash /ugrave
/uacute /ucircumflex /udieresis /yacute /thorn /ydieresis] /isolatin1encoding exch def
/cp {closepath} bind def
/c {curveto} bind def
/f {fill} bind def
/a {arc} bind def
/ef {eofill} bind def
/ex {exch} bind def
/gr {grestore} bind def
/gs {gsave} bind def
/sa {save} bind def
/rs {restore} bind def
/l {lineto} bind def
/m {moveto} bind def
/rm {rmoveto} bind def
/n {newpath} bind def
/s {stroke} bind def
/sh {show} bind def
/slc {setlinecap} bind def
/slj {setlinejoin} bind def
/slw {setlinewidth} bind def
/srgb {setrgbcolor} bind def
/rot {rotate} bind def
/sc {scale} bind def
/sd {setdash} bind def
/ff {findfont} bind def
/sf {setfont} bind def
/scf {scalefont} bind def
/sw {stringwidth pop} bind def
/tr {translate} bind def

/ellipsedict 8 dict def
ellipsedict /mtrx matrix put
/ellipse
{ ellipsedict begin
   /endangle exch def
   /startangle exch def
   /yrad exch def
   /xrad exch def
   /y exch def
   /x exch def   /savematrix mtrx currentmatrix def
   x y tr xrad yrad sc
   0 0 1 startangle endangle arc
   savematrix setmatrix
   end
} def

/mergeprocs {
dup length
3 -1 roll
dup
length
dup
5 1 roll
3 -1 roll
add
array cvx
dup
3 -1 roll
0 exch
putinterval
dup
4 2 roll
putinterval
} bind def
/dpi_x 300 def
/dpi_y 300 def
/conicto {
    /to_y exch def
    /to_x exch def
    /conic_cntrl_y exch def
    /conic_cntrl_x exch def
    currentpoint
    /p0_y exch def
    /p0_x exch def
    /p1_x p0_x conic_cntrl_x p0_x sub 2 3 div mul add def
    /p1_y p0_y conic_cntrl_y p0_y sub 2 3 div mul add def
    /p2_x p1_x to_x p0_x sub 1 3 div mul add def
    /p2_y p1_y to_y p0_y sub 1 3 div mul add def
    p1_x p1_y p2_x p2_y to_x to_y curveto
} bind def
/start_ol { gsave 1.1 dpi_x div dup scale} bind def
/end_ol { closepath fill grestore } bind def
28.346000 -28.346000 scale
-19.000000 -28.450000 translate
%%EndProlog


1.000000 1.000000 1.000000 srgb
n 19.050000 22.750000 m 19.050000 28.400000 l 32.000000 28.400000 l 32.000000 22.750000 l f
0.100000 slw
[] 0 sd
[] 0 sd
0 slj
0.000000 0.000000 0.000000 srgb
n 19.050000 22.750000 m 19.050000 28.400000 l 32.000000 28.400000 l 32.000000 22.750000 l cp s
gsave 24.625000 24.170000 translate 0.035278 -0.035278 scale
start_ol
477 3520 moveto
2515 3520 lineto
2515 3136 lineto
957 3136 lineto
957 2112 lineto
2363 2112 lineto
2363 1728 lineto
957 1728 lineto
957 0 lineto
477 0 lineto
477 3520 lineto
end_ol grestore 
gsave 24.992151 24.170000 translate 0.035278 -0.035278 scale
start_ol
1034 3904 moveto
1507 3904 lineto
732 3008 lineto
369 3008 lineto
1034 3904 lineto
458 2688 moveto
895 2688 lineto
895 0 lineto
458 0 lineto
458 2688 lineto
677 2752 moveto
677 2752 lineto
end_ol grestore 
gsave 25.169479 24.170000 translate 0.035278 -0.035278 scale
start_ol
2154 2560 moveto
2154 2176 lineto
1969 2272 1769 2320 conicto
1570 2368 1356 2368 conicto
1030 2368 867 2269 conicto
705 2170 705 1972 conicto
705 1821 821 1735 conicto
938 1649 1290 1571 conicto
1439 1538 lineto
1905 1438 2101 1255 conicto
2297 1072 2297 744 conicto
2297 371 2003 153 conicto
1710 -64 1197 -64 conicto
984 -64 752 -16 conicto
521 32 264 128 conicto
264 576 lineto
506 448 741 384 conicto
976 320 1207 320 conicto
1516 320 1682 425 conicto
1848 531 1848 722 conicto
1848 900 1728 994 conicto
1608 1089 1202 1177 conicto
1050 1212 lineto
644 1298 463 1476 conicto
283 1654 283 1964 conicto
283 2341 549 2546 conicto
815 2752 1304 2752 conicto
1546 2752 1760 2704 conicto
1974 2656 2154 2560 conicto
end_ol grestore 
gsave 25.501664 24.170000 translate 0.035278 -0.035278 scale
start_ol
458 2688 moveto
895 2688 lineto
895 0 lineto
458 0 lineto
458 2688 lineto
458 3712 moveto
895 3712 lineto
895 3136 lineto
458 3136 lineto
458 3712 lineto
end_ol grestore 
gsave 25.678993 24.170000 translate 0.035278 -0.035278 scale
start_ol
2373 2560 moveto
2373 2176 lineto
2188 2272 2001 2320 conicto
1815 2368 1625 2368 conicto
1199 2368 964 2099 conicto
729 1830 729 1344 conicto
729 858 964 589 conicto
1199 320 1625 320 conicto
1815 320 2001 368 conicto
2188 416 2373 512 conicto
2373 128 lineto
2190 32 1994 -16 conicto
1798 -64 1577 -64 conicto
976 -64 622 316 conicto
268 697 268 1344 conicto
268 2000 625 2376 conicto
983 2752 1606 2752 conicto
1808 2752 2000 2704 conicto
2192 2656 2373 2560 conicto
end_ol grestore 
gsave 26.031161 24.170000 translate 0.035278 -0.035278 scale
start_ol
1489 2368 moveto
1138 2368 933 2094 conicto
729 1820 729 1344 conicto
729 868 932 594 conicto
1135 320 1489 320 conicto
1838 320 2042 595 conicto
2247 870 2247 1344 conicto
2247 1816 2042 2092 conicto
1838 2368 1489 2368 conicto
1489 2752 moveto
2059 2752 2384 2378 conicto
2710 2005 2710 1344 conicto
2710 685 2384 310 conicto
2059 -64 1489 -64 conicto
917 -64 592 310 conicto
268 685 268 1344 conicto
268 2005 592 2378 conicto
917 2752 1489 2752 conicto
end_ol grestore 
1.000000 1.000000 1.000000 srgb
n 19.400000 25.050000 m 19.400000 27.750000 l 21.800000 27.750000 l 21.800000 25.050000 l f
0.100000 slw
[] 0 sd
[] 0 sd
0 slj
0.000000 0.000000 0.000000 srgb
n 19.400000 25.050000 m 19.400000 27.750000 l 21.800000 27.750000 l 21.800000 25.050000 l cp s
gsave 19.950000 26.595000 translate 0.035278 -0.035278 scale
start_ol
3133 3264 moveto
3133 2752 lineto
2891 2977 2616 3088 conicto
2342 3200 2033 3200 conicto
1425 3200 1102 2829 conicto
779 2459 779 1759 conicto
779 1061 1102 690 conicto
1425 320 2033 320 conicto
2342 320 2616 431 conicto
2891 543 3133 768 conicto
3133 256 lineto
2881 96 2599 16 conicto
2318 -64 2005 -64 conicto
1199 -64 736 424 conicto
273 913 273 1759 conicto
273 2607 736 3095 conicto
1199 3584 2005 3584 conicto
2323 3584 2604 3504 conicto
2886 3424 3133 3264 conicto
end_ol grestore 
gsave 20.397080 26.595000 translate 0.035278 -0.035278 scale
start_ol
957 3136 moveto
957 1792 lineto
1560 1792 lineto
1895 1792 2078 1967 conicto
2261 2142 2261 2465 conicto
2261 2786 2078 2961 conicto
1895 3136 1560 3136 conicto
957 3136 lineto
477 3520 moveto
1560 3520 lineto
2156 3520 2461 3251 conicto
2767 2983 2767 2465 conicto
2767 1943 2461 1675 conicto
2156 1408 1560 1408 conicto
957 1408 lineto
957 0 lineto
477 0 lineto
477 3520 lineto
end_ol grestore 
gsave 20.781718 26.595000 translate 0.035278 -0.035278 scale
start_ol
423 3520 moveto
905 3520 lineto
905 1383 lineto
905 817 1111 568 conicto
1318 320 1781 320 conicto
2242 320 2448 568 conicto
2655 817 2655 1383 conicto
2655 3520 lineto
3137 3520 lineto
3137 1324 lineto
3137 637 2794 286 conicto
2451 -64 1781 -64 conicto
1109 -64 766 286 conicto
423 637 423 1324 conicto
423 3520 lineto
end_ol grestore 
1.000000 1.000000 1.000000 srgb
n 22.333300 25.014100 m 22.333300 27.714100 l 24.843300 27.714100 l 24.843300 25.014100 l f
0.100000 slw
[] 0 sd
[] 0 sd
0 slj
0.000000 0.000000 0.000000 srgb
n 22.333300 25.014100 m 22.333300 27.714100 l 24.843300 27.714100 l 24.843300 25.014100 l cp s
gsave 22.883300 26.559100 translate 0.035278 -0.035278 scale
start_ol
2159 1632 moveto
2313 1581 2459 1413 conicto
2606 1245 2753 952 conicto
3240 0 lineto
2724 0 lineto
2271 893 lineto
2095 1243 1930 1357 conicto
1765 1472 1480 1472 conicto
957 1472 lineto
957 0 lineto
477 0 lineto
477 3520 lineto
1560 3520 lineto
2168 3520 2467 3265 conicto
2767 3010 2767 2496 conicto
2767 2161 2611 1939 conicto
2456 1718 2159 1632 conicto
957 3136 moveto
957 1856 lineto
1560 1856 lineto
1907 1856 2084 2019 conicto
2261 2182 2261 2498 conicto
2261 2815 2084 2975 conicto
1907 3136 1560 3136 conicto
957 3136 lineto
end_ol grestore 
gsave 23.302904 26.559100 translate 0.035278 -0.035278 scale
start_ol
1663 3047 moveto
1012 1280 lineto
2316 1280 lineto
1663 3047 lineto
1392 3520 moveto
1936 3520 lineto
3287 0 lineto
2788 0 lineto
2465 896 lineto
867 896 lineto
544 0 lineto
38 0 lineto
1392 3520 lineto
end_ol grestore 
gsave 23.739996 26.559100 translate 0.035278 -0.035278 scale
start_ol
477 3520 moveto
1192 3520 lineto
2097 1148 lineto
3007 3520 lineto
3722 3520 lineto
3722 0 lineto
3254 0 lineto
3254 3095 lineto
2339 704 lineto
1857 704 lineto
943 3095 lineto
943 0 lineto
477 0 lineto
477 3520 lineto
end_ol grestore 
1.000000 1.000000 1.000000 srgb
n 25.247100 25.005400 m 25.247100 27.705400 l 28.389600 27.705400 l 28.389600 25.005400 l f
0.100000 slw
[] 0 sd
[] 0 sd
0 slj
0.000000 0.000000 0.000000 srgb
n 25.247100 25.005400 m 25.247100 27.705400 l 28.389600 27.705400 l 28.389600 25.005400 l cp s
gsave 25.797100 26.550400 translate 0.035278 -0.035278 scale
start_ol
957 3136 moveto
957 384 lineto
1537 384 lineto
2271 384 2611 716 conicto
2952 1048 2952 1764 conicto
2952 2475 2611 2805 conicto
2271 3136 1537 3136 conicto
957 3136 lineto
477 3520 moveto
1463 3520 lineto
2494 3520 2976 3094 conicto
3458 2669 3458 1764 conicto
3458 853 2973 426 conicto
2489 0 1463 0 conicto
477 0 lineto
477 3520 lineto
end_ol grestore 
gsave 26.289134 26.550400 translate 0.035278 -0.035278 scale
start_ol
477 3520 moveto
957 3520 lineto
957 0 lineto
477 0 lineto
477 3520 lineto
end_ol grestore 
gsave 26.478956 26.550400 translate 0.035278 -0.035278 scale
start_ol
2603 3392 moveto
2603 2944 lineto
2330 3073 2087 3136 conicto
1845 3200 1620 3200 conicto
1228 3200 1015 3052 conicto
803 2904 803 2631 conicto
803 2402 944 2285 conicto
1086 2169 1480 2097 conicto
1769 2039 lineto
2306 1937 2561 1678 conicto
2817 1420 2817 986 conicto
2817 469 2471 202 conicto
2126 -64 1458 -64 conicto
1207 -64 923 0 conicto
639 65 335 192 conicto
335 704 lineto
627 513 907 416 conicto
1188 320 1459 320 conicto
1869 320 2092 485 conicto
2316 650 2316 955 conicto
2316 1221 2155 1371 conicto
1995 1522 1629 1597 conicto
1337 1652 lineto
801 1756 561 1978 conicto
321 2201 321 2597 conicto
321 3056 652 3320 conicto
984 3584 1565 3584 conicto
1815 3584 2073 3536 conicto
2332 3488 2603 3392 conicto
end_ol grestore 
gsave 26.886075 26.550400 translate 0.035278 -0.035278 scale
start_ol
3133 3264 moveto
3133 2752 lineto
2891 2977 2616 3088 conicto
2342 3200 2033 3200 conicto
1425 3200 1102 2829 conicto
779 2459 779 1759 conicto
779 1061 1102 690 conicto
1425 320 2033 320 conicto
2342 320 2616 431 conicto
2891 543 3133 768 conicto
3133 256 lineto
2881 96 2599 16 conicto
2318 -64 2005 -64 conicto
1199 -64 736 424 conicto
273 913 273 1759 conicto
273 2607 736 3095 conicto
1199 3584 2005 3584 conicto
2323 3584 2604 3504 conicto
2886 3424 3133 3264 conicto
end_ol grestore 
gsave 27.333155 26.550400 translate 0.035278 -0.035278 scale
start_ol
1917 3200 moveto
1394 3200 1086 2813 conicto
779 2426 779 1759 conicto
779 1094 1086 707 conicto
1394 320 1917 320 conicto
2439 320 2744 707 conicto
3050 1094 3050 1759 conicto
3050 2426 2744 2813 conicto
2439 3200 1917 3200 conicto
1916 3584 moveto
2662 3584 3108 3088 conicto
3555 2593 3555 1759 conicto
3555 927 3108 431 conicto
2662 -64 1916 -64 conicto
1168 -64 720 430 conicto
273 925 273 1759 conicto
273 2593 720 3088 conicto
1168 3584 1916 3584 conicto
end_ol grestore 
1.000000 1.000000 1.000000 srgb
n 28.841200 25.011200 m 28.841200 27.711200 l 31.688700 27.711200 l 31.688700 25.011200 l f
0.100000 slw
[] 0 sd
[] 0 sd
0 slj
0.000000 0.000000 0.000000 srgb
n 28.841200 25.011200 m 28.841200 27.711200 l 31.688700 27.711200 l 31.688700 25.011200 l cp s
gsave 29.391200 26.556200 translate 0.035278 -0.035278 scale
start_ol
2159 1632 moveto
2313 1581 2459 1413 conicto
2606 1245 2753 952 conicto
3240 0 lineto
2724 0 lineto
2271 893 lineto
2095 1243 1930 1357 conicto
1765 1472 1480 1472 conicto
957 1472 lineto
957 0 lineto
477 0 lineto
477 3520 lineto
1560 3520 lineto
2168 3520 2467 3265 conicto
2767 3010 2767 2496 conicto
2767 2161 2611 1939 conicto
2456 1718 2159 1632 conicto
957 3136 moveto
957 1856 lineto
1560 1856 lineto
1907 1856 2084 2019 conicto
2261 2182 2261 2498 conicto
2261 2815 2084 2975 conicto
1907 3136 1560 3136 conicto
957 3136 lineto
end_ol grestore 
gsave 29.835783 26.556200 translate 0.035278 -0.035278 scale
start_ol
477 3520 moveto
2719 3520 lineto
2719 3136 lineto
957 3136 lineto
957 2112 lineto
2646 2112 lineto
2646 1728 lineto
957 1728 lineto
957 384 lineto
2762 384 lineto
2762 0 lineto
477 0 lineto
477 3520 lineto
end_ol grestore 
gsave 30.240397 26.556200 translate 0.035278 -0.035278 scale
start_ol
957 3136 moveto
957 384 lineto
1537 384 lineto
2271 384 2611 716 conicto
2952 1048 2952 1764 conicto
2952 2475 2611 2805 conicto
2271 3136 1537 3136 conicto
957 3136 lineto
477 3520 moveto
1463 3520 lineto
2494 3520 2976 3094 conicto
3458 2669 3458 1764 conicto
3458 853 2973 426 conicto
2489 0 1463 0 conicto
477 0 lineto
477 3520 lineto
end_ol grestore 
gsave 30.732431 26.556200 translate 0.035278 -0.035278 scale
start_ol
477 3520 moveto
2719 3520 lineto
2719 3136 lineto
957 3136 lineto
957 2112 lineto
2646 2112 lineto
2646 1728 lineto
957 1728 lineto
957 384 lineto
2762 384 lineto
2762 0 lineto
477 0 lineto
477 3520 lineto
end_ol grestore 
1.000000 1.000000 1.000000 srgb
n 19.113800 20.350000 m 19.113800 22.250000 l 31.950050 22.250000 l 31.950050 20.350000 l f
0.100000 slw
[] 0 sd
[] 0 sd
0 slj
0.000000 0.000000 0.000000 srgb
n 19.113800 20.350000 m 19.113800 22.250000 l 31.950050 22.250000 l 31.950050 20.350000 l cp s
gsave 24.760675 21.495000 translate 0.035278 -0.035278 scale
start_ol
477 3520 moveto
1192 3520 lineto
2097 1148 lineto
3007 3520 lineto
3722 3520 lineto
3722 0 lineto
3254 0 lineto
3254 3095 lineto
2339 704 lineto
1857 704 lineto
943 3095 lineto
943 0 lineto
477 0 lineto
477 3520 lineto
end_ol grestore 
gsave 25.312654 21.495000 translate 0.035278 -0.035278 scale
start_ol
477 3520 moveto
1192 3520 lineto
2097 1148 lineto
3007 3520 lineto
3722 3520 lineto
3722 0 lineto
3254 0 lineto
3254 3095 lineto
2339 704 lineto
1857 704 lineto
943 3095 lineto
943 0 lineto
477 0 lineto
477 3520 lineto
end_ol grestore 
gsave 25.864632 21.495000 translate 0.035278 -0.035278 scale
start_ol
1392 0 moveto
38 3520 lineto
539 3520 lineto
1663 556 lineto
2788 3520 lineto
3287 3520 lineto
1936 0 lineto
1392 0 lineto
end_ol grestore 
1.000000 1.000000 1.000000 srgb
n 19.121400 13.950000 m 19.121400 19.850000 l 23.106838 19.850000 l 23.106838 13.950000 l f
0.100000 slw
[] 0 sd
[] 0 sd
0 slj
0.000000 0.000000 0.000000 srgb
n 19.121400 13.950000 m 19.121400 19.850000 l 23.106838 19.850000 l 23.106838 13.950000 l cp s
gsave 20.314119 19.095000 translate 0.035278 -0.035278 scale
start_ol
477 3520 moveto
1192 3520 lineto
2097 1148 lineto
3007 3520 lineto
3722 3520 lineto
3722 0 lineto
3254 0 lineto
3254 3095 lineto
2339 704 lineto
1857 704 lineto
943 3095 lineto
943 0 lineto
477 0 lineto
477 3520 lineto
end_ol grestore 
gsave 20.866098 19.095000 translate 0.035278 -0.035278 scale
start_ol
1392 0 moveto
38 3520 lineto
539 3520 lineto
1663 556 lineto
2788 3520 lineto
3287 3520 lineto
1936 0 lineto
1392 0 lineto
end_ol grestore 
gsave 21.303190 19.095000 translate 0.035278 -0.035278 scale
start_ol
end_ol grestore 
gsave 21.505497 19.095000 translate 0.035278 -0.035278 scale
start_ol
603 384 moveto
1387 384 lineto
1387 3136 lineto
534 2944 lineto
534 3328 lineto
1382 3520 lineto
1862 3520 lineto
1862 384 lineto
2646 384 lineto
2646 0 lineto
603 0 lineto
603 384 lineto
end_ol grestore 
gsave 27.337300 17.099700 translate 0.035278 -0.035278 scale
start_ol
520 576 moveto
1021 576 lineto
1021 0 lineto
520 0 lineto
520 576 lineto
end_ol grestore 
gsave 27.539607 17.099700 translate 0.035278 -0.035278 scale
start_ol
520 576 moveto
1021 576 lineto
1021 0 lineto
520 0 lineto
520 576 lineto
end_ol grestore 
gsave 27.741914 17.099700 translate 0.035278 -0.035278 scale
start_ol
520 576 moveto
1021 576 lineto
1021 0 lineto
520 0 lineto
520 576 lineto
end_ol grestore 
1.000000 1.000000 1.000000 srgb
n 23.294800 13.952100 m 23.294800 19.852100 l 27.259712 19.852100 l 27.259712 13.952100 l f
0.100000 slw
[] 0 sd
[] 0 sd
0 slj
0.000000 0.000000 0.000000 srgb
n 23.294800 13.952100 m 23.294800 19.852100 l 27.259712 19.852100 l 27.259712 13.952100 l cp s
gsave 24.477256 19.097100 translate 0.035278 -0.035278 scale
start_ol
477 3520 moveto
1192 3520 lineto
2097 1148 lineto
3007 3520 lineto
3722 3520 lineto
3722 0 lineto
3254 0 lineto
3254 3095 lineto
2339 704 lineto
1857 704 lineto
943 3095 lineto
943 0 lineto
477 0 lineto
477 3520 lineto
end_ol grestore 
gsave 25.029235 19.097100 translate 0.035278 -0.035278 scale
start_ol
1392 0 moveto
38 3520 lineto
539 3520 lineto
1663 556 lineto
2788 3520 lineto
3287 3520 lineto
1936 0 lineto
1392 0 lineto
end_ol grestore 
gsave 25.466327 19.097100 translate 0.035278 -0.035278 scale
start_ol
end_ol grestore 
gsave 25.668634 19.097100 translate 0.035278 -0.035278 scale
start_ol
933 384 moveto
2608 384 lineto
2608 0 lineto
356 0 lineto
356 384 lineto
629 668 1100 1146 conicto
1572 1625 1694 1763 conicto
1924 2023 2015 2203 conicto
2107 2384 2107 2558 conicto
2107 2842 1908 3021 conicto
1710 3200 1392 3200 conicto
1166 3200 915 3104 conicto
665 3009 380 2816 conicto
380 3328 lineto
670 3455 921 3519 conicto
1173 3584 1382 3584 conicto
1933 3584 2261 3309 conicto
2589 3034 2589 2574 conicto
2589 2356 2507 2160 conicto
2425 1965 2209 1700 conicto
2149 1631 1831 1302 conicto
1513 974 933 384 conicto
end_ol grestore 
1.000000 1.000000 1.000000 srgb
n 28.039200 13.943400 m 28.039200 19.843400 l 31.978257 19.843400 l 31.978257 13.943400 l f
0.100000 slw
[] 0 sd
[] 0 sd
0 slj
0.000000 0.000000 0.000000 srgb
n 28.039200 13.943400 m 28.039200 19.843400 l 31.978257 19.843400 l 31.978257 13.943400 l cp s
gsave 29.172479 19.088400 translate 0.035278 -0.035278 scale
start_ol
477 3520 moveto
1192 3520 lineto
2097 1148 lineto
3007 3520 lineto
3722 3520 lineto
3722 0 lineto
3254 0 lineto
3254 3095 lineto
2339 704 lineto
1857 704 lineto
943 3095 lineto
943 0 lineto
477 0 lineto
477 3520 lineto
end_ol grestore 
gsave 29.724457 19.088400 translate 0.035278 -0.035278 scale
start_ol
1392 0 moveto
38 3520 lineto
539 3520 lineto
1663 556 lineto
2788 3520 lineto
3287 3520 lineto
1936 0 lineto
1392 0 lineto
end_ol grestore 
gsave 30.161549 19.088400 translate 0.035278 -0.035278 scale
start_ol
end_ol grestore 
gsave 30.363856 19.088400 translate 0.035278 -0.035278 scale
start_ol
477 3520 moveto
1123 3520 lineto
2696 575 lineto
2696 3520 lineto
3161 3520 lineto
3161 0 lineto
2515 0 lineto
943 2945 lineto
943 0 lineto
477 0 lineto
477 3520 lineto
end_ol grestore 
1.000000 1.000000 1.000000 srgb
n 19.121400 13.523500 m 19.121400 17.823500 l 23.110359 17.823500 l 23.110359 13.523500 l f
0.100000 slw
[] 0 sd
[] 0 sd
0 slj
0.000000 0.000000 0.000000 srgb
n 19.121400 13.523500 m 19.121400 17.823500 l 23.110359 17.823500 l 23.110359 13.523500 l cp s
gsave 20.659629 16.668500 translate 0.035278 -0.035278 scale
start_ol
2603 3392 moveto
2603 2944 lineto
2330 3073 2087 3136 conicto
1845 3200 1620 3200 conicto
1228 3200 1015 3052 conicto
803 2904 803 2631 conicto
803 2402 944 2285 conicto
1086 2169 1480 2097 conicto
1769 2039 lineto
2306 1937 2561 1678 conicto
2817 1420 2817 986 conicto
2817 469 2471 202 conicto
2126 -64 1458 -64 conicto
1207 -64 923 0 conicto
639 65 335 192 conicto
335 704 lineto
627 513 907 416 conicto
1188 320 1459 320 conicto
1869 320 2092 485 conicto
2316 650 2316 955 conicto
2316 1221 2155 1371 conicto
1995 1522 1629 1597 conicto
1337 1652 lineto
801 1756 561 1978 conicto
321 2201 321 2597 conicto
321 3056 652 3320 conicto
984 3584 1565 3584 conicto
1815 3584 2073 3536 conicto
2332 3488 2603 3392 conicto
end_ol grestore 
gsave 21.066749 16.668500 translate 0.035278 -0.035278 scale
start_ol
1917 3200 moveto
1394 3200 1086 2813 conicto
779 2426 779 1759 conicto
779 1094 1086 707 conicto
1394 320 1917 320 conicto
2439 320 2744 707 conicto
3050 1094 3050 1759 conicto
3050 2426 2744 2813 conicto
2439 3200 1917 3200 conicto
1916 3584 moveto
2662 3584 3108 3088 conicto
3555 2593 3555 1759 conicto
3555 927 3108 431 conicto
2662 -64 1916 -64 conicto
1168 -64 720 430 conicto
273 925 273 1759 conicto
273 2593 720 3088 conicto
1168 3584 1916 3584 conicto
end_ol grestore 
1.000000 1.000000 1.000000 srgb
n 19.124800 12.389900 m 19.124800 15.084518 l 23.093760 15.084518 l 23.093760 12.389900 l f
0.100000 slw
[] 0 sd
[] 0 sd
0 slj
0.000000 0.000000 0.000000 srgb
n 19.124800 12.389900 m 19.124800 15.084518 l 23.093760 15.084518 l 23.093760 12.389900 l cp s
gsave 20.505530 13.932209 translate 0.035278 -0.035278 scale
start_ol
1663 3047 moveto
1012 1280 lineto
2316 1280 lineto
1663 3047 lineto
1392 3520 moveto
1936 3520 lineto
3287 0 lineto
2788 0 lineto
2465 896 lineto
867 896 lineto
544 0 lineto
38 0 lineto
1392 3520 lineto
end_ol grestore 
gsave 20.942622 13.932209 translate 0.035278 -0.035278 scale
start_ol
957 3136 moveto
957 1792 lineto
1560 1792 lineto
1895 1792 2078 1967 conicto
2261 2142 2261 2465 conicto
2261 2786 2078 2961 conicto
1895 3136 1560 3136 conicto
957 3136 lineto
477 3520 moveto
1560 3520 lineto
2156 3520 2461 3251 conicto
2767 2983 2767 2465 conicto
2767 1943 2461 1675 conicto
2156 1408 1560 1408 conicto
957 1408 lineto
957 0 lineto
477 0 lineto
477 3520 lineto
end_ol grestore 
gsave 21.327260 13.932209 translate 0.035278 -0.035278 scale
start_ol
957 3136 moveto
957 1792 lineto
1560 1792 lineto
1895 1792 2078 1967 conicto
2261 2142 2261 2465 conicto
2261 2786 2078 2961 conicto
1895 3136 1560 3136 conicto
957 3136 lineto
477 3520 moveto
1560 3520 lineto
2156 3520 2461 3251 conicto
2767 2983 2767 2465 conicto
2767 1943 2461 1675 conicto
2156 1408 1560 1408 conicto
957 1408 lineto
957 0 lineto
477 0 lineto
477 3520 lineto
end_ol grestore 
1.000000 1.000000 1.000000 srgb
n 23.302000 13.523400 m 23.302000 17.823400 l 27.250292 17.823400 l 27.250292 13.523400 l f
0.100000 slw
[] 0 sd
[] 0 sd
0 slj
0.000000 0.000000 0.000000 srgb
n 23.302000 13.523400 m 23.302000 17.823400 l 27.250292 17.823400 l 27.250292 13.523400 l cp s
gsave 24.819896 16.668400 translate 0.035278 -0.035278 scale
start_ol
2603 3392 moveto
2603 2944 lineto
2330 3073 2087 3136 conicto
1845 3200 1620 3200 conicto
1228 3200 1015 3052 conicto
803 2904 803 2631 conicto
803 2402 944 2285 conicto
1086 2169 1480 2097 conicto
1769 2039 lineto
2306 1937 2561 1678 conicto
2817 1420 2817 986 conicto
2817 469 2471 202 conicto
2126 -64 1458 -64 conicto
1207 -64 923 0 conicto
639 65 335 192 conicto
335 704 lineto
627 513 907 416 conicto
1188 320 1459 320 conicto
1869 320 2092 485 conicto
2316 650 2316 955 conicto
2316 1221 2155 1371 conicto
1995 1522 1629 1597 conicto
1337 1652 lineto
801 1756 561 1978 conicto
321 2201 321 2597 conicto
321 3056 652 3320 conicto
984 3584 1565 3584 conicto
1815 3584 2073 3536 conicto
2332 3488 2603 3392 conicto
end_ol grestore 
gsave 25.227015 16.668400 translate 0.035278 -0.035278 scale
start_ol
1917 3200 moveto
1394 3200 1086 2813 conicto
779 2426 779 1759 conicto
779 1094 1086 707 conicto
1394 320 1917 320 conicto
2439 320 2744 707 conicto
3050 1094 3050 1759 conicto
3050 2426 2744 2813 conicto
2439 3200 1917 3200 conicto
1916 3584 moveto
2662 3584 3108 3088 conicto
3555 2593 3555 1759 conicto
3555 927 3108 431 conicto
2662 -64 1916 -64 conicto
1168 -64 720 430 conicto
273 925 273 1759 conicto
273 2593 720 3088 conicto
1168 3584 1916 3584 conicto
end_ol grestore 
1.000000 1.000000 1.000000 srgb
n 28.049300 13.520400 m 28.049300 17.820400 l 31.982996 17.820400 l 31.982996 13.520400 l f
0.100000 slw
[] 0 sd
[] 0 sd
0 slj
0.000000 0.000000 0.000000 srgb
n 28.049300 13.520400 m 28.049300 17.820400 l 31.982996 17.820400 l 31.982996 13.520400 l cp s
gsave 29.559898 16.665400 translate 0.035278 -0.035278 scale
start_ol
2603 3392 moveto
2603 2944 lineto
2330 3073 2087 3136 conicto
1845 3200 1620 3200 conicto
1228 3200 1015 3052 conicto
803 2904 803 2631 conicto
803 2402 944 2285 conicto
1086 2169 1480 2097 conicto
1769 2039 lineto
2306 1937 2561 1678 conicto
2817 1420 2817 986 conicto
2817 469 2471 202 conicto
2126 -64 1458 -64 conicto
1207 -64 923 0 conicto
639 65 335 192 conicto
335 704 lineto
627 513 907 416 conicto
1188 320 1459 320 conicto
1869 320 2092 485 conicto
2316 650 2316 955 conicto
2316 1221 2155 1371 conicto
1995 1522 1629 1597 conicto
1337 1652 lineto
801 1756 561 1978 conicto
321 2201 321 2597 conicto
321 3056 652 3320 conicto
984 3584 1565 3584 conicto
1815 3584 2073 3536 conicto
2332 3488 2603 3392 conicto
end_ol grestore 
gsave 29.967017 16.665400 translate 0.035278 -0.035278 scale
start_ol
1917 3200 moveto
1394 3200 1086 2813 conicto
779 2426 779 1759 conicto
779 1094 1086 707 conicto
1394 320 1917 320 conicto
2439 320 2744 707 conicto
3050 1094 3050 1759 conicto
3050 2426 2744 2813 conicto
2439 3200 1917 3200 conicto
1916 3584 moveto
2662 3584 3108 3088 conicto
3555 2593 3555 1759 conicto
3555 927 3108 431 conicto
2662 -64 1916 -64 conicto
1168 -64 720 430 conicto
273 925 273 1759 conicto
273 2593 720 3088 conicto
1168 3584 1916 3584 conicto
end_ol grestore 
1.000000 1.000000 1.000000 srgb
n 23.297300 12.383000 m 23.297300 15.077618 l 27.259912 15.077618 l 27.259912 12.383000 l f
0.100000 slw
[] 0 sd
[] 0 sd
0 slj
0.000000 0.000000 0.000000 srgb
n 23.297300 12.383000 m 23.297300 15.077618 l 27.259912 15.077618 l 27.259912 12.383000 l cp s
gsave 24.674856 13.925309 translate 0.035278 -0.035278 scale
start_ol
1663 3047 moveto
1012 1280 lineto
2316 1280 lineto
1663 3047 lineto
1392 3520 moveto
1936 3520 lineto
3287 0 lineto
2788 0 lineto
2465 896 lineto
867 896 lineto
544 0 lineto
38 0 lineto
1392 3520 lineto
end_ol grestore 
gsave 25.111948 13.925309 translate 0.035278 -0.035278 scale
start_ol
957 3136 moveto
957 1792 lineto
1560 1792 lineto
1895 1792 2078 1967 conicto
2261 2142 2261 2465 conicto
2261 2786 2078 2961 conicto
1895 3136 1560 3136 conicto
957 3136 lineto
477 3520 moveto
1560 3520 lineto
2156 3520 2461 3251 conicto
2767 2983 2767 2465 conicto
2767 1943 2461 1675 conicto
2156 1408 1560 1408 conicto
957 1408 lineto
957 0 lineto
477 0 lineto
477 3520 lineto
end_ol grestore 
gsave 25.496586 13.925309 translate 0.035278 -0.035278 scale
start_ol
957 3136 moveto
957 1792 lineto
1560 1792 lineto
1895 1792 2078 1967 conicto
2261 2142 2261 2465 conicto
2261 2786 2078 2961 conicto
1895 3136 1560 3136 conicto
957 3136 lineto
477 3520 moveto
1560 3520 lineto
2156 3520 2461 3251 conicto
2767 2983 2767 2465 conicto
2767 1943 2461 1675 conicto
2156 1408 1560 1408 conicto
957 1408 lineto
957 0 lineto
477 0 lineto
477 3520 lineto
end_ol grestore 
1.000000 1.000000 1.000000 srgb
n 28.046400 12.365700 m 28.046400 15.060318 l 31.982988 15.060318 l 31.982988 12.365700 l f
0.100000 slw
[] 0 sd
[] 0 sd
0 slj
0.000000 0.000000 0.000000 srgb
n 28.046400 12.365700 m 28.046400 15.060318 l 31.982988 15.060318 l 31.982988 12.365700 l cp s
gsave 29.410944 13.908009 translate 0.035278 -0.035278 scale
start_ol
1663 3047 moveto
1012 1280 lineto
2316 1280 lineto
1663 3047 lineto
1392 3520 moveto
1936 3520 lineto
3287 0 lineto
2788 0 lineto
2465 896 lineto
867 896 lineto
544 0 lineto
38 0 lineto
1392 3520 lineto
end_ol grestore 
gsave 29.848036 13.908009 translate 0.035278 -0.035278 scale
start_ol
957 3136 moveto
957 1792 lineto
1560 1792 lineto
1895 1792 2078 1967 conicto
2261 2142 2261 2465 conicto
2261 2786 2078 2961 conicto
1895 3136 1560 3136 conicto
957 3136 lineto
477 3520 moveto
1560 3520 lineto
2156 3520 2461 3251 conicto
2767 2983 2767 2465 conicto
2767 1943 2461 1675 conicto
2156 1408 1560 1408 conicto
957 1408 lineto
957 0 lineto
477 0 lineto
477 3520 lineto
end_ol grestore 
gsave 30.232674 13.908009 translate 0.035278 -0.035278 scale
start_ol
957 3136 moveto
957 1792 lineto
1560 1792 lineto
1895 1792 2078 1967 conicto
2261 2142 2261 2465 conicto
2261 2786 2078 2961 conicto
1895 3136 1560 3136 conicto
957 3136 lineto
477 3520 moveto
1560 3520 lineto
2156 3520 2461 3251 conicto
2767 2983 2767 2465 conicto
2767 1943 2461 1675 conicto
2156 1408 1560 1408 conicto
957 1408 lineto
957 0 lineto
477 0 lineto
477 3520 lineto
end_ol grestore 
showpage
