%!PS-Adobe-3.0 EPSF-3.0
%%Title: ./plots/mixed_large_SLA_ta.eps
%%Creator: matplotlib version 1.5.3, http://matplotlib.org/
%%CreationDate: Sun Nov 13 15:48:22 2016
%%Orientation: portrait
%%BoundingBox: 18 180 594 612
%%EndComments
%%BeginProlog
/mpldict 8 dict def
mpldict begin
/m { moveto } bind def
/l { lineto } bind def
/r { rlineto } bind def
/c { curveto } bind def
/cl { closepath } bind def
/box {
m
1 index 0 r
0 exch r
neg 0 r
cl
} bind def
/clipbox {
box
clip
newpath
} bind def
%!PS-Adobe-3.0 Resource-Font
%%Title: Bitstream Vera Sans
%%Copyright: Copyright (c) 2003 by Bitstream, Inc. All Rights Reserved.
%%Creator: Converted from TrueType to type 3 by PPR
25 dict begin
/_d{bind def}bind def
/_m{moveto}_d
/_l{lineto}_d
/_cl{closepath eofill}_d
/_c{curveto}_d
/_sc{7 -1 roll{setcachedevice}{pop pop pop pop pop pop}ifelse}_d
/_e{exec}_d
/FontName /BitstreamVeraSans-Roman def
/PaintType 0 def
/FontMatrix[.001 0 0 .001 0 0]def
/FontBBox[-183 -236 1287 928]def
/FontType 3 def
/Encoding [ /space /percent /parenleft /parenright /zero /one /two /four /six /eight /A /L /R /S /T /a /c /d /e /i /o /p /r /s /t /x /atilde /ccedilla /tilde /cedilla ] def
/FontInfo 10 dict dup begin
/FamilyName (Bitstream Vera Sans) def
/FullName (Bitstream Vera Sans) def
/Notice (Copyright (c) 2003 by Bitstream, Inc. All Rights Reserved. Bitstream Vera is a trademark of Bitstream, Inc.) def
/Weight (Roman) def
/Version (Release 1.10) def
/ItalicAngle 0.0 def
/isFixedPitch false def
/UnderlinePosition -213 def
/UnderlineThickness 143 def
end readonly def
/CharStrings 30 dict dup begin
/space{318 0 0 0 0 0 _sc
}_d
/percent{{950 0 55 -13 895 742 _sc
727 321 _m
699 321 676 309 660 285 _c
644 261 636 227 636 184 _c
636 142 644 108 660 84 _c
676 60 699 48 727 48 _c
755 48 777 60 793 84 _c
809 108 817 142 817 184 _c
817 226 809 260 793 284 _c
777 308 755 321 727 321 _c
727 383 _m
778 383 819 365 849 329 _c
879 293 895 244 895 184 _c
895 123 879 75 849 40 _c
819 4 778 -13 727 -13 _c
}_e{675 -13 633 4 603 40 _c
573 75 558 123 558 184 _c
558 245 573 293 603 329 _c
633 365 675 383 727 383 _c
223 680 _m
195 680 173 667 157 643 _c
141 619 133 586 133 544 _c
133 500 141 467 157 443 _c
173 419 195 407 223 407 _c
251 407 274 419 290 443 _c
306 467 314 500 314 544 _c
314 586 305 619 289 643 _c
273 667 251 680 223 680 _c
664 742 _m
742 742 _l
286 -13 _l
}_e{208 -13 _l
664 742 _l
223 742 _m
274 742 315 724 346 688 _c
376 652 392 604 392 544 _c
392 482 376 434 346 398 _c
316 362 275 345 223 345 _c
171 345 130 362 100 398 _c
70 434 55 482 55 544 _c
55 604 70 652 100 688 _c
130 724 171 742 223 742 _c
_cl}_e}_d
/parenleft{390 0 86 -131 310 759 _sc
310 759 _m
266 683 234 609 213 536 _c
191 463 181 389 181 314 _c
181 238 191 164 213 91 _c
234 17 266 -56 310 -131 _c
232 -131 _l
183 -54 146 20 122 94 _c
98 168 86 241 86 314 _c
86 386 98 459 122 533 _c
146 607 182 682 232 759 _c
310 759 _l
_cl}_d
/parenright{390 0 80 -131 304 759 _sc
80 759 _m
158 759 _l
206 682 243 607 267 533 _c
291 459 304 386 304 314 _c
304 241 291 168 267 94 _c
243 20 206 -54 158 -131 _c
80 -131 _l
123 -56 155 17 177 91 _c
198 164 209 238 209 314 _c
209 389 198 463 177 536 _c
155 609 123 683 80 759 _c
_cl}_d
/zero{636 0 66 -13 570 742 _sc
318 664 _m
267 664 229 639 203 589 _c
177 539 165 464 165 364 _c
165 264 177 189 203 139 _c
229 89 267 64 318 64 _c
369 64 407 89 433 139 _c
458 189 471 264 471 364 _c
471 464 458 539 433 589 _c
407 639 369 664 318 664 _c
318 742 _m
399 742 461 709 505 645 _c
548 580 570 486 570 364 _c
570 241 548 147 505 83 _c
461 19 399 -13 318 -13 _c
236 -13 173 19 130 83 _c
87 147 66 241 66 364 _c
66 486 87 580 130 645 _c
173 709 236 742 318 742 _c
_cl}_d
/one{636 0 110 0 544 729 _sc
124 83 _m
285 83 _l
285 639 _l
110 604 _l
110 694 _l
284 729 _l
383 729 _l
383 83 _l
544 83 _l
544 0 _l
124 0 _l
124 83 _l
_cl}_d
/two{{636 0 73 0 536 742 _sc
192 83 _m
536 83 _l
536 0 _l
73 0 _l
73 83 _l
110 121 161 173 226 239 _c
290 304 331 346 348 365 _c
380 400 402 430 414 455 _c
426 479 433 504 433 528 _c
433 566 419 598 392 622 _c
365 646 330 659 286 659 _c
255 659 222 653 188 643 _c
154 632 117 616 78 594 _c
78 694 _l
118 710 155 722 189 730 _c
223 738 255 742 284 742 _c
}_e{359 742 419 723 464 685 _c
509 647 532 597 532 534 _c
532 504 526 475 515 449 _c
504 422 484 390 454 354 _c
446 344 420 317 376 272 _c
332 227 271 164 192 83 _c
_cl}_e}_d
/four{636 0 49 0 580 729 _sc
378 643 _m
129 254 _l
378 254 _l
378 643 _l
352 729 _m
476 729 _l
476 254 _l
580 254 _l
580 172 _l
476 172 _l
476 0 _l
378 0 _l
378 172 _l
49 172 _l
49 267 _l
352 729 _l
_cl}_d
/six{{636 0 70 -13 573 742 _sc
330 404 _m
286 404 251 388 225 358 _c
199 328 186 286 186 234 _c
186 181 199 139 225 109 _c
251 79 286 64 330 64 _c
374 64 409 79 435 109 _c
461 139 474 181 474 234 _c
474 286 461 328 435 358 _c
409 388 374 404 330 404 _c
526 713 _m
526 623 _l
501 635 476 644 451 650 _c
425 656 400 659 376 659 _c
310 659 260 637 226 593 _c
}_e{192 549 172 482 168 394 _c
187 422 211 444 240 459 _c
269 474 301 482 336 482 _c
409 482 467 459 509 415 _c
551 371 573 310 573 234 _c
573 159 550 99 506 54 _c
462 9 403 -13 330 -13 _c
246 -13 181 19 137 83 _c
92 147 70 241 70 364 _c
70 479 97 571 152 639 _c
206 707 280 742 372 742 _c
396 742 421 739 447 735 _c
472 730 498 723 526 713 _c
_cl}_e}_d
/eight{{636 0 68 -13 568 742 _sc
318 346 _m
271 346 234 333 207 308 _c
180 283 167 249 167 205 _c
167 161 180 126 207 101 _c
234 76 271 64 318 64 _c
364 64 401 76 428 102 _c
455 127 469 161 469 205 _c
469 249 455 283 429 308 _c
402 333 365 346 318 346 _c
219 388 _m
177 398 144 418 120 447 _c
96 476 85 511 85 553 _c
85 611 105 657 147 691 _c
188 725 245 742 318 742 _c
}_e{390 742 447 725 489 691 _c
530 657 551 611 551 553 _c
551 511 539 476 515 447 _c
491 418 459 398 417 388 _c
464 377 501 355 528 323 _c
554 291 568 251 568 205 _c
568 134 546 80 503 43 _c
459 5 398 -13 318 -13 _c
237 -13 175 5 132 43 _c
89 80 68 134 68 205 _c
68 251 81 291 108 323 _c
134 355 171 377 219 388 _c
183 544 _m
183 506 194 476 218 455 _c
}_e{242 434 275 424 318 424 _c
360 424 393 434 417 455 _c
441 476 453 506 453 544 _c
453 582 441 611 417 632 _c
393 653 360 664 318 664 _c
275 664 242 653 218 632 _c
194 611 183 582 183 544 _c
_cl}_e}_d
/A{684 0 8 0 676 729 _sc
342 632 _m
208 269 _l
476 269 _l
342 632 _l
286 729 _m
398 729 _l
676 0 _l
573 0 _l
507 187 _l
178 187 _l
112 0 _l
8 0 _l
286 729 _l
_cl}_d
/L{557 0 98 0 552 729 _sc
98 729 _m
197 729 _l
197 83 _l
552 83 _l
552 0 _l
98 0 _l
98 729 _l
_cl}_d
/R{{695 0 98 0 666 729 _sc
444 342 _m
465 334 486 319 506 296 _c
526 272 546 240 566 199 _c
666 0 _l
560 0 _l
467 187 _l
443 235 419 268 397 284 _c
374 300 343 308 304 308 _c
197 308 _l
197 0 _l
98 0 _l
98 729 _l
321 729 _l
404 729 466 711 507 677 _c
548 642 569 589 569 519 _c
569 473 558 434 537 404 _c
515 374 484 353 444 342 _c
197 648 _m
197 389 _l
321 389 _l
}_e{368 389 404 400 428 422 _c
452 444 465 476 465 519 _c
465 561 452 593 428 615 _c
404 637 368 648 321 648 _c
197 648 _l
_cl}_e}_d
/S{{635 0 66 -13 579 742 _sc
535 705 _m
535 609 _l
497 627 462 640 429 649 _c
395 657 363 662 333 662 _c
279 662 237 651 208 631 _c
179 610 165 580 165 542 _c
165 510 174 485 194 469 _c
213 452 250 439 304 429 _c
364 417 _l
437 403 491 378 526 343 _c
561 307 579 260 579 201 _c
579 130 555 77 508 41 _c
460 5 391 -13 300 -13 _c
265 -13 228 -9 189 -2 _c
}_e{150 5 110 16 69 32 _c
69 134 _l
109 111 148 94 186 83 _c
224 71 262 66 300 66 _c
356 66 399 77 430 99 _c
460 121 476 152 476 194 _c
476 230 465 258 443 278 _c
421 298 385 313 335 323 _c
275 335 _l
201 349 148 372 115 404 _c
82 435 66 478 66 534 _c
66 598 88 649 134 686 _c
179 723 242 742 322 742 _c
356 742 390 739 426 733 _c
461 727 497 717 535 705 _c
}_e{_cl}_e}_d
/T{611 0 -2 0 614 729 _sc
-2 729 _m
614 729 _l
614 646 _l
355 646 _l
355 0 _l
256 0 _l
256 646 _l
-2 646 _l
-2 729 _l
_cl}_d
/a{{613 0 60 -13 522 560 _sc
343 275 _m
270 275 220 266 192 250 _c
164 233 150 205 150 165 _c
150 133 160 107 181 89 _c
202 70 231 61 267 61 _c
317 61 357 78 387 114 _c
417 149 432 196 432 255 _c
432 275 _l
343 275 _l
522 312 _m
522 0 _l
432 0 _l
432 83 _l
411 49 385 25 355 10 _c
325 -5 287 -13 243 -13 _c
187 -13 142 2 109 33 _c
76 64 60 106 60 159 _c
}_e{60 220 80 266 122 298 _c
163 329 224 345 306 345 _c
432 345 _l
432 354 _l
432 395 418 427 391 450 _c
364 472 326 484 277 484 _c
245 484 215 480 185 472 _c
155 464 127 453 100 439 _c
100 522 _l
132 534 164 544 195 550 _c
226 556 256 560 286 560 _c
365 560 424 539 463 498 _c
502 457 522 395 522 312 _c
_cl}_e}_d
/c{{550 0 55 -13 488 560 _sc
488 526 _m
488 442 _l
462 456 437 466 411 473 _c
385 480 360 484 334 484 _c
276 484 230 465 198 428 _c
166 391 150 339 150 273 _c
150 206 166 154 198 117 _c
230 80 276 62 334 62 _c
360 62 385 65 411 72 _c
437 79 462 90 488 104 _c
488 21 _l
462 9 436 0 410 -5 _c
383 -10 354 -13 324 -13 _c
242 -13 176 12 128 64 _c
}_e{79 115 55 185 55 273 _c
55 362 79 432 128 483 _c
177 534 244 560 330 560 _c
358 560 385 557 411 551 _c
437 545 463 537 488 526 _c
_cl}_e}_d
/d{{635 0 55 -13 544 760 _sc
454 464 _m
454 760 _l
544 760 _l
544 0 _l
454 0 _l
454 82 _l
435 49 411 25 382 10 _c
353 -5 319 -13 279 -13 _c
213 -13 159 13 117 65 _c
75 117 55 187 55 273 _c
55 359 75 428 117 481 _c
159 533 213 560 279 560 _c
319 560 353 552 382 536 _c
411 520 435 496 454 464 _c
148 273 _m
148 207 161 155 188 117 _c
215 79 253 61 301 61 _c
}_e{348 61 385 79 413 117 _c
440 155 454 207 454 273 _c
454 339 440 390 413 428 _c
385 466 348 485 301 485 _c
253 485 215 466 188 428 _c
161 390 148 339 148 273 _c
_cl}_e}_d
/e{{615 0 55 -13 562 560 _sc
562 296 _m
562 252 _l
149 252 _l
153 190 171 142 205 110 _c
238 78 284 62 344 62 _c
378 62 412 66 444 74 _c
476 82 509 95 541 113 _c
541 28 _l
509 14 476 3 442 -3 _c
408 -9 373 -13 339 -13 _c
251 -13 182 12 131 62 _c
80 112 55 181 55 268 _c
55 357 79 428 127 481 _c
175 533 241 560 323 560 _c
397 560 455 536 498 489 _c
}_e{540 441 562 377 562 296 _c
472 322 _m
471 371 457 410 431 440 _c
404 469 368 484 324 484 _c
274 484 234 469 204 441 _c
174 413 156 373 152 322 _c
472 322 _l
_cl}_e}_d
/i{278 0 94 0 184 760 _sc
94 547 _m
184 547 _l
184 0 _l
94 0 _l
94 547 _l
94 760 _m
184 760 _l
184 646 _l
94 646 _l
94 760 _l
_cl}_d
/o{612 0 55 -13 557 560 _sc
306 484 _m
258 484 220 465 192 427 _c
164 389 150 338 150 273 _c
150 207 163 156 191 118 _c
219 80 257 62 306 62 _c
354 62 392 80 420 118 _c
448 156 462 207 462 273 _c
462 337 448 389 420 427 _c
392 465 354 484 306 484 _c
306 560 _m
384 560 445 534 490 484 _c
534 433 557 363 557 273 _c
557 183 534 113 490 63 _c
445 12 384 -13 306 -13 _c
227 -13 165 12 121 63 _c
77 113 55 183 55 273 _c
55 363 77 433 121 484 _c
165 534 227 560 306 560 _c
_cl}_d
/p{{635 0 91 -207 580 560 _sc
181 82 _m
181 -207 _l
91 -207 _l
91 547 _l
181 547 _l
181 464 _l
199 496 223 520 252 536 _c
281 552 316 560 356 560 _c
422 560 476 533 518 481 _c
559 428 580 359 580 273 _c
580 187 559 117 518 65 _c
476 13 422 -13 356 -13 _c
316 -13 281 -5 252 10 _c
223 25 199 49 181 82 _c
487 273 _m
487 339 473 390 446 428 _c
418 466 381 485 334 485 _c
}_e{286 485 249 466 222 428 _c
194 390 181 339 181 273 _c
181 207 194 155 222 117 _c
249 79 286 61 334 61 _c
381 61 418 79 446 117 _c
473 155 487 207 487 273 _c
_cl}_e}_d
/r{411 0 91 0 411 560 _sc
411 463 _m
401 469 390 473 378 476 _c
366 478 353 480 339 480 _c
288 480 249 463 222 430 _c
194 397 181 350 181 288 _c
181 0 _l
91 0 _l
91 547 _l
181 547 _l
181 462 _l
199 495 224 520 254 536 _c
284 552 321 560 365 560 _c
371 560 378 559 386 559 _c
393 558 401 557 411 555 _c
411 463 _l
_cl}_d
/s{{521 0 54 -13 472 560 _sc
443 531 _m
443 446 _l
417 458 391 468 364 475 _c
336 481 308 485 279 485 _c
234 485 200 478 178 464 _c
156 450 145 430 145 403 _c
145 382 153 366 169 354 _c
185 342 217 330 265 320 _c
296 313 _l
360 299 405 279 432 255 _c
458 230 472 195 472 151 _c
472 100 452 60 412 31 _c
372 1 316 -13 246 -13 _c
216 -13 186 -10 154 -5 _c
}_e{122 0 89 8 54 20 _c
54 113 _l
87 95 120 82 152 74 _c
184 65 216 61 248 61 _c
290 61 323 68 346 82 _c
368 96 380 117 380 144 _c
380 168 371 187 355 200 _c
339 213 303 226 247 238 _c
216 245 _l
160 257 119 275 95 299 _c
70 323 58 356 58 399 _c
58 450 76 490 112 518 _c
148 546 200 560 268 560 _c
301 560 332 557 362 552 _c
391 547 418 540 443 531 _c
}_e{_cl}_e}_d
/t{392 0 27 0 368 702 _sc
183 702 _m
183 547 _l
368 547 _l
368 477 _l
183 477 _l
183 180 _l
183 135 189 106 201 94 _c
213 81 238 75 276 75 _c
368 75 _l
368 0 _l
276 0 _l
206 0 158 13 132 39 _c
106 65 93 112 93 180 _c
93 477 _l
27 477 _l
27 547 _l
93 547 _l
93 702 _l
183 702 _l
_cl}_d
/x{592 0 29 0 559 547 _sc
549 547 _m
351 281 _l
559 0 _l
453 0 _l
294 215 _l
135 0 _l
29 0 _l
241 286 _l
47 547 _l
153 547 _l
298 352 _l
443 547 _l
549 547 _l
_cl}_d
/atilde{613 0 60 -13 522 777 _sc
false CharStrings /a get exec
gsave 40 0 translate
false CharStrings /tilde get exec
grestore }_d
/ccedilla{550 0 55 -192 488 560 _sc
false CharStrings /c get exec
gsave 70 0 translate
false CharStrings /cedilla get exec
grestore }_d
/tilde{{500 0 89 639 411 777 _sc
248 669 _m
220 696 _l
212 702 206 707 201 710 _c
195 713 191 715 187 715 _c
174 715 165 709 159 697 _c
153 685 150 665 150 639 _c
89 639 _l
89 683 98 717 115 741 _c
131 765 154 777 184 777 _c
196 777 208 774 218 770 _c
228 765 240 757 252 747 _c
280 720 _l
287 713 293 708 299 705 _c
304 702 309 701 313 701 _c
325 701 334 707 340 719 _c
}_e{346 731 349 750 350 777 _c
411 777 _l
410 733 401 699 385 675 _c
368 651 345 639 316 639 _c
303 639 291 641 281 646 _c
271 650 260 658 248 669 _c
_cl}_e}_d
/cedilla{500 0 142 -192 344 0 _sc
291 0 _m
309 -19 322 -37 331 -55 _c
339 -72 344 -88 344 -104 _c
344 -132 334 -154 315 -169 _c
295 -184 266 -192 228 -192 _c
213 -192 198 -191 184 -189 _c
170 -187 156 -184 142 -180 _c
142 -116 _l
153 -121 165 -125 177 -128 _c
189 -130 202 -132 218 -132 _c
237 -132 251 -128 261 -120 _c
271 -112 276 -100 276 -86 _c
276 -76 272 -64 265 -50 _c
258 -36 247 -19 233 0 _c
291 0 _l
_cl}_d
end readonly def

/BuildGlyph
 {exch begin
 CharStrings exch
 2 copy known not{pop /.notdef}if
 true 3 1 roll get exec
 end}_d

/BuildChar {
 1 index /Encoding get exch get
 1 index /BuildGlyph get exec
}_d

FontName currentdict end definefont pop
end
%%EndProlog
mpldict begin
18 180 translate
576 432 0 0 clipbox
100000 setmiterlimit
gsave
0 0 m
576 0 l
576 432 l
0 432 l
cl
1.000 setgray
fill
grestore
gsave
72 43.2 m
518.4 43.2 l
518.4 388.8 l
72 388.8 l
cl
1.000 setgray
fill
grestore
1.000 setlinewidth
0 setlinejoin
0 setlinecap
[] 0 setdash
0.000 setgray
gsave
446.4 345.6 72 43.2 clipbox
72 43.2 m
85.806186 43.2 l
85.806186 252.651211 l
72 252.651211 l
cl
gsave
0.863 0.925 0.788 setrgbcolor
fill
grestore
stroke
grestore
gsave
446.4 345.6 72 43.2 clipbox
225.402062 43.2 m
239.208247 43.2 l
239.208247 256.36507 l
225.402062 256.36507 l
cl
gsave
0.863 0.925 0.788 setrgbcolor
fill
grestore
stroke
grestore
gsave
446.4 345.6 72 43.2 clipbox
378.804124 43.2 m
392.610309 43.2 l
392.610309 254.732045 l
378.804124 254.732045 l
cl
gsave
0.863 0.925 0.788 setrgbcolor
fill
grestore
stroke
grestore
gsave
446.4 345.6 72 43.2 clipbox
85.806186 43.2 m
99.612371 43.2 l
99.612371 242.974653 l
85.806186 242.974653 l
cl
gsave
0.667 0.855 0.800 setrgbcolor
fill
grestore
stroke
grestore
gsave
446.4 345.6 72 43.2 clipbox
239.208247 43.2 m
253.014433 43.2 l
253.014433 244.674645 l
239.208247 244.674645 l
cl
gsave
0.667 0.855 0.800 setrgbcolor
fill
grestore
stroke
grestore
gsave
446.4 345.6 72 43.2 clipbox
392.610309 43.2 m
406.416495 43.2 l
406.416495 257.491521 l
392.610309 257.491521 l
cl
gsave
0.667 0.855 0.800 setrgbcolor
fill
grestore
stroke
grestore
gsave
446.4 345.6 72 43.2 clipbox
99.612371 43.2 m
113.418557 43.2 l
113.418557 255.748594 l
99.612371 255.748594 l
cl
gsave
0.471 0.776 0.816 setrgbcolor
fill
grestore
stroke
grestore
gsave
446.4 345.6 72 43.2 clipbox
253.014433 43.2 m
266.820619 43.2 l
266.820619 255.748594 l
253.014433 255.748594 l
cl
gsave
0.471 0.776 0.816 setrgbcolor
fill
grestore
stroke
grestore
gsave
446.4 345.6 72 43.2 clipbox
406.416495 43.2 m
420.22268 43.2 l
420.22268 255.748594 l
406.416495 255.748594 l
cl
gsave
0.471 0.776 0.816 setrgbcolor
fill
grestore
stroke
grestore
gsave
446.4 345.6 72 43.2 clipbox
113.418557 43.2 m
127.224742 43.2 l
127.224742 244.027728 l
113.418557 244.027728 l
cl
gsave
0.282 0.702 0.827 setrgbcolor
fill
grestore
stroke
grestore
gsave
446.4 345.6 72 43.2 clipbox
266.820619 43.2 m
280.626804 43.2 l
280.626804 244.994682 l
266.820619 244.994682 l
cl
gsave
0.282 0.702 0.827 setrgbcolor
fill
grestore
stroke
grestore
gsave
446.4 345.6 72 43.2 clipbox
420.22268 43.2 m
434.028866 43.2 l
434.028866 250.169279 l
420.22268 250.169279 l
cl
gsave
0.282 0.702 0.827 setrgbcolor
fill
grestore
stroke
grestore
gsave
446.4 345.6 72 43.2 clipbox
127.224742 43.2 m
141.030928 43.2 l
141.030928 249.228275 l
127.224742 249.228275 l
cl
gsave
0.243 0.580 0.753 setrgbcolor
fill
grestore
stroke
grestore
gsave
446.4 345.6 72 43.2 clipbox
280.626804 43.2 m
294.43299 43.2 l
294.43299 251.658259 l
280.626804 251.658259 l
cl
gsave
0.243 0.580 0.753 setrgbcolor
fill
grestore
stroke
grestore
gsave
446.4 345.6 72 43.2 clipbox
434.028866 43.2 m
447.835052 43.2 l
447.835052 250.059321 l
434.028866 250.059321 l
cl
gsave
0.243 0.580 0.753 setrgbcolor
fill
grestore
stroke
grestore
gsave
446.4 345.6 72 43.2 clipbox
141.030928 43.2 m
154.837113 43.2 l
154.837113 204.045755 l
141.030928 204.045755 l
cl
gsave
0.204 0.455 0.675 setrgbcolor
fill
grestore
stroke
grestore
gsave
446.4 345.6 72 43.2 clipbox
294.43299 43.2 m
308.239175 43.2 l
308.239175 198.000133 l
294.43299 198.000133 l
cl
gsave
0.204 0.455 0.675 setrgbcolor
fill
grestore
stroke
grestore
gsave
446.4 345.6 72 43.2 clipbox
447.835052 43.2 m
461.641237 43.2 l
461.641237 213.055825 l
447.835052 213.055825 l
cl
gsave
0.204 0.455 0.675 setrgbcolor
fill
grestore
stroke
grestore
gsave
446.4 345.6 72 43.2 clipbox
154.837113 43.2 m
168.643299 43.2 l
168.643299 192.919504 l
154.837113 192.919504 l
cl
gsave
0.165 0.333 0.600 setrgbcolor
fill
grestore
stroke
grestore
gsave
446.4 345.6 72 43.2 clipbox
308.239175 43.2 m
322.045361 43.2 l
322.045361 199.792169 l
308.239175 199.792169 l
cl
gsave
0.165 0.333 0.600 setrgbcolor
fill
grestore
stroke
grestore
gsave
446.4 345.6 72 43.2 clipbox
461.641237 43.2 m
475.447423 43.2 l
475.447423 209.006055 l
461.641237 209.006055 l
cl
gsave
0.165 0.333 0.600 setrgbcolor
fill
grestore
stroke
grestore
gsave
446.4 345.6 72 43.2 clipbox
168.643299 43.2 m
182.449485 43.2 l
182.449485 209.969306 l
168.643299 209.969306 l
cl
gsave
0.125 0.212 0.525 setrgbcolor
fill
grestore
stroke
grestore
gsave
446.4 345.6 72 43.2 clipbox
322.045361 43.2 m
335.851546 43.2 l
335.851546 209.969306 l
322.045361 209.969306 l
cl
gsave
0.125 0.212 0.525 setrgbcolor
fill
grestore
stroke
grestore
gsave
446.4 345.6 72 43.2 clipbox
475.447423 43.2 m
489.253608 43.2 l
489.253608 209.969306 l
475.447423 209.969306 l
cl
gsave
0.125 0.212 0.525 setrgbcolor
fill
grestore
stroke
grestore
gsave
446.4 345.6 72 43.2 clipbox
182.449485 43.2 m
196.25567 43.2 l
196.25567 196.987692 l
182.449485 196.987692 l
cl
gsave
0.094 0.129 0.420 setrgbcolor
fill
grestore
stroke
grestore
gsave
446.4 345.6 72 43.2 clipbox
335.851546 43.2 m
349.657732 43.2 l
349.657732 192.486423 l
335.851546 192.486423 l
cl
gsave
0.094 0.129 0.420 setrgbcolor
fill
grestore
stroke
grestore
gsave
446.4 345.6 72 43.2 clipbox
489.253608 43.2 m
503.059794 43.2 l
503.059794 195.620128 l
489.253608 195.620128 l
cl
gsave
0.094 0.129 0.420 setrgbcolor
fill
grestore
stroke
grestore
gsave
446.4 345.6 72 43.2 clipbox
196.25567 43.2 m
210.061856 43.2 l
210.061856 195.620128 l
196.25567 195.620128 l
cl
gsave
0.067 0.090 0.294 setrgbcolor
fill
grestore
stroke
grestore
gsave
446.4 345.6 72 43.2 clipbox
349.657732 43.2 m
363.463918 43.2 l
363.463918 191.460789 l
349.657732 191.460789 l
cl
gsave
0.067 0.090 0.294 setrgbcolor
fill
grestore
stroke
grestore
gsave
446.4 345.6 72 43.2 clipbox
503.059794 43.2 m
516.865979 43.2 l
516.865979 192.486423 l
503.059794 192.486423 l
cl
gsave
0.067 0.090 0.294 setrgbcolor
fill
grestore
stroke
grestore
1 setlinejoin
1.000 0.000 0.000 setrgbcolor
gsave
446.4 345.6 72 43.2 clipbox
78.903093 247.052491 m
78.903093 258.249931 l
stroke
grestore
gsave
446.4 345.6 72 43.2 clipbox
232.305155 251.04283 m
232.305155 261.68731 l
stroke
grestore
gsave
446.4 345.6 72 43.2 clipbox
385.707216 249.375245 m
385.707216 260.088845 l
stroke
grestore
gsave
446.4 345.6 72 43.2 clipbox
92.709278 236.753853 m
92.709278 249.195453 l
stroke
grestore
gsave
446.4 345.6 72 43.2 clipbox
246.11134 239.075925 m
246.11134 250.273365 l
stroke
grestore
gsave
446.4 345.6 72 43.2 clipbox
399.513402 252.134721 m
399.513402 262.848321 l
stroke
grestore
gsave
446.4 345.6 72 43.2 clipbox
106.515464 250.702834 m
106.515464 260.794354 l
stroke
grestore
gsave
446.4 345.6 72 43.2 clipbox
259.917526 250.702834 m
259.917526 260.794354 l
stroke
grestore
gsave
446.4 345.6 72 43.2 clipbox
413.319588 250.702834 m
413.319588 260.794354 l
stroke
grestore
gsave
446.4 345.6 72 43.2 clipbox
120.321649 237.945168 m
120.321649 250.110288 l
stroke
grestore
gsave
446.4 345.6 72 43.2 clipbox
273.723711 239.015802 m
273.723711 250.973562 l
stroke
grestore
gsave
446.4 345.6 72 43.2 clipbox
427.125773 244.535999 m
427.125773 255.802559 l
stroke
grestore
gsave
446.4 345.6 72 43.2 clipbox
134.127835 243.491315 m
134.127835 254.965235 l
stroke
grestore
gsave
446.4 345.6 72 43.2 clipbox
287.529897 246.128659 m
287.529897 257.187859 l
stroke
grestore
gsave
446.4 345.6 72 43.2 clipbox
440.931959 244.426041 m
440.931959 255.692601 l
stroke
grestore
gsave
446.4 345.6 72 43.2 clipbox
147.934021 196.926395 m
147.934021 211.165115 l
stroke
grestore
gsave
446.4 345.6 72 43.2 clipbox
301.336082 190.707973 m
301.336082 205.292293 l
stroke
grestore
gsave
446.4 345.6 72 43.2 clipbox
454.738144 206.731345 m
454.738144 219.380305 l
stroke
grestore
gsave
446.4 345.6 72 43.2 clipbox
161.740206 185.178064 m
161.740206 200.660944 l
stroke
grestore
gsave
446.4 345.6 72 43.2 clipbox
315.142268 192.707369 m
315.142268 206.876969 l
stroke
grestore
gsave
446.4 345.6 72 43.2 clipbox
468.54433 202.543335 m
468.54433 215.468775 l
stroke
grestore
gsave
446.4 345.6 72 43.2 clipbox
175.546392 203.610266 m
175.546392 216.328346 l
stroke
grestore
gsave
446.4 345.6 72 43.2 clipbox
328.948454 203.610266 m
328.948454 216.328346 l
stroke
grestore
gsave
446.4 345.6 72 43.2 clipbox
482.350515 203.610266 m
482.350515 216.328346 l
stroke
grestore
gsave
446.4 345.6 72 43.2 clipbox
189.352577 189.695532 m
189.352577 204.279852 l
stroke
grestore
gsave
446.4 345.6 72 43.2 clipbox
342.754639 184.675863 m
342.754639 200.296983 l
stroke
grestore
gsave
446.4 345.6 72 43.2 clipbox
496.156701 188.155168 m
496.156701 203.085088 l
stroke
grestore
gsave
446.4 345.6 72 43.2 clipbox
203.158763 188.155168 m
203.158763 203.085088 l
stroke
grestore
gsave
446.4 345.6 72 43.2 clipbox
356.560825 183.546549 m
356.560825 199.375029 l
stroke
grestore
gsave
446.4 345.6 72 43.2 clipbox
509.962887 184.675863 m
509.962887 200.296983 l
stroke
grestore
0.500 setlinewidth
gsave
446.4 345.6 72 43.2 clipbox
/o {
gsave
newpath
translate
0.5 setlinewidth
1 setlinejoin
0 setlinecap
3 -0 m
-3 0 l

gsave
1.000 0.000 0.000 setrgbcolor
fill
grestore
stroke
grestore
} bind def
78.9031 247.052 o
232.305 251.043 o
385.707 249.375 o
grestore
gsave
446.4 345.6 72 43.2 clipbox
/o {
gsave
newpath
translate
0.5 setlinewidth
1 setlinejoin
0 setlinecap
3 -0 m
-3 0 l

gsave
1.000 0.000 0.000 setrgbcolor
fill
grestore
stroke
grestore
} bind def
78.9031 258.25 o
232.305 261.687 o
385.707 260.089 o
grestore
gsave
446.4 345.6 72 43.2 clipbox
/o {
gsave
newpath
translate
0.5 setlinewidth
1 setlinejoin
0 setlinecap
3 -0 m
-3 0 l

gsave
1.000 0.000 0.000 setrgbcolor
fill
grestore
stroke
grestore
} bind def
92.7093 236.754 o
246.111 239.076 o
399.513 252.135 o
grestore
gsave
446.4 345.6 72 43.2 clipbox
/o {
gsave
newpath
translate
0.5 setlinewidth
1 setlinejoin
0 setlinecap
3 -0 m
-3 0 l

gsave
1.000 0.000 0.000 setrgbcolor
fill
grestore
stroke
grestore
} bind def
92.7093 249.195 o
246.111 250.273 o
399.513 262.848 o
grestore
gsave
446.4 345.6 72 43.2 clipbox
/o {
gsave
newpath
translate
0.5 setlinewidth
1 setlinejoin
0 setlinecap
3 -0 m
-3 0 l

gsave
1.000 0.000 0.000 setrgbcolor
fill
grestore
stroke
grestore
} bind def
106.515 250.703 o
259.918 250.703 o
413.32 250.703 o
grestore
gsave
446.4 345.6 72 43.2 clipbox
/o {
gsave
newpath
translate
0.5 setlinewidth
1 setlinejoin
0 setlinecap
3 -0 m
-3 0 l

gsave
1.000 0.000 0.000 setrgbcolor
fill
grestore
stroke
grestore
} bind def
106.515 260.794 o
259.918 260.794 o
413.32 260.794 o
grestore
gsave
446.4 345.6 72 43.2 clipbox
/o {
gsave
newpath
translate
0.5 setlinewidth
1 setlinejoin
0 setlinecap
3 -0 m
-3 0 l

gsave
1.000 0.000 0.000 setrgbcolor
fill
grestore
stroke
grestore
} bind def
120.322 237.945 o
273.724 239.016 o
427.126 244.536 o
grestore
gsave
446.4 345.6 72 43.2 clipbox
/o {
gsave
newpath
translate
0.5 setlinewidth
1 setlinejoin
0 setlinecap
3 -0 m
-3 0 l

gsave
1.000 0.000 0.000 setrgbcolor
fill
grestore
stroke
grestore
} bind def
120.322 250.11 o
273.724 250.974 o
427.126 255.803 o
grestore
gsave
446.4 345.6 72 43.2 clipbox
/o {
gsave
newpath
translate
0.5 setlinewidth
1 setlinejoin
0 setlinecap
3 -0 m
-3 0 l

gsave
1.000 0.000 0.000 setrgbcolor
fill
grestore
stroke
grestore
} bind def
134.128 243.491 o
287.53 246.129 o
440.932 244.426 o
grestore
gsave
446.4 345.6 72 43.2 clipbox
/o {
gsave
newpath
translate
0.5 setlinewidth
1 setlinejoin
0 setlinecap
3 -0 m
-3 0 l

gsave
1.000 0.000 0.000 setrgbcolor
fill
grestore
stroke
grestore
} bind def
134.128 254.965 o
287.53 257.188 o
440.932 255.693 o
grestore
gsave
446.4 345.6 72 43.2 clipbox
/o {
gsave
newpath
translate
0.5 setlinewidth
1 setlinejoin
0 setlinecap
3 -0 m
-3 0 l

gsave
1.000 0.000 0.000 setrgbcolor
fill
grestore
stroke
grestore
} bind def
147.934 196.926 o
301.336 190.708 o
454.738 206.731 o
grestore
gsave
446.4 345.6 72 43.2 clipbox
/o {
gsave
newpath
translate
0.5 setlinewidth
1 setlinejoin
0 setlinecap
3 -0 m
-3 0 l

gsave
1.000 0.000 0.000 setrgbcolor
fill
grestore
stroke
grestore
} bind def
147.934 211.165 o
301.336 205.292 o
454.738 219.38 o
grestore
gsave
446.4 345.6 72 43.2 clipbox
/o {
gsave
newpath
translate
0.5 setlinewidth
1 setlinejoin
0 setlinecap
3 -0 m
-3 0 l

gsave
1.000 0.000 0.000 setrgbcolor
fill
grestore
stroke
grestore
} bind def
161.74 185.178 o
315.142 192.707 o
468.544 202.543 o
grestore
gsave
446.4 345.6 72 43.2 clipbox
/o {
gsave
newpath
translate
0.5 setlinewidth
1 setlinejoin
0 setlinecap
3 -0 m
-3 0 l

gsave
1.000 0.000 0.000 setrgbcolor
fill
grestore
stroke
grestore
} bind def
161.74 200.661 o
315.142 206.877 o
468.544 215.469 o
grestore
gsave
446.4 345.6 72 43.2 clipbox
/o {
gsave
newpath
translate
0.5 setlinewidth
1 setlinejoin
0 setlinecap
3 -0 m
-3 0 l

gsave
1.000 0.000 0.000 setrgbcolor
fill
grestore
stroke
grestore
} bind def
175.546 203.61 o
328.948 203.61 o
482.351 203.61 o
grestore
gsave
446.4 345.6 72 43.2 clipbox
/o {
gsave
newpath
translate
0.5 setlinewidth
1 setlinejoin
0 setlinecap
3 -0 m
-3 0 l

gsave
1.000 0.000 0.000 setrgbcolor
fill
grestore
stroke
grestore
} bind def
175.546 216.328 o
328.948 216.328 o
482.351 216.328 o
grestore
gsave
446.4 345.6 72 43.2 clipbox
/o {
gsave
newpath
translate
0.5 setlinewidth
1 setlinejoin
0 setlinecap
3 -0 m
-3 0 l

gsave
1.000 0.000 0.000 setrgbcolor
fill
grestore
stroke
grestore
} bind def
189.353 189.696 o
342.755 184.676 o
496.157 188.155 o
grestore
gsave
446.4 345.6 72 43.2 clipbox
/o {
gsave
newpath
translate
0.5 setlinewidth
1 setlinejoin
0 setlinecap
3 -0 m
-3 0 l

gsave
1.000 0.000 0.000 setrgbcolor
fill
grestore
stroke
grestore
} bind def
189.353 204.28 o
342.755 200.297 o
496.157 203.085 o
grestore
gsave
446.4 345.6 72 43.2 clipbox
/o {
gsave
newpath
translate
0.5 setlinewidth
1 setlinejoin
0 setlinecap
3 -0 m
-3 0 l

gsave
1.000 0.000 0.000 setrgbcolor
fill
grestore
stroke
grestore
} bind def
203.159 188.155 o
356.561 183.547 o
509.963 184.676 o
grestore
gsave
446.4 345.6 72 43.2 clipbox
/o {
gsave
newpath
translate
0.5 setlinewidth
1 setlinejoin
0 setlinecap
3 -0 m
-3 0 l

gsave
1.000 0.000 0.000 setrgbcolor
fill
grestore
stroke
grestore
} bind def
203.159 203.085 o
356.561 199.375 o
509.963 200.297 o
grestore
1.000 setlinewidth
0 setlinejoin
2 setlinecap
0.000 setgray
gsave
72 43.2 m
72 388.8 l
stroke
grestore
gsave
72 388.8 m
518.4 388.8 l
stroke
grestore
gsave
72 43.2 m
518.4 43.2 l
stroke
grestore
gsave
518.4 43.2 m
518.4 388.8 l
stroke
grestore
0.500 setlinewidth
1 setlinejoin
0 setlinecap
gsave
/o {
gsave
newpath
translate
0.5 setlinewidth
1 setlinejoin
0 setlinecap
0 0 m
0 4 l

gsave
0.000 setgray
fill
grestore
stroke
grestore
} bind def
141.031 43.2 o
grestore
gsave
/o {
gsave
newpath
translate
0.5 setlinewidth
1 setlinejoin
0 setlinecap
0 0 m
0 -4 l

gsave
0.000 setgray
fill
grestore
stroke
grestore
} bind def
141.031 388.8 o
grestore
/BitstreamVeraSans-Roman findfont
12.000 scalefont
setfont
gsave
127.687178 30.075000 translate
0.000000 rotate
0.000000 0.000000 m /one glyphshow
7.634766 0.000000 m /zero glyphshow
15.269531 0.000000 m /percent glyphshow
grestore
gsave
/o {
gsave
newpath
translate
0.5 setlinewidth
1 setlinejoin
0 setlinecap
0 0 m
0 4 l

gsave
0.000 setgray
fill
grestore
stroke
grestore
} bind def
294.433 43.2 o
grestore
gsave
/o {
gsave
newpath
translate
0.5 setlinewidth
1 setlinejoin
0 setlinecap
0 0 m
0 -4 l

gsave
0.000 setgray
fill
grestore
stroke
grestore
} bind def
294.433 388.8 o
grestore
gsave
281.089240 30.075000 translate
0.000000 rotate
0.000000 0.000000 m /four glyphshow
7.634766 0.000000 m /zero glyphshow
15.269531 0.000000 m /percent glyphshow
grestore
gsave
/o {
gsave
newpath
translate
0.5 setlinewidth
1 setlinejoin
0 setlinecap
0 0 m
0 4 l

gsave
0.000 setgray
fill
grestore
stroke
grestore
} bind def
447.835 43.2 o
grestore
gsave
/o {
gsave
newpath
translate
0.5 setlinewidth
1 setlinejoin
0 setlinecap
0 0 m
0 -4 l

gsave
0.000 setgray
fill
grestore
stroke
grestore
} bind def
447.835 388.8 o
grestore
gsave
434.491302 30.075000 translate
0.000000 rotate
0.000000 0.000000 m /eight glyphshow
7.634766 0.000000 m /zero glyphshow
15.269531 0.000000 m /percent glyphshow
grestore
gsave
229.754687 13.246875 translate
0.000000 rotate
0.000000 0.000000 m /R glyphshow
8.337891 0.000000 m /e glyphshow
15.720703 0.000000 m /s glyphshow
21.972656 0.000000 m /t glyphshow
26.677734 0.000000 m /r glyphshow
31.611328 0.000000 m /i glyphshow
34.945312 0.000000 m /ccedilla glyphshow
41.542969 0.000000 m /atilde glyphshow
48.896484 0.000000 m /o glyphshow
56.238281 0.000000 m /space glyphshow
60.052734 0.000000 m /p glyphshow
67.669922 0.000000 m /o glyphshow
75.011719 0.000000 m /r glyphshow
79.945312 0.000000 m /space glyphshow
83.759766 0.000000 m /S glyphshow
91.376953 0.000000 m /L glyphshow
98.062500 0.000000 m /A glyphshow
106.271484 0.000000 m /space glyphshow
110.085938 0.000000 m /parenleft glyphshow
114.767578 0.000000 m /percent glyphshow
126.169922 0.000000 m /parenright glyphshow
grestore
gsave
/o {
gsave
newpath
translate
0.5 setlinewidth
1 setlinejoin
0 setlinecap
0 0 m
4 0 l

gsave
0.000 setgray
fill
grestore
stroke
grestore
} bind def
72 43.2 o
grestore
gsave
/o {
gsave
newpath
translate
0.5 setlinewidth
1 setlinejoin
0 setlinecap
0 0 m
-4 0 l

gsave
0.000 setgray
fill
grestore
stroke
grestore
} bind def
518.4 43.2 o
grestore
gsave
60.359375 39.887500 translate
0.000000 rotate
0.000000 0.000000 m /zero glyphshow
grestore
gsave
/o {
gsave
newpath
translate
0.5 setlinewidth
1 setlinejoin
0 setlinecap
0 0 m
4 0 l

gsave
0.000 setgray
fill
grestore
stroke
grestore
} bind def
72 112.32 o
grestore
gsave
/o {
gsave
newpath
translate
0.5 setlinewidth
1 setlinejoin
0 setlinecap
0 0 m
-4 0 l

gsave
0.000 setgray
fill
grestore
stroke
grestore
} bind def
518.4 112.32 o
grestore
gsave
52.718750 109.007500 translate
0.000000 rotate
0.000000 0.000000 m /two glyphshow
7.634766 0.000000 m /zero glyphshow
grestore
gsave
/o {
gsave
newpath
translate
0.5 setlinewidth
1 setlinejoin
0 setlinecap
0 0 m
4 0 l

gsave
0.000 setgray
fill
grestore
stroke
grestore
} bind def
72 181.44 o
grestore
gsave
/o {
gsave
newpath
translate
0.5 setlinewidth
1 setlinejoin
0 setlinecap
0 0 m
-4 0 l

gsave
0.000 setgray
fill
grestore
stroke
grestore
} bind def
518.4 181.44 o
grestore
gsave
52.718750 178.127500 translate
0.000000 rotate
0.000000 0.000000 m /four glyphshow
7.634766 0.000000 m /zero glyphshow
grestore
gsave
/o {
gsave
newpath
translate
0.5 setlinewidth
1 setlinejoin
0 setlinecap
0 0 m
4 0 l

gsave
0.000 setgray
fill
grestore
stroke
grestore
} bind def
72 250.56 o
grestore
gsave
/o {
gsave
newpath
translate
0.5 setlinewidth
1 setlinejoin
0 setlinecap
0 0 m
-4 0 l

gsave
0.000 setgray
fill
grestore
stroke
grestore
} bind def
518.4 250.56 o
grestore
gsave
52.718750 247.247500 translate
0.000000 rotate
0.000000 0.000000 m /six glyphshow
7.634766 0.000000 m /zero glyphshow
grestore
gsave
/o {
gsave
newpath
translate
0.5 setlinewidth
1 setlinejoin
0 setlinecap
0 0 m
4 0 l

gsave
0.000 setgray
fill
grestore
stroke
grestore
} bind def
72 319.68 o
grestore
gsave
/o {
gsave
newpath
translate
0.5 setlinewidth
1 setlinejoin
0 setlinecap
0 0 m
-4 0 l

gsave
0.000 setgray
fill
grestore
stroke
grestore
} bind def
518.4 319.68 o
grestore
gsave
52.718750 316.367500 translate
0.000000 rotate
0.000000 0.000000 m /eight glyphshow
7.634766 0.000000 m /zero glyphshow
grestore
gsave
/o {
gsave
newpath
translate
0.5 setlinewidth
1 setlinejoin
0 setlinecap
0 0 m
4 0 l

gsave
0.000 setgray
fill
grestore
stroke
grestore
} bind def
72 388.8 o
grestore
gsave
/o {
gsave
newpath
translate
0.5 setlinewidth
1 setlinejoin
0 setlinecap
0 0 m
-4 0 l

gsave
0.000 setgray
fill
grestore
stroke
grestore
} bind def
518.4 388.8 o
grestore
gsave
45.078125 385.487500 translate
0.000000 rotate
0.000000 0.000000 m /one glyphshow
7.634766 0.000000 m /zero glyphshow
15.269531 0.000000 m /zero glyphshow
grestore
gsave
37.578125 148.382812 translate
90.000000 rotate
0.000000 0.000000 m /T glyphshow
7.298828 0.000000 m /a glyphshow
14.652344 0.000000 m /x glyphshow
21.753906 0.000000 m /a glyphshow
29.107422 0.000000 m /space glyphshow
32.921875 0.000000 m /d glyphshow
40.539062 0.000000 m /e glyphshow
47.921875 0.000000 m /space glyphshow
51.736328 0.000000 m /A glyphshow
59.945312 0.000000 m /c glyphshow
66.542969 0.000000 m /e glyphshow
73.925781 0.000000 m /i glyphshow
77.259766 0.000000 m /t glyphshow
81.964844 0.000000 m /a glyphshow
89.318359 0.000000 m /ccedilla glyphshow
95.916016 0.000000 m /atilde glyphshow
103.269531 0.000000 m /o glyphshow
110.611328 0.000000 m /space glyphshow
114.425781 0.000000 m /parenleft glyphshow
119.107422 0.000000 m /percent glyphshow
130.509766 0.000000 m /parenright glyphshow
grestore

end
showpage
