\relax 
\providecommand\hyper@newdestlabel[2]{}
\providecommand\HyperFirstAtBeginDocument{\AtBeginDocument}
\HyperFirstAtBeginDocument{\ifx\hyper@anchor\@undefined
\global\let\oldcontentsline\contentsline
\gdef\contentsline#1#2#3#4{\oldcontentsline{#1}{#2}{#3}}
\global\let\oldnewlabel\newlabel
\gdef\newlabel#1#2{\newlabelxx{#1}#2}
\gdef\newlabelxx#1#2#3#4#5#6{\oldnewlabel{#1}{{#2}{#3}}}
\AtEndDocument{\ifx\hyper@anchor\@undefined
\let\contentsline\oldcontentsline
\let\newlabel\oldnewlabel
\fi}
\fi}
\global\let\hyper@last\relax 
\gdef\HyperFirstAtBeginDocument#1{#1}
\providecommand\HyField@AuxAddToFields[1]{}
\providecommand\HyField@AuxAddToCoFields[2]{}
\catcode `"\active 
\citation{abnt-url-package=hyperref}
\AC@reset@newl@bel
\select@language{brazil}
\@writefile{toc}{\select@language{brazil}}
\@writefile{lof}{\select@language{brazil}}
\@writefile{lot}{\select@language{brazil}}
\@writefile{loc}{\contentsline {chapter}{Agradecimentos}{1}{chapter*.1}}
\@writefile{loc}{\contentsline {chapter}{Resumo}{3}{chapter*.2}}
\@writefile{loc}{\contentsline {chapter}{Abstract}{4}{chapter*.3}}
\AC@undonewlabel{acro:IVs}
\newlabel{acro:IVs}{{}{5}{\contentsname \thispagestyle {empty} \@mkboth {\MakeUppercase \contentsname }{\MakeUppercase \contentsname }}{section*.5}{}}
\acronymused{IVs}
\citation{zhang:2010}
\citation{Ruck-2014}
\citation{Righi-2013}
\citation{Ruck-2014}
\citation{hinz:2016}
\@writefile{toc}{\contentsline {chapter}{Lista de Figuras}{8}{chapter*.6}}
\@writefile{toc}{\contentsline {chapter}{Lista de Abreviaturas}{10}{chapter*.7}}
\newacro{IB}[\AC@hyperlink{IB}{IB}]{\textit  {Infraestrutura Base}}
\newacro{IV}[\AC@hyperlink{IV}{IV}]{\textit  {Infraestrutura Virtual}}
\newacro{IVs}[\AC@hyperlink{IVs}{IVs}]{\textit  {Infraestruturas Virtuais}}
\newacro{IF}[\AC@hyperlink{IF}{IF}]{\textit  {Infraestrutura F\IeC {\'\i }sica}}
\newacro{MV}[\AC@hyperlink{MV}{MV}]{\textit  {M\IeC {\'a}quina Virtual}}
\newacro{MVs}[\AC@hyperlink{MVs}{MVs}]{\textit  {M\IeC {\'a}quinas Virtuais}}
\newacro{MMV}[\AC@hyperlink{MMV}{MMV}]{\textit  {Monitor de M\IeC {\'a}quinas Virtuais}}
\newacro{IaaS}[\AC@hyperlink{IaaS}{IaaS}]{\textit  {Infrastructure as a Service}}
\newacro{PaaS}[\AC@hyperlink{PaaS}{PaaS}]{\textit  {Platform as a Service}}
\newacro{SaaS}[\AC@hyperlink{SaaS}{SaaS}]{\textit  {Software as a Service}}
\newacro{SLA}[\AC@hyperlink{SLA}{SLA}]{Acordo de N\IeC {\'\i }vel de Servi\IeC {\c c}o \textit  {Service Layer Agreement}}
\newacro{SLO}[\AC@hyperlink{SLO}{SLO}]{Acordo de N\IeC {\'\i }vel de Objetivos \textit  {Service Layer Objectives}}
\newacro{EAVIRA}[\AC@hyperlink{EAVIRA}{EAVIRA}]{Energy-Aware Virtual Infrastructure Realocation Algorithm}
\newacro{BFS}[\AC@hyperlink{BFS}{BFS}]{Breadth First Search}
\newacro{VIT}[\AC@hyperlink{VIT}{VIT}]{Execu\IeC {\c c}\IeC {\~a}o do EAVIRA Somente com Aloca\IeC {\c c}\IeC {\~o}es Utilizando o VITreeM}
\newacro{RLC}[\AC@hyperlink{RLC}{RLC}]{Execu\IeC {\c c}\IeC {\~a}o do EAVIRA com Aloca\IeC {\c c}\IeC {\~o}es e Realoca\IeC {\c c}\IeC {\~o}es}
\newacro{RLC-E}[\AC@hyperlink{RLC-E}{RLC-E}]{Execu\IeC {\c c}\IeC {\~a}o do EAVIRA com Aloca\IeC {\c c}\IeC {\~o}es, Realoca\IeC {\c c}\IeC {\~o}es e Elasticidade}
\citation{Mell-2011}
\citation{Koslovski-2012}
\citation{zhu2006algorithms}
\citation{energy:2007}
\citation{energy:2007}
\citation{duan-2016}
\citation{duan-2016}
\@writefile{toc}{\contentsline {chapter}{\numberline {1}Introdu\IeC {\c c}\IeC {\~a}o}{11}{chapter.1}}
\@writefile{lof}{\addvspace {10\p@ }}
\@writefile{lot}{\addvspace {10\p@ }}
\@writefile{loa}{\addvspace {10\p@ }}
\newlabel{chap:introducao}{{1}{11}{Introdução}{chapter.1}{}}
\citation{hinz:2016}
\@writefile{toc}{\contentsline {section}{\numberline {1.1}Objetivos}{12}{section.1.1}}
\@writefile{toc}{\contentsline {section}{\numberline {1.2}Contribui\IeC {\c c}\IeC {\~o}es}{13}{section.1.2}}
\@writefile{toc}{\contentsline {section}{\numberline {1.3}Estrutura do Trabalho}{13}{section.1.3}}
\citation{foster:2008}
\citation{Mell-2011}
\citation{fox2009above}
\citation{bonomi2012fog}
\@writefile{toc}{\contentsline {chapter}{\numberline {2}Revis\IeC {\~a}o de Literatura}{14}{chapter.2}}
\@writefile{lof}{\addvspace {10\p@ }}
\@writefile{lot}{\addvspace {10\p@ }}
\@writefile{loa}{\addvspace {10\p@ }}
\newlabel{chap:revisao}{{2}{14}{Revisão de Literatura}{chapter.2}{}}
\@writefile{toc}{\contentsline {section}{\numberline {2.1}Nuvens Computacionais}{14}{section.2.1}}
\newlabel{sec:nuvem}{{2.1}{14}{Nuvens Computacionais}{section.2.1}{}}
\citation{fox2012cloud}
\citation{Koslovski-2012}
\AC@undonewlabel{acro:MVs}
\newlabel{acro:MVs}{{2.1}{15}{Nuvens Computacionais}{section*.8}{}}
\acronymused{MVs}
\citation{zhang:2010}
\citation{zhang:2010}
\AC@undonewlabel{acro:IaaS}
\newlabel{acro:IaaS}{{2.1}{16}{Nuvens Computacionais}{section*.9}{}}
\acronymused{IaaS}
\@writefile{lof}{\contentsline {figure}{\numberline {2.1}{\ignorespaces Servi\IeC {\c c}os oferecidos por provedores de nuvem. Fonte:~\cite  {zhang:2010}.\relax }}{16}{figure.caption.10}}
\providecommand*\caption@xref[2]{\@setref\relax\@undefined{#1}}
\newlabel{fig:services}{{2.1}{16}{Serviços oferecidos por provedores de nuvem. Fonte:~\cite {zhang:2010}.\relax }{figure.caption.10}{}}
\AC@undonewlabel{acro:MMV}
\newlabel{acro:MMV}{{2.1}{16}{Nuvens Computacionais}{section*.11}{}}
\acronymused{MMV}
\citation{Koslovski-2012}
\citation{Ruck-2014}
\citation{Ruck-2014}
\AC@undonewlabel{acro:MV}
\newlabel{acro:MV}{{2.1}{17}{Nuvens Computacionais}{section*.12}{}}
\acronymused{MV}
\@writefile{lof}{\contentsline {figure}{\numberline {2.2}{\ignorespaces Virtualiza\IeC {\c c}\IeC {\~a}o de recursos computacionais. Fonte: pr\IeC {\'o}prio autor.\relax }}{17}{figure.caption.13}}
\newlabel{fig:virtualization}{{2.2}{17}{Virtualização de recursos computacionais. Fonte: próprio autor.\relax }{figure.caption.13}{}}
\acronymused{MVs}
\citation{Righi-2013}
\citation{Righi-2013}
\citation{Righi-2013}
\@writefile{lof}{\contentsline {figure}{\numberline {2.3}{\ignorespaces Exemplo de aloca\IeC {\c c}\IeC {\~a}o de IVs sobre um \textit  {datacenter}. Fonte:~\cite  {Ruck-2014}\relax }}{18}{figure.caption.14}}
\newlabel{fig:iv_alocacao}{{2.3}{18}{Exemplo de alocação de IVs sobre um \textit {datacenter}. Fonte:~\cite {Ruck-2014}\relax }{figure.caption.14}{}}
\@writefile{toc}{\contentsline {section}{\numberline {2.2}Elasticidade de Recursos Virtuais}{18}{section.2.2}}
\newlabel{sec:elasticidade}{{2.2}{18}{Elasticidade de Recursos Virtuais}{section.2.2}{}}
\AC@undonewlabel{acro:SLA}
\newlabel{acro:SLA}{{2.2}{18}{Elasticidade de Recursos Virtuais}{section*.15}{}}
\acronymused{SLA}
\acronymused{MV}
\citation{Righi-2015}
\citation{Vieira-2016}
\citation{sauve2005sla}
\citation{Righi-2013}
\citation{Pfitscher-2014}
\citation{sauve2005sla}
\@writefile{lof}{\contentsline {figure}{\numberline {2.4}{\ignorespaces Comportamento de aplica\IeC {\c c}\IeC {\~o}es na presen\IeC {\c c}a (a) ou n\IeC {\~a}o (b) de elasticidade. Fonte:~\cite  {Righi-2013}\relax }}{19}{figure.caption.16}}
\newlabel{fig:escalabilidade}{{2.4}{19}{Comportamento de aplicações na presença (a) ou não (b) de elasticidade. Fonte:~\cite {Righi-2013}\relax }{figure.caption.16}{}}
\@writefile{toc}{\contentsline {subsection}{\numberline {2.2.1}\textit  {Service Level Agreement (SLA)}}{19}{subsection.2.2.1}}
\acronymused{SLA}
\citation{simoes-2014}
\@writefile{toc}{\contentsline {subsection}{\numberline {2.2.2}Requisi\IeC {\c c}\IeC {\~a}o de Provisionamento El\IeC {\'a}stico}{20}{subsection.2.2.2}}
\citation{Pfitscher-2014}
\citation{Righi-2013}
\citation{Righi-2015}
\citation{Darolt-2016}
\citation{Sharma-2011}
\citation{Sharma-2011}
\acronymused{MVs}
\@writefile{toc}{\contentsline {section}{\numberline {2.3}Mecanismos para Provisionamento de Elasticidade}{21}{section.2.3}}
\newlabel{sec:mecanismos}{{2.3}{21}{Mecanismos para Provisionamento de Elasticidade}{section.2.3}{}}
\newlabel{sec:mec}{{2.3}{21}{Mecanismos para Provisionamento de Elasticidade}{section.2.3}{}}
\citation{Sharma-2011}
\citation{clark-2005}
\citation{kikuchi2012impact}
\@writefile{toc}{\contentsline {subsection}{\numberline {2.3.1}Replica\IeC {\c c}\IeC {\~a}o de M\IeC {\'a}quinas Virtuais}{22}{subsection.2.3.1}}
\acronymused{MV}
\acronymused{MV}
\newlabel{eq:replicacao}{{2.1}{22}{Replicação de Máquinas Virtuais}{equation.2.3.1}{}}
\@writefile{toc}{\contentsline {subsection}{\numberline {2.3.2}Migra\IeC {\c c}\IeC {\~a}o de M\IeC {\'a}quinas Virtuais}{22}{subsection.2.3.2}}
\newlabel{sub:migration}{{2.3.2}{22}{Migração de Máquinas Virtuais}{subsection.2.3.2}{}}
\citation{Akoush-2010}
\citation{Strunk-2012}
\citation{Strunk-2012}
\citation{Sharma-2011}
\@writefile{loa}{\contentsline {algocf}{\numberline {1}{\ignorespaces Estimativa do tempo de migra\IeC {\c c}\IeC {\~a}o \cite  {Strunk-2012}\relax }}{24}{algocf.1}}
\newlabel{code:realoc}{{1}{24}{Migração de Máquinas Virtuais}{algocf.1}{}}
\@writefile{toc}{\contentsline {subsection}{\numberline {2.3.3}Redimensionamento de Recursos Virtuais}{24}{subsection.2.3.3}}
\citation{Ruck-2014}
\citation{Ruck-2014}
\citation{Ruck-2014}
\@writefile{toc}{\contentsline {subsection}{\numberline {2.3.4}Consolida\IeC {\c c}\IeC {\~a}o}{25}{subsection.2.3.4}}
\@writefile{toc}{\contentsline {section}{\numberline {2.4}Aloca\IeC {\c c}\IeC {\~a}o e Realoca\IeC {\c c}\IeC {\~a}o de Infraestruturas Virtuais}{25}{section.2.4}}
\citation{chowdhury:2010}
\citation{Ruck-2014}
\@writefile{lof}{\contentsline {figure}{\numberline {2.5}{\ignorespaces Exemplo de aloca\IeC {\c c}\IeC {\~a}o de IVs sobre um \textit  {datacenter} de nuvem. Fonte:~\cite  {Ruck-2014}\relax }}{26}{figure.caption.17}}
\newlabel{fig:2iv_alocacao}{{2.5}{26}{Exemplo de alocação de IVs sobre um \textit {datacenter} de nuvem. Fonte:~\cite {Ruck-2014}\relax }{figure.caption.17}{}}
\citation{survey-vne}
\citation{Ruck-2014}
\citation{cormen2009introduction}
\@writefile{toc}{\contentsline {subsection}{\numberline {2.4.1}Objetivos de Provedores e Usu\IeC {\'a}rios}{27}{subsection.2.4.1}}
\citation{Righi-2013}
\citation{Darolt-2016}
\citation{Ruck-2014}
\citation{duan-2016}
\@writefile{lof}{\contentsline {figure}{\numberline {2.6}{\ignorespaces Impacto da pol\IeC {\'\i }tica de aloca\IeC {\c c}\IeC {\~a}o ao custo do \textit  {datacenter}. Fonte: pr\IeC {\'o}prio autor.\relax }}{28}{figure.caption.18}}
\newlabel{fig:politica}{{2.6}{28}{Impacto da política de alocação ao custo do \textit {datacenter}. Fonte: próprio autor.\relax }{figure.caption.18}{}}
\citation{hinz:2016}
\acronymused{IVs}
\acronymused{IVs}
\@writefile{toc}{\contentsline {section}{\numberline {2.5}Provisionamento Verde de \ac {IVs}}{29}{section.2.5}}
\newlabel{sec:green}{{2.5}{29}{Provisionamento Verde de \ac {IVs}}{section.2.5}{}}
\newlabel{sec:verde}{{2.5}{29}{Provisionamento Verde de \ac {IVs}}{section.2.5}{}}
\citation{hinz:2016}
\citation{hinz:2016}
\@writefile{lof}{\contentsline {figure}{\numberline {2.7}{\ignorespaces Divis\IeC {\~a}o do consumo de energia de um servidor. Fonte:~\cite  {hinz:2016}\relax }}{30}{figure.caption.19}}
\newlabel{fig:energy}{{2.7}{30}{Divisão do consumo de energia de um servidor. Fonte:~\cite {hinz:2016}\relax }{figure.caption.19}{}}
\@writefile{toc}{\contentsline {section}{\numberline {2.6}Considera\IeC {\c c}\IeC {\~o}es Parciais}{30}{section.2.6}}
\newlabel{chap2:parciais}{{2.6}{30}{Considerações Parciais}{section.2.6}{}}
\citation{hinz:2016}
\citation{energy:2007}
\citation{energy:2007}
\citation{duan-2016}
\citation{duan-2016}
\citation{zhang:2010}
\citation{kaplan2008revolutionizing}
\citation{buyya2010energy}
\@writefile{toc}{\contentsline {chapter}{\numberline {3}Realoca\IeC {\c c}\IeC {\~a}o de IVs baseada no Consumo de Energia de MVs}{32}{chapter.3}}
\@writefile{lof}{\addvspace {10\p@ }}
\@writefile{lot}{\addvspace {10\p@ }}
\@writefile{loa}{\addvspace {10\p@ }}
\newlabel{chap:realocacao}{{3}{32}{Realocação de IVs baseada no Consumo de Energia de MVs}{chapter.3}{}}
\@writefile{toc}{\contentsline {section}{\numberline {3.1}Contexto de Aplica\IeC {\c c}\IeC {\~a}o}{32}{section.3.1}}
\newlabel{sec:cenario}{{3.1}{32}{Contexto de Aplicação}{section.3.1}{}}
\citation{hinz:2016}
\citation{vitreem}
\@writefile{lof}{\contentsline {figure}{\numberline {3.1}{\ignorespaces Exemplo de execu\IeC {\c c}\IeC {\~a}o de algoritmos de aloca\IeC {\c c}\IeC {\~a}o e realoca\IeC {\c c}\IeC {\~a}o de IVs. Fonte: pr\IeC {\'o}prio autor.\relax }}{33}{figure.caption.20}}
\newlabel{fig:scenario}{{3.1}{33}{Exemplo de execução de algoritmos de alocação e realocação de IVs. Fonte: próprio autor.\relax }{figure.caption.20}{}}
\@writefile{toc}{\contentsline {section}{\numberline {3.2}Objetivo do Provedor}{33}{section.3.2}}
\citation{cormen2009introduction}
\citation{vitreem}
\citation{chowdhury2009virtual}
\citation{chowdhury2010polyvine}
\citation{gong2014toward}
\citation{yu2008rethinking}
\citation{Cavalcant-2014}
\@writefile{toc}{\contentsline {section}{\numberline {3.3}Formula\IeC {\c c}\IeC {\~a}o do Problema}{34}{section.3.3}}
\AC@undonewlabel{acro:BFS}
\newlabel{acro:BFS}{{3.3}{34}{Formulação do Problema}{section*.21}{}}
\acronymused{BFS}
\@writefile{toc}{\contentsline {section}{\numberline {3.4}Trabalhos Relacionados}{34}{section.3.4}}
\citation{Sharma-2011}
\citation{zhu2006algorithms}
\citation{duan-2016}
\citation{darolt2016explorando}
\@writefile{lot}{\contentsline {table}{\numberline {3.1}{\ignorespaces Nota\IeC {\c c}\IeC {\~a}o adotada na formula\IeC {\c c}\IeC {\~a}o do mecanismo de realoca\IeC {\c c}\IeC {\~a}o el\IeC {\'a}stica\relax }}{35}{table.caption.22}}
\newlabel{notacao}{{3.1}{35}{Notação adotada na formulação do mecanismo de realocação elástica\relax }{table.caption.22}{}}
\@writefile{toc}{\contentsline {section}{\numberline {3.5}Considera\IeC {\c c}\IeC {\~o}es Parciais}{36}{section.3.5}}
\citation{hinz:2016}
\@writefile{toc}{\contentsline {chapter}{\numberline {4}\textit  {Energy-Aware Virtual Infrastructure Reallocation Algorithm} (EAVIRA)}{38}{chapter.4}}
\@writefile{lof}{\addvspace {10\p@ }}
\@writefile{lot}{\addvspace {10\p@ }}
\@writefile{loa}{\addvspace {10\p@ }}
\newlabel{chap:eavira}{{4}{38}{\textit {Energy-Aware Virtual Infrastructure Reallocation Algorithm} (EAVIRA)}{chapter.4}{}}
\@writefile{lof}{\contentsline {figure}{\numberline {4.1}{\ignorespaces Atendimento das requisi\IeC {\c c}\IeC {\~o}es dos usu\IeC {\'a}rios por parte do provedor e realoca\IeC {\c c}\IeC {\~a}o de IVs. Fonte: pr\IeC {\'o}prio autor.\relax }}{39}{figure.caption.23}}
\newlabel{fig:realocdiagram}{{4.1}{39}{Atendimento das requisições dos usuários por parte do provedor e realocação de IVs. Fonte: próprio autor.\relax }{figure.caption.23}{}}
\@writefile{toc}{\contentsline {section}{\numberline {4.1}Defini\IeC {\c c}\IeC {\~a}o da Infraestrutura Base}{40}{section.4.1}}
\newlabel{sec:eavira_ib}{{4.1}{40}{Definição da Infraestrutura Base}{section.4.1}{}}
\newlabel{eq:ifcoef}{{4.1}{40}{Definição da Infraestrutura Base}{equation.4.1.1}{}}
\@writefile{toc}{\contentsline {section}{\numberline {4.2}Etapa de Libera\IeC {\c c}\IeC {\~a}o de Recursos}{40}{section.4.2}}
\citation{Ruck-2014}
\@writefile{toc}{\contentsline {section}{\numberline {4.3}Etapa de Redimensionamento}{41}{section.4.3}}
\acronymused{MV}
\acronymused{MV}
\@writefile{toc}{\contentsline {section}{\numberline {4.4}Etapa de Replica\IeC {\c c}\IeC {\~a}o}{41}{section.4.4}}
\@writefile{toc}{\contentsline {section}{\numberline {4.5}Etapa de Migra\IeC {\c c}\IeC {\~a}o}{41}{section.4.5}}
\newlabel{sub:eavira_migracao}{{4.5}{41}{Etapa de Migração}{section.4.5}{}}
\acronymused{BFS}
\acronymused{MV}
\acronymused{MVs}
\@writefile{lof}{\contentsline {figure}{\numberline {4.2}{\ignorespaces Cen\IeC {\'a}rio de realoca\IeC {\c c}\IeC {\~a}o de IVs. Fonte: pr\IeC {\'o}prio autor.\relax }}{42}{figure.caption.24}}
\newlabel{fig:realocacao}{{4.2}{42}{Cenário de realocação de IVs. Fonte: próprio autor.\relax }{figure.caption.24}{}}
\citation{hinz:2016}
\citation{Ruck-2014}
\@writefile{loa}{\contentsline {algocf}{\numberline {2}{\ignorespaces Etapa de realoca\IeC {\c c}\IeC {\~a}o\relax }}{44}{algocf.2}}
\newlabel{code:realoc}{{2}{44}{Etapa de Migração}{algocf.2}{}}
\@writefile{toc}{\contentsline {section}{\numberline {4.6}Considera\IeC {\c c}\IeC {\~o}es Parciais}{45}{section.4.6}}
\citation{hinz:2016}
\citation{infrastructure20102}
\@writefile{toc}{\contentsline {chapter}{\numberline {5}An\IeC {\'a}lise Experimental}{46}{chapter.5}}
\@writefile{lof}{\addvspace {10\p@ }}
\@writefile{lot}{\addvspace {10\p@ }}
\@writefile{loa}{\addvspace {10\p@ }}
\newlabel{chap:analise_exp}{{5}{46}{Análise Experimental}{chapter.5}{}}
\@writefile{toc}{\contentsline {section}{\numberline {5.1}M\IeC {\'e}tricas}{46}{section.5.1}}
\newlabel{sec:ae_metricas}{{5.1}{46}{Métricas}{section.5.1}{}}
\@writefile{toc}{\contentsline {section}{\numberline {5.2}Infraestruturas F\IeC {\'\i }sicas}{46}{section.5.2}}
\newlabel{sec:ae_if}{{5.2}{46}{Infraestruturas Físicas}{section.5.2}{}}
\citation{hinz:2016}
\citation{leiserson1985fat}
\citation{al2008scalable}
\citation{darolt2016explorando}
\@writefile{lot}{\contentsline {table}{\numberline {5.1}{\ignorespaces Infraestruturas F\IeC {\'\i }sicas\relax }}{47}{table.caption.25}}
\newlabel{cenarios}{{5.1}{47}{Infraestruturas Físicas\relax }{table.caption.25}{}}
\@writefile{toc}{\contentsline {section}{\numberline {5.3}Infraestruturas Virtuais}{47}{section.5.3}}
\newlabel{sec:ae_iv}{{5.3}{47}{Infraestruturas Virtuais}{section.5.3}{}}
\citation{vitreem}
\citation{vitreem}
\@writefile{toc}{\contentsline {section}{\numberline {5.4}Algoritmos para Aloca\IeC {\c c}\IeC {\~a}o de IVs}{48}{section.5.4}}
\newlabel{sec:ae_aloc}{{5.4}{48}{Algoritmos para Alocação de IVs}{section.5.4}{}}
\@writefile{toc}{\contentsline {section}{\numberline {5.5}Algoritmos Comparados}{48}{section.5.5}}
\newlabel{sec:ae_algs}{{5.5}{48}{Algoritmos Comparados}{section.5.5}{}}
\citation{vitreem}
\@writefile{lof}{\contentsline {figure}{\numberline {5.1}{\ignorespaces Pontos negativos da IB-VI. Fonte: pr\IeC {\'o}prio autor.\relax }}{50}{figure.caption.26}}
\newlabel{fig:caso1}{{5.1}{50}{Pontos negativos da IB-VI. Fonte: próprio autor.\relax }{figure.caption.26}{}}
\@writefile{toc}{\contentsline {section}{\numberline {5.6}Cen\IeC {\'a}rio Experimental}{50}{section.5.6}}
\newlabel{sec:ae_cenario}{{5.6}{50}{Cenário Experimental}{section.5.6}{}}
\citation{hinz:2016}
\citation{hinz:2016}
\citation{hinz:2016}
\@writefile{lot}{\contentsline {table}{\numberline {5.2}{\ignorespaces Consumo energ\IeC {\'e}tico por vCPU~\cite  {hinz:2016}\relax }}{51}{table.caption.27}}
\newlabel{energy}{{5.2}{51}{Consumo energético por vCPU~\cite {hinz:2016}\relax }{table.caption.27}{}}
\@writefile{toc}{\contentsline {section}{\numberline {5.7}An\IeC {\'a}lise dos Experimentos}{51}{section.5.7}}
\newlabel{sec:ae_ae}{{5.7}{51}{Análise dos Experimentos}{section.5.7}{}}
\@writefile{lot}{\contentsline {table}{\numberline {5.3}{\ignorespaces Varia\IeC {\c c}\IeC {\~o}es de execu\IeC {\c c}\IeC {\~a}o para a an\IeC {\'a}lise experimental\relax }}{52}{table.caption.28}}
\newlabel{siglas}{{5.3}{52}{Variações de execução para a análise experimental\relax }{table.caption.28}{}}
\@writefile{toc}{\contentsline {subsection}{\numberline {5.7.1}N\IeC {\'u}mero de Migra\IeC {\c c}\IeC {\~o}es}{52}{subsection.5.7.1}}
\@writefile{toc}{\contentsline {subsection}{\numberline {5.7.2}An\IeC {\'a}lise de Execu\IeC {\c c}\IeC {\~a}o com IVs do tipo \textit  {Fat-Tree}}{52}{subsection.5.7.2}}
\@writefile{lot}{\contentsline {table}{\numberline {5.4}{\ignorespaces N\IeC {\'u}mero de migra\IeC {\c c}\IeC {\~o}es\relax }}{53}{table.caption.29}}
\newlabel{table:migrations}{{5.4}{53}{Número de migrações\relax }{table.caption.29}{}}
\newlabel{fig:ftmediumviop}{{5.2(a)}{54}{Subfigure 5 5.2(a)}{subfigure.5.2.1}{}}
\newlabel{sub@fig:ftmediumviop}{{(a)}{54}{Subfigure 5 5.2(a)\relax }{subfigure.5.2.1}{}}
\newlabel{fig:ftmediumslaop}{{5.2(b)}{54}{Subfigure 5 5.2(b)}{subfigure.5.2.2}{}}
\newlabel{sub@fig:ftmediumslaop}{{(b)}{54}{Subfigure 5 5.2(b)\relax }{subfigure.5.2.2}{}}
\newlabel{fig:ftlargeviop}{{5.2(c)}{54}{Subfigure 5 5.2(c)}{subfigure.5.2.3}{}}
\newlabel{sub@fig:ftlargeviop}{{(c)}{54}{Subfigure 5 5.2(c)\relax }{subfigure.5.2.3}{}}
\newlabel{fig:ftlargeslaop}{{5.2(d)}{54}{Subfigure 5 5.2(d)}{subfigure.5.2.4}{}}
\newlabel{sub@fig:ftlargeslaop}{{(d)}{54}{Subfigure 5 5.2(d)\relax }{subfigure.5.2.4}{}}
\@writefile{lof}{\contentsline {figure}{\numberline {5.2}{\ignorespaces N\IeC {\'u}mero de Opera\IeC {\c c}\IeC {\~o}es com IVs \textit  {Fat-Tree}\relax }}{54}{figure.caption.30}}
\newlabel{fig:ftop}{{5.2}{54}{Número de Operações com IVs \textit {Fat-Tree}\relax }{figure.caption.30}{}}
\@writefile{lof}{\contentsline {subfigure}{\numberline{(a)}{\ignorespaces {N\IeC {\'u}mero de Opera\IeC {\c c}\IeC {\~o}es com DC1 e IB-VI}}}{54}{figure.caption.30}}
\@writefile{lof}{\contentsline {subfigure}{\numberline{(b)}{\ignorespaces {N\IeC {\'u}mero de Opera\IeC {\c c}\IeC {\~o}es com DC1 e IB-SLA}}}{54}{figure.caption.30}}
\@writefile{lof}{\contentsline {subfigure}{\numberline{(c)}{\ignorespaces {N\IeC {\'u}mero de Opera\IeC {\c c}\IeC {\~o}es com DC2 e IB-VI}}}{54}{figure.caption.30}}
\@writefile{lof}{\contentsline {subfigure}{\numberline{(d)}{\ignorespaces {N\IeC {\'u}mero de Opera\IeC {\c c}\IeC {\~o}es com DC2 e IB-SLA}}}{54}{figure.caption.30}}
\newlabel{fig:ftmediumvita}{{5.3(a)}{55}{Subfigure 5 5.3(a)}{subfigure.5.3.1}{}}
\newlabel{sub@fig:ftmediumvita}{{(a)}{55}{Subfigure 5 5.3(a)\relax }{subfigure.5.3.1}{}}
\newlabel{fig:ftmediumslata}{{5.3(b)}{55}{Subfigure 5 5.3(b)}{subfigure.5.3.2}{}}
\newlabel{sub@fig:ftmediumslata}{{(b)}{55}{Subfigure 5 5.3(b)\relax }{subfigure.5.3.2}{}}
\newlabel{fig:ftlargevita}{{5.3(c)}{55}{Subfigure 5 5.3(c)}{subfigure.5.3.3}{}}
\newlabel{sub@fig:ftlargevita}{{(c)}{55}{Subfigure 5 5.3(c)\relax }{subfigure.5.3.3}{}}
\newlabel{fig:ftlargeslata}{{5.3(d)}{55}{Subfigure 5 5.3(d)}{subfigure.5.3.4}{}}
\newlabel{sub@fig:ftlargeslata}{{(d)}{55}{Subfigure 5 5.3(d)\relax }{subfigure.5.3.4}{}}
\@writefile{lof}{\contentsline {figure}{\numberline {5.3}{\ignorespaces Taxa de Aceita\IeC {\c c}\IeC {\~a}o com IVs \textit  {Fat-Tree}\relax }}{55}{figure.caption.31}}
\newlabel{fig:ftta}{{5.3}{55}{Taxa de Aceitação com IVs \textit {Fat-Tree}\relax }{figure.caption.31}{}}
\@writefile{lof}{\contentsline {subfigure}{\numberline{(a)}{\ignorespaces {Taxa de Aceita\IeC {\c c}\IeC {\~a}o com DC1 e IB-VI}}}{55}{figure.caption.31}}
\@writefile{lof}{\contentsline {subfigure}{\numberline{(b)}{\ignorespaces {Taxa de Aceita\IeC {\c c}\IeC {\~a}o com DC1 e IB-SLA}}}{55}{figure.caption.31}}
\@writefile{lof}{\contentsline {subfigure}{\numberline{(c)}{\ignorespaces {Taxa de Aceita\IeC {\c c}\IeC {\~a}o com DC2 e IB-VI}}}{55}{figure.caption.31}}
\@writefile{lof}{\contentsline {subfigure}{\numberline{(d)}{\ignorespaces {Taxa de Aceita\IeC {\c c}\IeC {\~a}o com DC2 e IB-SLA}}}{55}{figure.caption.31}}
\newlabel{fig:ftmediumvien}{{5.4(a)}{56}{Subfigure 5 5.4(a)}{subfigure.5.4.1}{}}
\newlabel{sub@fig:ftmediumvien}{{(a)}{56}{Subfigure 5 5.4(a)\relax }{subfigure.5.4.1}{}}
\newlabel{fig:ftmediumslaen}{{5.4(b)}{56}{Subfigure 5 5.4(b)}{subfigure.5.4.2}{}}
\newlabel{sub@fig:ftmediumslaen}{{(b)}{56}{Subfigure 5 5.4(b)\relax }{subfigure.5.4.2}{}}
\newlabel{fig:ftlargevien}{{5.4(c)}{56}{Subfigure 5 5.4(c)}{subfigure.5.4.3}{}}
\newlabel{sub@fig:ftlargevien}{{(c)}{56}{Subfigure 5 5.4(c)\relax }{subfigure.5.4.3}{}}
\newlabel{fig:ftlargeslaen}{{5.4(d)}{56}{Subfigure 5 5.4(d)}{subfigure.5.4.4}{}}
\newlabel{sub@fig:ftlargeslaen}{{(d)}{56}{Subfigure 5 5.4(d)\relax }{subfigure.5.4.4}{}}
\@writefile{lof}{\contentsline {figure}{\numberline {5.4}{\ignorespaces Consumo Energ\IeC {\'e}tico com IVs \textit  {Fat-Tree}\relax }}{56}{figure.caption.32}}
\newlabel{fig:ften}{{5.4}{56}{Consumo Energético com IVs \textit {Fat-Tree}\relax }{figure.caption.32}{}}
\@writefile{lof}{\contentsline {subfigure}{\numberline{(a)}{\ignorespaces {Consumo de Energia com DC1 e IB-VI}}}{56}{figure.caption.32}}
\@writefile{lof}{\contentsline {subfigure}{\numberline{(b)}{\ignorespaces {Consumo de Energia com DC1 e IB-SLA}}}{56}{figure.caption.32}}
\@writefile{lof}{\contentsline {subfigure}{\numberline{(c)}{\ignorespaces {Consumo de Energia com DC2 e IB-VI}}}{56}{figure.caption.32}}
\@writefile{lof}{\contentsline {subfigure}{\numberline{(d)}{\ignorespaces {Consumo de Energia com DC2 e IB-SLA}}}{56}{figure.caption.32}}
\@writefile{toc}{\contentsline {subsection}{\numberline {5.7.3}An\IeC {\'a}lise dos Resultados com IVs do tipo \textit  {VPC}}{56}{subsection.5.7.3}}
\newlabel{fig:vpcmediumviop}{{5.5(a)}{57}{Subfigure 5 5.5(a)}{subfigure.5.5.1}{}}
\newlabel{sub@fig:vpcmediumviop}{{(a)}{57}{Subfigure 5 5.5(a)\relax }{subfigure.5.5.1}{}}
\newlabel{fig:vpcmediumslaop}{{5.5(b)}{57}{Subfigure 5 5.5(b)}{subfigure.5.5.2}{}}
\newlabel{sub@fig:vpcmediumslaop}{{(b)}{57}{Subfigure 5 5.5(b)\relax }{subfigure.5.5.2}{}}
\newlabel{fig:vpclargeviop}{{5.5(c)}{57}{Subfigure 5 5.5(c)}{subfigure.5.5.3}{}}
\newlabel{sub@fig:vpclargeviop}{{(c)}{57}{Subfigure 5 5.5(c)\relax }{subfigure.5.5.3}{}}
\newlabel{fig:vpclargeslaop}{{5.5(d)}{57}{Subfigure 5 5.5(d)}{subfigure.5.5.4}{}}
\newlabel{sub@fig:vpclargeslaop}{{(d)}{57}{Subfigure 5 5.5(d)\relax }{subfigure.5.5.4}{}}
\@writefile{lof}{\contentsline {figure}{\numberline {5.5}{\ignorespaces N\IeC {\'u}mero de Opera\IeC {\c c}\IeC {\~o}es com IVs \textit  {VPC}\relax }}{57}{figure.caption.33}}
\newlabel{fig:vpcmediumvita}{{5.6(a)}{57}{Subfigure 5 5.6(a)}{subfigure.5.6.1}{}}
\newlabel{sub@fig:vpcmediumvita}{{(a)}{57}{Subfigure 5 5.6(a)\relax }{subfigure.5.6.1}{}}
\newlabel{fig:vpcmediumslata}{{5.6(b)}{57}{Subfigure 5 5.6(b)}{subfigure.5.6.2}{}}
\newlabel{sub@fig:vpcmediumslata}{{(b)}{57}{Subfigure 5 5.6(b)\relax }{subfigure.5.6.2}{}}
\newlabel{fig:vpclargevita}{{5.6(c)}{57}{Subfigure 5 5.6(c)}{subfigure.5.6.3}{}}
\newlabel{sub@fig:vpclargevita}{{(c)}{57}{Subfigure 5 5.6(c)\relax }{subfigure.5.6.3}{}}
\newlabel{fig:vpclargeslata}{{5.6(d)}{57}{Subfigure 5 5.6(d)}{subfigure.5.6.4}{}}
\newlabel{sub@fig:vpclargeslata}{{(d)}{57}{Subfigure 5 5.6(d)\relax }{subfigure.5.6.4}{}}
\@writefile{lof}{\contentsline {figure}{\numberline {5.6}{\ignorespaces Taxa de Aceita\IeC {\c c}\IeC {\~a}o com IVs \textit  {VPC}\relax }}{57}{figure.caption.33}}
\newlabel{fig:vpcop}{{5.6}{57}{Taxa de Aceitação com IVs \textit {VPC}\relax }{figure.caption.33}{}}
\@writefile{lof}{\contentsline {subfigure}{\numberline{(a)}{\ignorespaces {N\IeC {\'u}mero de Opera\IeC {\c c}\IeC {\~o}es com DC1 e IB-VI}}}{57}{figure.caption.33}}
\@writefile{lof}{\contentsline {subfigure}{\numberline{(b)}{\ignorespaces {N\IeC {\'u}mero de Opera\IeC {\c c}\IeC {\~o}es com DC1 e IB-SLA}}}{57}{figure.caption.33}}
\@writefile{lof}{\contentsline {subfigure}{\numberline{(c)}{\ignorespaces {N\IeC {\'u}mero de Opera\IeC {\c c}\IeC {\~o}es com DC2 e IB-VI}}}{57}{figure.caption.33}}
\@writefile{lof}{\contentsline {subfigure}{\numberline{(d)}{\ignorespaces {N\IeC {\'u}mero de Opera\IeC {\c c}\IeC {\~o}es com DC2 e IB-SLA}}}{57}{figure.caption.33}}
\@writefile{lof}{\contentsline {subfigure}{\numberline{(a)}{\ignorespaces {Taxa de Aceita\IeC {\c c}\IeC {\~a}o com DC1 e IB-VI}}}{57}{figure.caption.33}}
\@writefile{lof}{\contentsline {subfigure}{\numberline{(b)}{\ignorespaces {Taxa de Aceita\IeC {\c c}\IeC {\~a}o com DC1 e IB-SLA}}}{57}{figure.caption.33}}
\@writefile{lof}{\contentsline {subfigure}{\numberline{(c)}{\ignorespaces {Taxa de Aceita\IeC {\c c}\IeC {\~a}o com DC2 e IB-VI}}}{57}{figure.caption.33}}
\@writefile{lof}{\contentsline {subfigure}{\numberline{(d)}{\ignorespaces {Taxa de Aceita\IeC {\c c}\IeC {\~a}o com DC2 e IB-SLA}}}{57}{figure.caption.33}}
\newlabel{fig:vpcmediumvien}{{5.7(a)}{58}{Subfigure 5 5.7(a)}{subfigure.5.7.1}{}}
\newlabel{sub@fig:vpcmediumvien}{{(a)}{58}{Subfigure 5 5.7(a)\relax }{subfigure.5.7.1}{}}
\newlabel{fig:vpcmediumslaen}{{5.7(b)}{58}{Subfigure 5 5.7(b)}{subfigure.5.7.2}{}}
\newlabel{sub@fig:vpcmediumslaen}{{(b)}{58}{Subfigure 5 5.7(b)\relax }{subfigure.5.7.2}{}}
\newlabel{fig:vpclargevien}{{5.7(c)}{58}{Subfigure 5 5.7(c)}{subfigure.5.7.3}{}}
\newlabel{sub@fig:vpclargevien}{{(c)}{58}{Subfigure 5 5.7(c)\relax }{subfigure.5.7.3}{}}
\newlabel{fig:vpclargeslaen}{{5.7(d)}{58}{Subfigure 5 5.7(d)}{subfigure.5.7.4}{}}
\newlabel{sub@fig:vpclargeslaen}{{(d)}{58}{Subfigure 5 5.7(d)\relax }{subfigure.5.7.4}{}}
\@writefile{lof}{\contentsline {figure}{\numberline {5.7}{\ignorespaces Consumo Energ\IeC {\'e}tico com IVs \textit  {VPC}\relax }}{58}{figure.caption.34}}
\newlabel{fig:vpcen}{{5.7}{58}{Consumo Energético com IVs \textit {VPC}\relax }{figure.caption.34}{}}
\@writefile{lof}{\contentsline {subfigure}{\numberline{(a)}{\ignorespaces {Consumo de Energia com DC1 e IB-VI}}}{58}{figure.caption.34}}
\@writefile{lof}{\contentsline {subfigure}{\numberline{(b)}{\ignorespaces {Consumo de Energia com DC1 e IB-SLA}}}{58}{figure.caption.34}}
\@writefile{lof}{\contentsline {subfigure}{\numberline{(c)}{\ignorespaces {Consumo de Energia com DC2 e IB-VI}}}{58}{figure.caption.34}}
\@writefile{lof}{\contentsline {subfigure}{\numberline{(d)}{\ignorespaces {Consumo de Energia com DC2 e IB-SLA}}}{58}{figure.caption.34}}
\@writefile{toc}{\contentsline {subsection}{\numberline {5.7.4}An\IeC {\'a}lise dos Resultados com IVs do tipo \textit  {n-layers}}{58}{subsection.5.7.4}}
\newlabel{fig:nlayersmediumviop}{{5.8(a)}{59}{Subfigure 5 5.8(a)}{subfigure.5.8.1}{}}
\newlabel{sub@fig:nlayersmediumviop}{{(a)}{59}{Subfigure 5 5.8(a)\relax }{subfigure.5.8.1}{}}
\newlabel{fig:nlayersmediumslaop}{{5.8(b)}{59}{Subfigure 5 5.8(b)}{subfigure.5.8.2}{}}
\newlabel{sub@fig:nlayersmediumslaop}{{(b)}{59}{Subfigure 5 5.8(b)\relax }{subfigure.5.8.2}{}}
\newlabel{fig:nlayerslargeviop}{{5.8(c)}{59}{Subfigure 5 5.8(c)}{subfigure.5.8.3}{}}
\newlabel{sub@fig:nlayerslargeviop}{{(c)}{59}{Subfigure 5 5.8(c)\relax }{subfigure.5.8.3}{}}
\newlabel{fig:nlayerslargeslaop}{{5.8(d)}{59}{Subfigure 5 5.8(d)}{subfigure.5.8.4}{}}
\newlabel{sub@fig:nlayerslargeslaop}{{(d)}{59}{Subfigure 5 5.8(d)\relax }{subfigure.5.8.4}{}}
\newlabel{fig:nlayersop}{{\caption@xref {fig:nlayersop}{ on input line 490}}{59}{Análise dos Resultados com IVs do tipo \textit {n-layers}}{subfigure.5.8.4}{}}
\@writefile{lof}{\contentsline {figure}{\numberline {5.8}{\ignorespaces N\IeC {\'u}mero de Opera\IeC {\c c}\IeC {\~o}es com IVs \textit  {n-layers}\relax }}{59}{figure.caption.35}}
\newlabel{fig:nlayersmediumvita}{{5.9(a)}{59}{Subfigure 5 5.9(a)}{subfigure.5.9.1}{}}
\newlabel{sub@fig:nlayersmediumvita}{{(a)}{59}{Subfigure 5 5.9(a)\relax }{subfigure.5.9.1}{}}
\newlabel{fig:nlayersmediumslata}{{5.9(b)}{59}{Subfigure 5 5.9(b)}{subfigure.5.9.2}{}}
\newlabel{sub@fig:nlayersmediumslata}{{(b)}{59}{Subfigure 5 5.9(b)\relax }{subfigure.5.9.2}{}}
\newlabel{fig:nlayerslargevita}{{5.9(c)}{59}{Subfigure 5 5.9(c)}{subfigure.5.9.3}{}}
\newlabel{sub@fig:nlayerslargevita}{{(c)}{59}{Subfigure 5 5.9(c)\relax }{subfigure.5.9.3}{}}
\newlabel{fig:nlayerslargeslata}{{5.9(d)}{59}{Subfigure 5 5.9(d)}{subfigure.5.9.4}{}}
\newlabel{sub@fig:nlayerslargeslata}{{(d)}{59}{Subfigure 5 5.9(d)\relax }{subfigure.5.9.4}{}}
\@writefile{lof}{\contentsline {figure}{\numberline {5.9}{\ignorespaces Taxa de Aceita\IeC {\c c}\IeC {\~a}o com IVs \textit  {n-layers}\relax }}{59}{figure.caption.35}}
\newlabel{fig:nlayersta}{{5.9}{59}{Taxa de Aceitação com IVs \textit {n-layers}\relax }{figure.caption.35}{}}
\@writefile{lof}{\contentsline {subfigure}{\numberline{(a)}{\ignorespaces {N\IeC {\'u}mero de Opera\IeC {\c c}\IeC {\~o}es com DC1 e IB-VI}}}{59}{figure.caption.35}}
\@writefile{lof}{\contentsline {subfigure}{\numberline{(b)}{\ignorespaces {N\IeC {\'u}mero de Opera\IeC {\c c}\IeC {\~o}es com DC1 e IB-SLA}}}{59}{figure.caption.35}}
\@writefile{lof}{\contentsline {subfigure}{\numberline{(c)}{\ignorespaces {N\IeC {\'u}mero de Opera\IeC {\c c}\IeC {\~o}es com DC2 e IB-VI}}}{59}{figure.caption.35}}
\@writefile{lof}{\contentsline {subfigure}{\numberline{(d)}{\ignorespaces {N\IeC {\'u}mero de Opera\IeC {\c c}\IeC {\~o}es com DC2 e IB-SLA}}}{59}{figure.caption.35}}
\@writefile{lof}{\contentsline {subfigure}{\numberline{(a)}{\ignorespaces {Taxa de Aceita\IeC {\c c}\IeC {\~a}o com DC1 e IB-VI}}}{59}{figure.caption.35}}
\@writefile{lof}{\contentsline {subfigure}{\numberline{(b)}{\ignorespaces {Taxa de Aceita\IeC {\c c}\IeC {\~a}o com DC1 e IB-SLA}}}{59}{figure.caption.35}}
\@writefile{lof}{\contentsline {subfigure}{\numberline{(c)}{\ignorespaces {Taxa de Aceita\IeC {\c c}\IeC {\~a}o com DC2 e IB-VI}}}{59}{figure.caption.35}}
\@writefile{lof}{\contentsline {subfigure}{\numberline{(d)}{\ignorespaces {Taxa de Aceita\IeC {\c c}\IeC {\~a}o com DC2 e IB-SLA}}}{59}{figure.caption.35}}
\newlabel{fig:nlayersmediumvien}{{5.10(a)}{60}{Subfigure 5 5.10(a)}{subfigure.5.10.1}{}}
\newlabel{sub@fig:nlayersmediumvien}{{(a)}{60}{Subfigure 5 5.10(a)\relax }{subfigure.5.10.1}{}}
\newlabel{fig:nlayersmediumslaen}{{5.10(b)}{60}{Subfigure 5 5.10(b)}{subfigure.5.10.2}{}}
\newlabel{sub@fig:nlayersmediumslaen}{{(b)}{60}{Subfigure 5 5.10(b)\relax }{subfigure.5.10.2}{}}
\newlabel{fig:nlayerslargevien}{{5.10(c)}{60}{Subfigure 5 5.10(c)}{subfigure.5.10.3}{}}
\newlabel{sub@fig:nlayerslargevien}{{(c)}{60}{Subfigure 5 5.10(c)\relax }{subfigure.5.10.3}{}}
\newlabel{fig:nlayerslargeslaen}{{5.10(d)}{60}{Subfigure 5 5.10(d)}{subfigure.5.10.4}{}}
\newlabel{sub@fig:nlayerslargeslaen}{{(d)}{60}{Subfigure 5 5.10(d)\relax }{subfigure.5.10.4}{}}
\@writefile{lof}{\contentsline {figure}{\numberline {5.10}{\ignorespaces Consumo Energ\IeC {\'e}tico com IVs \textit  {n-layers}\relax }}{60}{figure.caption.36}}
\newlabel{fig:nlayersen}{{5.10}{60}{Consumo Energético com IVs \textit {n-layers}\relax }{figure.caption.36}{}}
\@writefile{lof}{\contentsline {subfigure}{\numberline{(a)}{\ignorespaces {Consumo de Energia com DC1 e IB-VI}}}{60}{figure.caption.36}}
\@writefile{lof}{\contentsline {subfigure}{\numberline{(b)}{\ignorespaces {Consumo de Energia com DC1 e IB-SLA}}}{60}{figure.caption.36}}
\@writefile{lof}{\contentsline {subfigure}{\numberline{(c)}{\ignorespaces {Consumo de Energia com DC2 e IB-VI}}}{60}{figure.caption.36}}
\@writefile{lof}{\contentsline {subfigure}{\numberline{(d)}{\ignorespaces {Consumo de Energia com DC2 e IB-SLA}}}{60}{figure.caption.36}}
\@writefile{toc}{\contentsline {subsection}{\numberline {5.7.5}An\IeC {\'a}lise dos Resultados com IVs do tipo \textit  {Mixed}}{61}{subsection.5.7.5}}
\newlabel{fig:mixedmediumviop}{{5.11(a)}{61}{Subfigure 5 5.11(a)}{subfigure.5.11.1}{}}
\newlabel{sub@fig:mixedmediumviop}{{(a)}{61}{Subfigure 5 5.11(a)\relax }{subfigure.5.11.1}{}}
\newlabel{fig:mixedmediumslaop}{{5.11(b)}{61}{Subfigure 5 5.11(b)}{subfigure.5.11.2}{}}
\newlabel{sub@fig:mixedmediumslaop}{{(b)}{61}{Subfigure 5 5.11(b)\relax }{subfigure.5.11.2}{}}
\newlabel{fig:mixedlargeviop}{{5.11(c)}{61}{Subfigure 5 5.11(c)}{subfigure.5.11.3}{}}
\newlabel{sub@fig:mixedlargeviop}{{(c)}{61}{Subfigure 5 5.11(c)\relax }{subfigure.5.11.3}{}}
\newlabel{fig:mixedlargeslaop}{{5.11(d)}{61}{Subfigure 5 5.11(d)}{subfigure.5.11.4}{}}
\newlabel{sub@fig:mixedlargeslaop}{{(d)}{61}{Subfigure 5 5.11(d)\relax }{subfigure.5.11.4}{}}
\@writefile{lof}{\contentsline {figure}{\numberline {5.11}{\ignorespaces N\IeC {\'u}mero de Opera\IeC {\c c}\IeC {\~o}es com IVs \textit  {mixed}\relax }}{61}{figure.caption.37}}
\newlabel{fig:mixedop}{{5.11}{61}{Número de Operações com IVs \textit {mixed}\relax }{figure.caption.37}{}}
\@writefile{lof}{\contentsline {subfigure}{\numberline{(a)}{\ignorespaces {N\IeC {\'u}mero de Opera\IeC {\c c}\IeC {\~o}es com DC1 e IB-VI}}}{61}{figure.caption.37}}
\@writefile{lof}{\contentsline {subfigure}{\numberline{(b)}{\ignorespaces {N\IeC {\'u}mero de Opera\IeC {\c c}\IeC {\~o}es com DC1 e IB-SLA}}}{61}{figure.caption.37}}
\@writefile{lof}{\contentsline {subfigure}{\numberline{(c)}{\ignorespaces {N\IeC {\'u}mero de Opera\IeC {\c c}\IeC {\~o}es com DC2 e IB-VI}}}{61}{figure.caption.37}}
\@writefile{lof}{\contentsline {subfigure}{\numberline{(d)}{\ignorespaces {N\IeC {\'u}mero de Opera\IeC {\c c}\IeC {\~o}es com DC2 e IB-SLA}}}{61}{figure.caption.37}}
\newlabel{fig:mixedmediumvita}{{5.12(a)}{63}{Subfigure 5 5.12(a)}{subfigure.5.12.1}{}}
\newlabel{sub@fig:mixedmediumvita}{{(a)}{63}{Subfigure 5 5.12(a)\relax }{subfigure.5.12.1}{}}
\newlabel{fig:mixedmediumslata}{{5.12(b)}{63}{Subfigure 5 5.12(b)}{subfigure.5.12.2}{}}
\newlabel{sub@fig:mixedmediumslata}{{(b)}{63}{Subfigure 5 5.12(b)\relax }{subfigure.5.12.2}{}}
\newlabel{fig:mixedlargevita}{{5.12(c)}{63}{Subfigure 5 5.12(c)}{subfigure.5.12.3}{}}
\newlabel{sub@fig:mixedlargevita}{{(c)}{63}{Subfigure 5 5.12(c)\relax }{subfigure.5.12.3}{}}
\newlabel{fig:mixedlargeslata}{{5.12(d)}{63}{Subfigure 5 5.12(d)}{subfigure.5.12.4}{}}
\newlabel{sub@fig:mixedlargeslata}{{(d)}{63}{Subfigure 5 5.12(d)\relax }{subfigure.5.12.4}{}}
\@writefile{lof}{\contentsline {figure}{\numberline {5.12}{\ignorespaces Taxa de Aceita\IeC {\c c}\IeC {\~a}o com IVs \textit  {mixed}\relax }}{63}{figure.caption.38}}
\newlabel{fig:mixedta}{{5.12}{63}{Taxa de Aceitação com IVs \textit {mixed}\relax }{figure.caption.38}{}}
\@writefile{lof}{\contentsline {subfigure}{\numberline{(a)}{\ignorespaces {Taxa de Aceita\IeC {\c c}\IeC {\~a}o com DC1 e IB-VI}}}{63}{figure.caption.38}}
\@writefile{lof}{\contentsline {subfigure}{\numberline{(b)}{\ignorespaces {Taxa de Aceita\IeC {\c c}\IeC {\~a}o com DC1 e IB-SLA}}}{63}{figure.caption.38}}
\@writefile{lof}{\contentsline {subfigure}{\numberline{(c)}{\ignorespaces {Taxa de Aceita\IeC {\c c}\IeC {\~a}o com DC2 e IB-VI}}}{63}{figure.caption.38}}
\@writefile{lof}{\contentsline {subfigure}{\numberline{(d)}{\ignorespaces {Taxa de Aceita\IeC {\c c}\IeC {\~a}o com DC2 e IB-SLA}}}{63}{figure.caption.38}}
\@writefile{toc}{\contentsline {subsection}{\numberline {5.7.6}Discuss\IeC {\~a}o e Principais Observa\IeC {\c c}\IeC {\~o}es}{63}{subsection.5.7.6}}
\newlabel{sec:ae_discussao}{{5.7.6}{63}{Discussão e Principais Observações}{subsection.5.7.6}{}}
\newlabel{fig:mixedmediumvien}{{5.13(a)}{64}{Subfigure 5 5.13(a)}{subfigure.5.13.1}{}}
\newlabel{sub@fig:mixedmediumvien}{{(a)}{64}{Subfigure 5 5.13(a)\relax }{subfigure.5.13.1}{}}
\newlabel{fig:mixedmediumslaen}{{5.13(b)}{64}{Subfigure 5 5.13(b)}{subfigure.5.13.2}{}}
\newlabel{sub@fig:mixedmediumslaen}{{(b)}{64}{Subfigure 5 5.13(b)\relax }{subfigure.5.13.2}{}}
\newlabel{fig:mixedlargevien}{{5.13(c)}{64}{Subfigure 5 5.13(c)}{subfigure.5.13.3}{}}
\newlabel{sub@fig:mixedlargevien}{{(c)}{64}{Subfigure 5 5.13(c)\relax }{subfigure.5.13.3}{}}
\newlabel{fig:mixedlargeslaen}{{5.13(d)}{64}{Subfigure 5 5.13(d)}{subfigure.5.13.4}{}}
\newlabel{sub@fig:mixedlargeslaen}{{(d)}{64}{Subfigure 5 5.13(d)\relax }{subfigure.5.13.4}{}}
\@writefile{lof}{\contentsline {figure}{\numberline {5.13}{\ignorespaces Consumo Energ\IeC {\'e}tico com IVs \textit  {mixed}\relax }}{64}{figure.caption.39}}
\newlabel{fig:mixeden}{{5.13}{64}{Consumo Energético com IVs \textit {mixed}\relax }{figure.caption.39}{}}
\@writefile{lof}{\contentsline {subfigure}{\numberline{(a)}{\ignorespaces {Consumo de Energia com DC1 e IB-VI}}}{64}{figure.caption.39}}
\@writefile{lof}{\contentsline {subfigure}{\numberline{(b)}{\ignorespaces {Consumo de Energia com DC1 e IB-SLA}}}{64}{figure.caption.39}}
\@writefile{lof}{\contentsline {subfigure}{\numberline{(c)}{\ignorespaces {Consumo de Energia com DC2 e IB-VI}}}{64}{figure.caption.39}}
\@writefile{lof}{\contentsline {subfigure}{\numberline{(d)}{\ignorespaces {Consumo de Energia com DC2 e IB-SLA}}}{64}{figure.caption.39}}
\@writefile{toc}{\contentsline {section}{\numberline {5.8}Considera\IeC {\c c}\IeC {\~o}es Parciais}{65}{section.5.8}}
\newlabel{sec:ae_consideracoes}{{5.8}{65}{Considerações Parciais}{section.5.8}{}}
\bibstyle{abnt-alf}
\bibdata{abntex2-options,tcc}
\@writefile{toc}{\contentsline {chapter}{\numberline {6}Conclus\IeC {\~a}o}{67}{chapter.6}}
\@writefile{lof}{\addvspace {10\p@ }}
\@writefile{lot}{\addvspace {10\p@ }}
\@writefile{loa}{\addvspace {10\p@ }}
\newlabel{chap:conclusao}{{6}{67}{Conclusão}{chapter.6}{}}
\bibcite{Akoush-2010}{Akoush et al. 2010}
\bibciteEXPL{Akoush-2010}{Akoush et al.}
\bibciteIMPL{Akoush-2010}{AKOUSH et al.}
\bibciteYEAR{Akoush-2010}{2010}
\bibcite{al2008scalable}{Al-Fares, Loukissas e Vahdat 2008}
\bibciteEXPL{al2008scalable}{Al-Fares, Loukissas e Vahdat}
\bibciteIMPL{al2008scalable}{AL-FARES; LOUKISSAS; VAHDAT}
\bibciteYEAR{al2008scalable}{2008}
\bibcite{bonomi2012fog}{Bonomi et al. 2012}
\bibciteEXPL{bonomi2012fog}{Bonomi et al.}
\bibciteIMPL{bonomi2012fog}{BONOMI et al.}
\bibciteYEAR{bonomi2012fog}{2012}
\bibcite{energy:2007}{Brown et al. 2007}
\bibciteEXPL{energy:2007}{Brown et al.}
\bibciteIMPL{energy:2007}{BROWN et al.}
\bibciteYEAR{energy:2007}{2007}
\bibcite{buyya2010energy}{Buyya, Beloglazov e Abawajy 2010}
\bibciteEXPL{buyya2010energy}{Buyya, Beloglazov e Abawajy}
\bibciteIMPL{buyya2010energy}{BUYYA; BELOGLAZOV; ABAWAJY}
\bibciteYEAR{buyya2010energy}{2010}
\bibcite{Cavalcant-2014}{Cavalcanti, Obelheiro e Koslovski 2014}
\bibciteEXPL{Cavalcant-2014}{Cavalcanti, Obelheiro e Koslovski}
\bibciteIMPL{Cavalcant-2014}{CAVALCANTI; OBELHEIRO; KOSLOVSKI}
\bibciteYEAR{Cavalcant-2014}{2014}
\bibcite{chowdhury2010polyvine}{Chowdhury, Samuel e Boutaba 2010}
\bibciteEXPL{chowdhury2010polyvine}{Chowdhury, Samuel e Boutaba}
\bibciteIMPL{chowdhury2010polyvine}{CHOWDHURY; SAMUEL; BOUTABA}
\bibciteYEAR{chowdhury2010polyvine}{2010}
\bibcite{chowdhury2009virtual}{Chowdhury, Rahman e Boutaba 2009}
\bibciteEXPL{chowdhury2009virtual}{Chowdhury, Rahman e Boutaba}
\bibciteIMPL{chowdhury2009virtual}{CHOWDHURY; RAHMAN; BOUTABA}
\bibciteYEAR{chowdhury2009virtual}{2009}
\bibcite{chowdhury:2010}{Chowdhury e Boutaba 2010}
\bibciteEXPL{chowdhury:2010}{Chowdhury e Boutaba}
\bibciteIMPL{chowdhury:2010}{CHOWDHURY; BOUTABA}
\bibciteYEAR{chowdhury:2010}{2010}
\bibcite{clark-2005}{Clark et al. 2005}
\bibciteEXPL{clark-2005}{Clark et al.}
\bibciteIMPL{clark-2005}{CLARK et al.}
\bibciteYEAR{clark-2005}{2005}
\bibcite{cormen2009introduction}{Cormen 2009}
\bibciteEXPL{cormen2009introduction}{Cormen}
\bibciteIMPL{cormen2009introduction}{CORMEN}
\bibciteYEAR{cormen2009introduction}{2009}
\bibcite{Darolt-2016}{Darolt, Souza e Koslovski 2016}
\bibciteEXPL{Darolt-2016}{Darolt, Souza e Koslovski}
\bibciteIMPL{Darolt-2016}{DAROLT; SOUZA; KOSLOVSKI}
\bibciteYEAR{Darolt-2016}{2016a}
\bibcite{darolt2016explorando}{Darolt, Souza e Koslovski 2016}
\bibciteEXPL{darolt2016explorando}{Darolt, Souza e Koslovski}
\bibciteIMPL{darolt2016explorando}{DAROLT; SOUZA; KOSLOVSKI}
\bibciteYEAR{darolt2016explorando}{2016b}
\bibcite{duan-2016}{Duan et al. 2016}
\bibciteEXPL{duan-2016}{Duan et al.}
\bibciteIMPL{duan-2016}{DUAN et al.}
\bibciteYEAR{duan-2016}{2016}
\@writefile{toc}{\contentsline {chapter}{Refer\IeC {\^e}ncias}{68}{chapter*.40}}
\bibcite{survey-vne}{Fischer et al. 2013}
\bibciteEXPL{survey-vne}{Fischer et al.}
\bibciteIMPL{survey-vne}{FISCHER et al.}
\bibciteYEAR{survey-vne}{2013}
\bibcite{foster:2008}{Foster et al. 2008}
\bibciteEXPL{foster:2008}{Foster et al.}
\bibciteIMPL{foster:2008}{FOSTER et al.}
\bibciteYEAR{foster:2008}{2008}
\bibcite{fox2009above}{Fox et al. 2009}
\bibciteEXPL{fox2009above}{Fox et al.}
\bibciteIMPL{fox2009above}{FOX et al.}
\bibciteYEAR{fox2009above}{2009}
\bibcite{fox2012cloud}{Fox e Gannon 2012}
\bibciteEXPL{fox2012cloud}{Fox e Gannon}
\bibciteIMPL{fox2012cloud}{FOX; GANNON}
\bibciteYEAR{fox2012cloud}{2012}
\bibcite{gong2014toward}{Gong et al. 2014}
\bibciteEXPL{gong2014toward}{Gong et al.}
\bibciteIMPL{gong2014toward}{GONG et al.}
\bibciteYEAR{gong2014toward}{2014}
\bibcite{hinz:2016}{Hinz et al. 2016}
\bibciteEXPL{hinz:2016}{Hinz et al.}
\bibciteIMPL{hinz:2016}{HINZ et al.}
\bibciteYEAR{hinz:2016}{2016}
\bibcite{infrastructure20102}{Infrastructure 2010}
\bibciteEXPL{infrastructure20102}{Infrastructure}
\bibciteIMPL{infrastructure20102}{INFRASTRUCTURE}
\bibciteYEAR{infrastructure20102}{2010}
\bibcite{kaplan2008revolutionizing}{Kaplan, Forrest e Kindler 2008}
\bibciteEXPL{kaplan2008revolutionizing}{Kaplan, Forrest e Kindler}
\bibciteIMPL{kaplan2008revolutionizing}{KAPLAN; FORREST; KINDLER}
\bibciteYEAR{kaplan2008revolutionizing}{2008}
\bibcite{kikuchi2012impact}{Kikuchi e Matsumoto 2012}
\bibciteEXPL{kikuchi2012impact}{Kikuchi e Matsumoto}
\bibciteIMPL{kikuchi2012impact}{KIKUCHI; MATSUMOTO}
\bibciteYEAR{kikuchi2012impact}{2012}
\bibcite{Koslovski-2012}{Koslovski 2012}
\bibciteEXPL{Koslovski-2012}{Koslovski}
\bibciteIMPL{Koslovski-2012}{KOSLOVSKI}
\bibciteYEAR{Koslovski-2012}{2012}
\bibcite{leiserson1985fat}{Leiserson 1985}
\bibciteEXPL{leiserson1985fat}{Leiserson}
\bibciteIMPL{leiserson1985fat}{LEISERSON}
\bibciteYEAR{leiserson1985fat}{1985}
\bibcite{Mell-2011}{Mell e Grance 2011}
\bibciteEXPL{Mell-2011}{Mell e Grance}
\bibciteIMPL{Mell-2011}{MELL; GRANCE}
\bibciteYEAR{Mell-2011}{2011}
\bibcite{vitreem}{Oliveira e Koslovski 2015}
\bibciteEXPL{vitreem}{Oliveira e Koslovski}
\bibciteIMPL{vitreem}{OLIVEIRA; KOSLOVSKI}
\bibciteYEAR{vitreem}{2015}
\bibcite{Pfitscher-2014}{Pfitscher, Pillon e Obelheiro 2014}
\bibciteEXPL{Pfitscher-2014}{Pfitscher, Pillon e Obelheiro}
\bibciteIMPL{Pfitscher-2014}{PFITSCHER; PILLON; OBELHEIRO}
\bibciteYEAR{Pfitscher-2014}{2014}
\bibcite{Righi-2015}{Righi et al. 2015}
\bibciteEXPL{Righi-2015}{Righi et al.}
\bibciteIMPL{Righi-2015}{RIGHI et al.}
\bibciteYEAR{Righi-2015}{2015}
\bibcite{Righi-2013}{Righi 2013}
\bibciteEXPL{Righi-2013}{Righi}
\bibciteIMPL{Righi-2013}{RIGHI}
\bibciteYEAR{Righi-2013}{2013}
\bibcite{Ruck-2014}{Ruck, Oliveira e Koslovski 2014}
\bibciteEXPL{Ruck-2014}{Ruck, Oliveira e Koslovski}
\bibciteIMPL{Ruck-2014}{RUCK; OLIVEIRA; KOSLOVSKI}
\bibciteYEAR{Ruck-2014}{2014}
\bibcite{sauve2005sla}{Sauv{\'e} et al. 2005}
\bibciteEXPL{sauve2005sla}{Sauv{\'e} et al.}
\bibciteIMPL{sauve2005sla}{SAUV{\'E} et al.}
\bibciteYEAR{sauve2005sla}{2005}
\bibcite{Sharma-2011}{Sharma et al. 2011}
\bibciteEXPL{Sharma-2011}{Sharma et al.}
\bibciteIMPL{Sharma-2011}{SHARMA et al.}
\bibciteYEAR{Sharma-2011}{2011}
\bibcite{simoes-2014}{Sim\IeC {\~o}es e Kamienski 2014}
\bibciteEXPL{simoes-2014}{Sim\IeC {\~o}es e Kamienski}
\bibciteIMPL{simoes-2014}{SIM\IeC {\~o}ES; KAMIENSKI}
\bibciteYEAR{simoes-2014}{2014}
\bibcite{Strunk-2012}{Strunk 2012}
\bibciteEXPL{Strunk-2012}{Strunk}
\bibciteIMPL{Strunk-2012}{STRUNK}
\bibciteYEAR{Strunk-2012}{2012}
\bibcite{Vieira-2016}{Vieira, Bittencourt e Madeira 2016}
\bibciteEXPL{Vieira-2016}{Vieira, Bittencourt e Madeira}
\bibciteIMPL{Vieira-2016}{VIEIRA; BITTENCOURT; MADEIRA}
\bibciteYEAR{Vieira-2016}{2016}
\bibcite{yu2008rethinking}{Yu et al. 2008}
\bibciteEXPL{yu2008rethinking}{Yu et al.}
\bibciteIMPL{yu2008rethinking}{YU et al.}
\bibciteYEAR{yu2008rethinking}{2008}
\bibcite{zhang:2010}{Zhang, Cheng e Boutaba 2010}
\bibciteEXPL{zhang:2010}{Zhang, Cheng e Boutaba}
\bibciteIMPL{zhang:2010}{ZHANG; CHENG; BOUTABA}
\bibciteYEAR{zhang:2010}{2010}
\bibcite{zhu2006algorithms}{Zhu e Ammar 2006}
\bibciteEXPL{zhu2006algorithms}{Zhu e Ammar}
\bibciteIMPL{zhu2006algorithms}{ZHU; AMMAR}
\bibciteYEAR{zhu2006algorithms}{2006}
